# MagicaVoxel @ Ephtracy

# group
o 

# material
mtllib anvil.mtl
usemtl palette

# normals
vn -1 0 0
vn 1 0 0
vn 0 0 1
vn 0 0 -1
vn 0 -1 0
vn 0 1 0

# texcoords
vt 0.306641 0.5
vt 0.970703 0.5
vt 0.974609 0.5
vt 0.982422 0.5
vt 0.986328 0.5

# verts
v -2 0.9 1.8
v -2 0.9 0.8
v -2 1.1 1.8
v -2 1.1 0.8
v -1.9 1.1 1.8
v -1.9 1.1 0.8
v -1.9 1.2 1.8
v -1.9 1.2 0.8
v -1.8 0.8 1.8
v -1.8 0.8 0.8
v -1.8 0.9 1.8
v -1.8 0.9 0.8
v -1.7 1.2 1.8
v -1.7 1.2 0.8
v -1.7 1.3 1.8
v -1.7 1.3 0.8
v -1.6 0 1.8
v -1.6 0 0.8
v -1.6 0.3 1.8
v -1.6 0.3 0.8
v -1.5 0.3 1.7
v -1.5 0.3 0.9
v -1.5 0.4 1.7
v -1.5 0.4 0.9
v -1.4 0.4 1.6
v -1.4 0.4 1
v -1.4 0.8 1.6
v -1.4 0.8 1
v -1.2 0 0.8
v -1.2 0 0.3
v -1.2 0.3 0.8
v -1.2 0.3 0.3
v -0.8 0.3 0.7
v -0.8 0.3 0.4
v -0.8 2.2 0.7
v -0.8 2.2 0.6
v -0.8 2.2 0.5
v -0.8 2.2 0.4
v -0.8 2.3 0.6
v -0.8 2.3 0.5
v -0.7 2.2 0.7
v -0.7 2.2 0.6
v -0.7 2.2 0.5
v -0.7 2.2 0.4
v -0.7 2.3 0.7
v -0.7 2.3 0.6
v -0.7 2.3 0.5
v -0.7 2.3 0.4
v -1.1 0 0.8
v -1.1 0 0.7
v -1.1 0 0.4
v -1.1 0 0.3
v -1.1 0.3 0.8
v -1.1 0.3 0.7
v -1.1 0.3 0.4
v -1.1 0.3 0.3
v -0.6 2.2 0.7
v -0.6 2.2 0.6
v -0.6 2.2 0.5
v -0.6 2.2 0.4
v -0.6 2.3 0.7
v -0.6 2.3 0.6
v -0.6 2.3 0.5
v -0.6 2.3 0.4
v -0.5 0.3 0.7
v -0.5 0.3 0.6
v -0.5 0.3 0.4
v -0.5 2.2 0.7
v -0.5 2.2 0.6
v -0.5 2.2 0.5
v -0.5 2.2 0.4
v -0.5 2.3 0.6
v -0.5 2.3 0.5
v -0.0999999 0 0.7
v -0.0999999 0 0.4
v -0.0999999 0.3 0.7
v -0.0999999 0.3 0.4
v 0.1 0.4 1.6
v 0.1 0.4 1
v 0.1 0.8 1.6
v 0.1 0.8 1
v 0.2 0.3 1.7
v 0.2 0.3 0.9
v 0.2 0.4 1.7
v 0.2 0.4 0.9
v 0.3 0 1.8
v 0.3 0 0.8
v 0.3 0.3 1.8
v 0.3 0.3 0.8
v 0.3 0.8 1.8
v 0.3 0.8 0.8
v 0.3 0.9 1.7
v 0.3 0.9 0.9
v 0.3 1.2 1.7
v 0.3 1.2 0.9
v 0.3 1.3 1.8
v 0.3 1.3 0.8
v 0.6 0.9 1.7
v 0.6 0.9 0.9
v 0.6 1.2 1.7
v 0.6 1.2 0.9
v -2 0.9 1.8
v -2 1.1 1.8
v -1.9 1.1 1.8
v -1.9 1.2 1.8
v -1.8 0.8 1.8
v -1.8 0.9 1.8
v -1.7 1.2 1.8
v -1.7 1.3 1.8
v -1.6 0 1.8
v -1.6 0.3 1.8
v 0.3 0 1.8
v 0.3 0.3 1.8
v 0.3 0.8 1.8
v 0.3 1.3 1.8
v -1.5 0.3 1.7
v -1.5 0.4 1.7
v 0.2 0.3 1.7
v 0.2 0.4 1.7
v 0.3 0.9 1.7
v 0.3 1.2 1.7
v 0.6 0.9 1.7
v 0.6 1.2 1.7
v -1.4 0.4 1.6
v -1.4 0.8 1.6
v 0.1 0.4 1.6
v 0.1 0.8 1.6
v -1.1 0 0.7
v -1.1 0.3 0.7
v -0.8 0.3 0.7
v -0.8 2.2 0.7
v -0.7 2.2 0.7
v -0.7 2.3 0.7
v -0.6 0.3 0.7
v -0.6 2.2 0.7
v -0.6 2.3 0.7
v -0.5 0.3 0.7
v -0.5 2.2 0.7
v -0.0999999 0 0.7
v -0.0999999 0.3 0.7
v -0.8 2.2 0.6
v -0.8 2.3 0.6
v -0.7 2.2 0.6
v -0.7 2.3 0.6
v -0.6 2.2 0.6
v -0.6 2.3 0.6
v -0.5 2.2 0.6
v -0.5 2.3 0.6
v -1.4 0.4 1
v -1.4 0.8 1
v 0.1 0.4 1
v 0.1 0.8 1
v -1.5 0.3 0.9
v -1.5 0.4 0.9
v 0.2 0.3 0.9
v 0.2 0.4 0.9
v 0.3 0.9 0.9
v 0.3 1.2 0.9
v 0.6 0.9 0.9
v 0.6 1.2 0.9
v -2 0.9 0.8
v -2 1.1 0.8
v -1.9 1.1 0.8
v -1.9 1.2 0.8
v -1.8 0.8 0.8
v -1.8 0.9 0.8
v -1.7 1.2 0.8
v -1.7 1.3 0.8
v -1.6 0 0.8
v -1.6 0.3 0.8
v -1.2 0 0.8
v -1.2 0.3 0.8
v -1.1 0 0.8
v -1.1 0.3 0.8
v 0.3 0 0.8
v 0.3 0.3 0.8
v 0.3 0.8 0.8
v 0.3 1.3 0.8
v -0.8 2.2 0.5
v -0.8 2.3 0.5
v -0.7 2.2 0.5
v -0.7 2.3 0.5
v -0.6 2.2 0.5
v -0.6 2.3 0.5
v -0.5 2.2 0.5
v -0.5 2.3 0.5
v -1.1 0 0.4
v -1.1 0.3 0.4
v -0.8 0.3 0.4
v -0.8 2.2 0.4
v -0.7 2.1 0.4
v -0.7 2.2 0.4
v -0.7 2.3 0.4
v -0.6 2.1 0.4
v -0.6 2.2 0.4
v -0.6 2.3 0.4
v -0.5 0.3 0.4
v -0.5 2.2 0.4
v -0.0999999 0 0.4
v -0.0999999 0.3 0.4
v -1.2 0 0.3
v -1.2 0.3 0.3
v -1.1 0 0.3
v -1.1 0.3 0.3
v -1.6 0 1.8
v 0.3 0 1.8
v -1.6 0 0.8
v -1.2 0 0.8
v -1.1 0 0.8
v 0.3 0 0.8
v -1.1 0 0.7
v -0.0999999 0 0.7
v -1.1 0 0.4
v -0.0999999 0 0.4
v -1.2 0 0.3
v -1.1 0 0.3
v -1.8 0.8 1.8
v 0.3 0.8 1.8
v -1.4 0.8 1.6
v 0.1 0.8 1.6
v -1.4 0.8 1
v 0.1 0.8 1
v -1.8 0.8 0.8
v 0.3 0.8 0.8
v -2 0.9 1.8
v -1.8 0.9 1.8
v 0.3 0.9 1.7
v 0.6 0.9 1.7
v 0.3 0.9 0.9
v 0.6 0.9 0.9
v -2 0.9 0.8
v -1.8 0.9 0.8
v -1.6 0.3 1.8
v 0.3 0.3 1.8
v -1.5 0.3 1.7
v 0.2 0.3 1.7
v -1.5 0.3 0.9
v 0.2 0.3 0.9
v -1.6 0.3 0.8
v -1.2 0.3 0.8
v -1.1 0.3 0.8
v 0.3 0.3 0.8
v -1.1 0.3 0.7
v -0.8 0.3 0.7
v -0.5 0.3 0.7
v -0.0999999 0.3 0.7
v -0.5 0.3 0.6
v -1.1 0.3 0.4
v -0.8 0.3 0.4
v -0.5 0.3 0.4
v -0.0999999 0.3 0.4
v -1.2 0.3 0.3
v -1.1 0.3 0.3
v -1.5 0.4 1.7
v 0.2 0.4 1.7
v -1.4 0.4 1.6
v 0.1 0.4 1.6
v -1.4 0.4 1
v 0.1 0.4 1
v -1.5 0.4 0.9
v 0.2 0.4 0.9
v -2 1.1 1.8
v -1.9 1.1 1.8
v -2 1.1 0.8
v -1.9 1.1 0.8
v -1.9 1.2 1.8
v -1.7 1.2 1.8
v 0.3 1.2 1.7
v 0.6 1.2 1.7
v 0.3 1.2 0.9
v 0.6 1.2 0.9
v -1.9 1.2 0.8
v -1.7 1.2 0.8
v -1.7 1.3 1.8
v 0.3 1.3 1.8
v -1.7 1.3 0.8
v 0.3 1.3 0.8
v -0.8 2.2 0.7
v -0.7 2.2 0.7
v -0.6 2.2 0.7
v -0.5 2.2 0.7
v -0.8 2.2 0.6
v -0.7 2.2 0.6
v -0.6 2.2 0.6
v -0.5 2.2 0.6
v -0.8 2.2 0.5
v -0.7 2.2 0.5
v -0.6 2.2 0.5
v -0.5 2.2 0.5
v -0.8 2.2 0.4
v -0.7 2.2 0.4
v -0.6 2.2 0.4
v -0.5 2.2 0.4
v -0.7 2.3 0.7
v -0.6 2.3 0.7
v -0.8 2.3 0.6
v -0.7 2.3 0.6
v -0.6 2.3 0.6
v -0.5 2.3 0.6
v -0.8 2.3 0.5
v -0.7 2.3 0.5
v -0.6 2.3 0.5
v -0.5 2.3 0.5
v -0.7 2.3 0.4
v -0.6 2.3 0.4

# faces
f 3/5/1 2/5/1 1/5/1
f 4/5/1 2/5/1 3/5/1
f 7/5/1 6/5/1 5/5/1
f 8/5/1 6/5/1 7/5/1
f 11/5/1 10/5/1 9/5/1
f 12/5/1 10/5/1 11/5/1
f 15/5/1 14/5/1 13/5/1
f 16/5/1 14/5/1 15/5/1
f 19/5/1 18/5/1 17/5/1
f 20/5/1 18/5/1 19/5/1
f 23/5/1 22/5/1 21/5/1
f 24/5/1 22/5/1 23/5/1
f 27/5/1 26/5/1 25/5/1
f 28/5/1 26/5/1 27/5/1
f 31/3/1 30/3/1 29/3/1
f 32/3/1 30/3/1 31/3/1
f 35/2/1 34/2/1 33/2/1
f 36/2/1 34/2/1 35/2/1
f 37/2/1 34/2/1 36/2/1
f 38/2/1 34/2/1 37/2/1
f 39/2/1 37/2/1 36/2/1
f 40/2/1 37/2/1 39/2/1
f 45/2/1 42/2/1 41/2/1
f 46/2/1 42/2/1 45/2/1
f 47/2/1 44/2/1 43/2/1
f 48/2/1 44/2/1 47/2/1
f 49/3/2 50/3/2 53/3/2
f 53/3/2 50/3/2 54/3/2
f 51/3/2 52/3/2 55/3/2
f 55/3/2 52/3/2 56/3/2
f 57/2/2 58/2/2 61/2/2
f 61/2/2 58/2/2 62/2/2
f 59/2/2 60/2/2 63/2/2
f 63/2/2 60/2/2 64/2/2
f 65/4/2 66/4/2 68/4/2
f 66/2/2 67/2/2 69/2/2
f 68/4/2 66/4/2 69/4/2
f 69/2/2 67/2/2 70/2/2
f 70/2/2 67/2/2 71/2/2
f 69/2/2 70/2/2 72/2/2
f 72/2/2 70/2/2 73/2/2
f 74/3/2 75/3/2 76/3/2
f 76/3/2 75/3/2 77/3/2
f 78/5/2 79/5/2 80/5/2
f 80/5/2 79/5/2 81/5/2
f 82/5/2 83/5/2 84/5/2
f 84/5/2 83/5/2 85/5/2
f 86/5/2 87/5/2 88/5/2
f 88/5/2 87/5/2 89/5/2
f 90/5/2 91/5/2 92/5/2
f 92/5/2 91/5/2 93/5/2
f 90/5/2 92/5/2 94/5/2
f 93/5/2 91/5/2 95/5/2
f 90/5/2 94/5/2 96/5/2
f 94/5/2 95/5/2 96/5/2
f 95/5/2 91/5/2 97/5/2
f 96/5/2 95/5/2 97/5/2
f 98/5/2 99/5/2 100/5/2
f 100/5/2 99/5/2 101/5/2
f 104/5/3 103/5/3 102/5/3
f 107/5/3 104/5/3 102/5/3
f 107/5/3 105/5/3 104/5/3
f 108/5/3 105/5/3 107/5/3
f 108/5/3 107/5/3 106/5/3
f 112/5/3 111/5/3 110/5/3
f 113/5/3 111/5/3 112/5/3
f 114/5/3 108/5/3 106/5/3
f 114/5/3 109/5/3 108/5/3
f 115/5/3 109/5/3 114/5/3
f 118/5/3 117/5/3 116/5/3
f 119/5/3 117/5/3 118/5/3
f 122/5/3 121/5/3 120/5/3
f 123/5/3 121/5/3 122/5/3
f 126/5/3 125/5/3 124/5/3
f 127/5/3 125/5/3 126/5/3
f 130/3/3 129/3/3 128/3/3
f 132/2/3 131/2/3 130/2/3
f 134/3/3 130/3/3 128/3/3
f 134/2/3 133/2/3 132/2/3
f 134/2/3 132/2/3 130/2/3
f 135/2/3 133/2/3 134/2/3
f 136/2/3 133/2/3 135/2/3
f 137/3/3 134/3/3 128/3/3
f 137/4/3 135/4/3 134/4/3
f 138/4/3 135/4/3 137/4/3
f 139/3/3 137/3/3 128/3/3
f 140/3/3 137/3/3 139/3/3
f 143/2/3 142/2/3 141/2/3
f 144/2/3 142/2/3 143/2/3
f 147/2/3 146/2/3 145/2/3
f 148/2/3 146/2/3 147/2/3
f 149/5/4 150/5/4 151/5/4
f 151/5/4 150/5/4 152/5/4
f 153/5/4 154/5/4 155/5/4
f 155/5/4 154/5/4 156/5/4
f 157/5/4 158/5/4 159/5/4
f 159/5/4 158/5/4 160/5/4
f 161/5/4 162/5/4 163/5/4
f 161/5/4 163/5/4 166/5/4
f 163/5/4 164/5/4 166/5/4
f 166/5/4 164/5/4 167/5/4
f 165/5/4 166/5/4 167/5/4
f 169/5/4 170/5/4 171/5/4
f 171/5/4 170/5/4 172/5/4
f 173/5/4 174/5/4 175/5/4
f 175/5/4 174/5/4 176/5/4
f 165/5/4 167/5/4 177/5/4
f 167/5/4 168/5/4 177/5/4
f 177/5/4 168/5/4 178/5/4
f 179/2/4 180/2/4 181/2/4
f 181/2/4 180/2/4 182/2/4
f 183/2/4 184/2/4 185/2/4
f 185/2/4 184/2/4 186/2/4
f 187/3/4 188/3/4 189/3/4
f 189/2/4 190/2/4 191/2/4
f 191/2/4 190/2/4 192/2/4
f 189/2/4 191/2/4 194/2/4
f 191/1/4 192/1/4 194/1/4
f 192/2/4 193/2/4 195/2/4
f 194/1/4 192/1/4 195/1/4
f 195/2/4 193/2/4 196/2/4
f 187/3/4 189/3/4 197/3/4
f 189/2/4 194/2/4 197/2/4
f 194/2/4 195/2/4 197/2/4
f 197/2/4 195/2/4 198/2/4
f 187/3/4 197/3/4 199/3/4
f 199/3/4 197/3/4 200/3/4
f 201/3/4 202/3/4 203/3/4
f 203/3/4 202/3/4 204/3/4
f 207/5/5 206/5/5 205/5/5
f 208/5/5 206/5/5 207/5/5
f 209/5/5 206/5/5 208/5/5
f 210/5/5 206/5/5 209/5/5
f 211/3/5 209/3/5 208/3/5
f 213/3/5 211/3/5 208/3/5
f 213/3/5 212/3/5 211/3/5
f 214/3/5 212/3/5 213/3/5
f 215/3/5 213/3/5 208/3/5
f 216/3/5 213/3/5 215/3/5
f 219/5/5 218/5/5 217/5/5
f 220/5/5 218/5/5 219/5/5
f 221/5/5 219/5/5 217/5/5
f 222/5/5 218/5/5 220/5/5
f 223/5/5 221/5/5 217/5/5
f 223/5/5 222/5/5 221/5/5
f 224/5/5 218/5/5 222/5/5
f 224/5/5 222/5/5 223/5/5
f 229/5/5 228/5/5 227/5/5
f 230/5/5 228/5/5 229/5/5
f 231/5/5 226/5/5 225/5/5
f 232/5/5 226/5/5 231/5/5
f 233/5/6 234/5/6 235/5/6
f 235/5/6 234/5/6 236/5/6
f 233/5/6 235/5/6 237/5/6
f 236/5/6 234/5/6 238/5/6
f 233/5/6 237/5/6 239/5/6
f 237/5/6 238/5/6 239/5/6
f 239/5/6 238/5/6 240/5/6
f 240/5/6 238/5/6 241/5/6
f 238/5/6 234/5/6 242/5/6
f 241/5/6 238/5/6 242/5/6
f 240/3/6 241/3/6 243/3/6
f 245/3/6 246/3/6 247/3/6
f 240/3/6 243/3/6 248/3/6
f 243/3/6 244/3/6 248/3/6
f 248/3/6 244/3/6 249/3/6
f 247/3/6 246/3/6 250/3/6
f 250/3/6 246/3/6 251/3/6
f 240/3/6 248/3/6 252/3/6
f 252/3/6 248/3/6 253/3/6
f 254/5/6 255/5/6 256/5/6
f 256/5/6 255/5/6 257/5/6
f 254/5/6 256/5/6 258/5/6
f 257/5/6 255/5/6 259/5/6
f 254/5/6 258/5/6 260/5/6
f 258/5/6 259/5/6 260/5/6
f 259/5/6 255/5/6 261/5/6
f 260/5/6 259/5/6 261/5/6
f 262/5/6 263/5/6 264/5/6
f 264/5/6 263/5/6 265/5/6
f 268/5/6 269/5/6 270/5/6
f 270/5/6 269/5/6 271/5/6
f 266/5/6 267/5/6 272/5/6
f 272/5/6 267/5/6 273/5/6
f 274/5/6 275/5/6 276/5/6
f 276/5/6 275/5/6 277/5/6
f 278/2/6 279/2/6 282/2/6
f 282/2/6 279/2/6 283/2/6
f 280/4/6 281/4/6 284/4/6
f 284/4/6 281/4/6 285/4/6
f 286/2/6 287/2/6 290/2/6
f 290/2/6 287/2/6 291/2/6
f 288/2/6 289/2/6 292/2/6
f 292/2/6 289/2/6 293/2/6
f 294/2/6 295/2/6 297/2/6
f 297/2/6 295/2/6 298/2/6
f 296/2/6 297/2/6 300/2/6
f 297/1/6 298/1/6 301/1/6
f 300/2/6 297/2/6 301/2/6
f 298/2/6 299/2/6 302/2/6
f 301/1/6 298/1/6 302/1/6
f 302/2/6 299/2/6 303/2/6
f 301/2/6 302/2/6 304/2/6
f 304/2/6 302/2/6 305/2/6
