# MagicaVoxel @ Ephtracy

# group
o 

# material
mtllib ax and log.mtl
usemtl palette

# normals
vn -1 0 0
vn 1 0 0
vn 0 0 1
vn 0 0 -1
vn 0 -1 0
vn 0 1 0

# texcoords
vt 0.912109 0.5
vt 0.951172 0.5
vt 0.955078 0.5
vt 0.970703 0.5
vt 0.974609 0.5
vt 0.978516 0.5
vt 0.994141 0.5

# verts
v 0.1 0 -1.3
v 0.1 0 -1.7
v 0.1 0 -1.8
v 0.1 0 -1.9
v 0.1 0.1 -1.3
v 0.1 0.1 -1.4
v 0.1 0.1 -1.6
v 0.1 0.1 -1.7
v 0.1 0.1 -1.8
v 0.1 0.2 -1.5
v 0.1 0.2 -1.6
v 0.1 0.2 -1.7
v 0.1 0.3 -1.5
v 0.1 0.3 -1.6
v 0.1 0.3 -1.8
v 0.1 0.3 -1.9
v 0.1 0.4 -1.4
v 0.1 0.4 -1.5
v 0.1 0.4 -1.7
v 0.1 0.4 -1.8
v 0.1 0.5 -1.5
v 0.1 0.5 -1.7
v 0.2 0 -1.2
v 0.2 0 -1.3
v 0.2 0 -1.9
v 0.2 0 -2.1
v 0.2 0.1 -1.3
v 0.2 0.1 -1.4
v 0.2 0.1 -1.9
v 0.2 0.1 -2
v 0.2 0.2 -1.9
v 0.2 0.2 -2
v 0.2 0.2 -2.1
v 0.2 0.3 -1.8
v 0.2 0.3 -1.9
v 0.2 0.4 -1.4
v 0.2 0.4 -1.5
v 0.2 0.4 -1.7
v 0.2 0.4 -1.8
v 0.2 0.4 -2
v 0.2 0.4 -2.1
v 0.2 0.5 -1.2
v 0.2 0.5 -1.3
v 0.2 0.5 -1.4
v 0.2 0.5 -1.5
v 0.2 0.5 -1.7
v 0.2 0.5 -2
v 0.2 0.5 -2.1
v 0.2 0.7 -1.4
v 0.2 0.7 -1.5
v 0.2 0.7 -1.6
v 0.2 0.7 -1.7
v 0.2 0.7 -1.8
v 0.2 0.9 -1.5
v 0.2 0.9 -1.6
v 0.2 1 -1.6
v 0.2 1 -1.7
v 0.2 1.1 -1.5
v 0.2 1.1 -1.6
v 0.2 1.1 -1.7
v 0.2 1.2 -1.4
v 0.2 1.2 -1.5
v 0.2 1.2 -1.6
v 0.2 1.2 -1.7
v 0.2 1.2 -1.8
v 0.2 1.4 -1.4
v 0.2 1.4 -1.5
v 0.2 1.4 -1.6
v 0.2 1.4 -1.9
v 0.2 1.4 -2
v 0.2 1.5 -1.5
v 0.2 1.5 -1.6
v 0.2 1.5 -1.7
v 0.2 1.5 -1.9
v 0.2 1.5 -2
v 0.2 1.6 -1.6
v 0.2 1.6 -1.7
v 0.2 1.9 -1.7
v 0.2 1.9 -2
v 0.2 2 -1.3
v 0.2 2 -1.7
v 0.3 0 -1
v 0.3 0 -1.2
v 0.3 0 -2.1
v 0.3 0 -2.2
v 0.3 0.1 -1
v 0.3 0.1 -1.1
v 0.3 0.2 -2.1
v 0.3 0.4 -2.1
v 0.3 0.5 -1.2
v 0.3 0.5 -1.3
v 0.3 0.5 -2
v 0.3 0.5 -2.1
v 0.3 0.6 -2
v 0.3 0.6 -2.1
v 0.3 0.7 -2
v 0.3 0.7 -2.1
v 0.3 0.7 -2.2
v 0.3 0.8 -1.1
v 0.3 0.8 -1.2
v 0.3 0.9 -2.1
v 0.3 0.9 -2.2
v 0.3 1 -2.1
v 0.3 1 -2.2
v 0.3 1.1 -1.1
v 0.3 1.1 -1.2
v 0.3 1.2 -2
v 0.3 1.2 -2.1
v 0.3 1.3 -1.2
v 0.3 1.3 -1.3
v 0.3 1.4 -2
v 0.3 1.5 -1.1
v 0.3 1.5 -1.2
v 0.3 1.5 -1.3
v 0.3 1.5 -2
v 0.3 1.5 -2.1
v 0.3 1.6 -1.1
v 0.3 1.6 -1.2
v 0.3 1.9 -2
v 0.3 1.9 -2.1
v 0.3 2 -1.1
v 0.3 2 -1.3
v 0.3 2 -1.6
v 0.3 2 -1.7
v 0.3 2 -1.8
v 0.3 2.1 -1.8
v 0.3 2.1 -1.9
v 0.3 2.2 -1.7
v 0.3 2.2 -1.8
v 0.3 2.3 -1.7
v 0.3 2.3 -1.8
v 0.3 2.4 -1.6
v 0.3 2.4 -1.9
v 0.4 0 -2.2
v 0.4 0 -2.3
v 0.4 0.1 -1
v 0.4 0.1 -1.1
v 0.4 0.4 -2.2
v 0.4 0.4 -2.3
v 0.4 0.5 -2.2
v 0.4 0.5 -2.3
v 0.4 0.8 -1.1
v 0.4 0.9 -1
v 0.4 0.9 -1.1
v 0.4 1 -2.1
v 0.4 1 -2.2
v 0.4 1.2 -2.1
v 0.4 1.5 -2.1
v 0.4 1.9 -1.7
v 0.4 1.9 -1.8
v 0.4 1.9 -2.1
v 0.4 1.9 -2.2
v 0.4 2 -1.5
v 0.4 2 -1.6
v 0.4 2 -1.7
v 0.4 2 -1.8
v 0.4 2.4 -1.6
v 0.4 2.4 -1.8
v 0.4 2.5 -1.5
v 0.4 2.5 -1.8
v 0.5 0 -0.9
v 0.5 0 -1
v 0.5 0 -2.3
v 0.5 0 -2.4
v 0.5 0.3 -0.9
v 0.5 0.3 -1
v 0.5 0.3 -2.3
v 0.5 0.3 -2.4
v 0.5 0.5 -2.2
v 0.5 0.5 -2.3
v 0.5 0.7 -2.2
v 0.5 0.7 -2.3
v 0.5 0.9 -1
v 0.5 0.9 -1.1
v 0.5 0.9 -2.2
v 0.5 1 -2.2
v 0.5 1.8 -1.5
v 0.5 1.8 -1.6
v 0.5 1.9 -1.5
v 0.5 1.9 -1.6
v 0.5 1.9 -2.2
v 0.5 1.9 -2.3
v 0.5 2 -1
v 0.5 2 -1.1
v 0.5 2 -1.4
v 0.5 2 -1.5
v 0.5 2.5 -1.5
v 0.5 2.5 -1.7
v 0.5 2.6 -1.4
v 0.5 2.6 -1.7
v 0.6 0.3 -0.9
v 0.6 0.3 -1
v 0.6 0.3 -2.3
v 0.6 0.3 -2.4
v 0.6 0.5 -2.3
v 0.6 0.5 -2.4
v 0.6 0.9 -0.9
v 0.6 0.9 -1
v 0.6 1.8 -1.4
v 0.6 1.8 -1.5
v 0.6 1.9 -1.4
v 0.6 1.9 -1.5
v 0.6 2 -1.3
v 0.6 2 -1.4
v 0.6 2.5 -1.3
v 0.6 2.5 -1.4
v 0.6 2.6 -1.4
v 0.6 2.6 -1.6
v 0.6 2.7 -1.3
v 0.6 2.7 -1.6
v 0.7 0.5 -2.3
v 0.7 0.5 -2.4
v 0.7 0.7 -2.3
v 0.7 0.7 -2.4
v 0.7 0.9 -0.9
v 0.7 0.9 -1
v 0.7 1.1 -0.9
v 0.7 1.1 -1
v 0.7 1.3 -0.9
v 0.7 1.3 -1
v 0.7 1.5 -0.9
v 0.7 1.5 -1
v 0.7 1.6 -2.3
v 0.7 1.6 -2.4
v 0.7 1.8 -1.3
v 0.7 1.8 -1.4
v 0.7 1.9 -1.3
v 0.7 1.9 -1.4
v 0.7 2 -0.9
v 0.7 2 -1
v 0.7 2.2 -1.2
v 0.7 2.2 -1.3
v 0.7 2.4 -1.2
v 0.7 2.4 -1.3
v 0.7 2.5 -1.3
v 0.7 2.7 -1.3
v 0.7 2.7 -1.5
v 0.7 2.8 -1.2
v 0.7 2.8 -1.5
v 0.8 1.6 -2.3
v 0.8 1.6 -2.4
v 0.8 1.8 -1.1
v 0.8 1.8 -1.3
v 0.8 1.8 -1.5
v 0.8 1.8 -1.6
v 0.8 1.9 -1.1
v 0.8 1.9 -1.2
v 0.8 1.9 -1.3
v 0.8 1.9 -1.5
v 0.8 1.9 -1.6
v 0.8 1.9 -2.3
v 0.8 1.9 -2.4
v 0.8 2.7 -1.1
v 0.8 2.7 -1.2
v 0.8 2.8 -1.2
v 0.8 2.8 -1.4
v 0.8 2.9 -1.3
v 0.8 2.9 -1.4
v 0.8 3 -1.1
v 0.8 3 -1.3
v 0.9 2.8 -1
v 0.9 2.8 -1.1
v 0.9 3 -1.1
v 0.9 3 -1.2
v 0.9 3.1 -1
v 0.9 3.1 -1.2
v 1 2.9 -0.9
v 1 2.9 -1
v 1 3.1 -1
v 1 3.1 -1.1
v 1 3.2 -0.9
v 1 3.2 -1.1
v 1.1 3 -0.8
v 1.1 3 -0.9
v 1.1 3.2 -0.9
v 1.1 3.2 -1
v 1.1 3.3 -0.8
v 1.1 3.3 -1
v 1.2 3.1 -0.7
v 1.2 3.1 -0.8
v 1.2 3.3 -0.8
v 1.2 3.3 -0.9
v 1.2 3.4 -0.7
v 1.2 3.4 -0.9
v 1.3 3.2 -0.6
v 1.3 3.2 -0.7
v 1.3 3.4 -0.7
v 1.3 3.4 -0.8
v 1.3 3.5 -0.6
v 1.3 3.5 -0.8
v 1.4 3.3 -0.5
v 1.4 3.3 -0.6
v 1.4 3.5 -0.6
v 1.4 3.5 -0.7
v 1.4 3.6 -0.5
v 1.4 3.6 -0.7
v 1.5 3.4 -0.4
v 1.5 3.4 -0.5
v 1.5 3.6 -0.5
v 1.5 3.6 -0.6
v 1.5 3.7 -0.4
v 1.5 3.7 -0.6
v 1.6 3.5 -0.3
v 1.6 3.5 -0.4
v 1.6 3.7 -0.4
v 1.6 3.7 -0.5
v 1.6 3.8 -0.3
v 1.6 3.8 -0.5
v 1.7 3.6 -0.2
v 1.7 3.6 -0.3
v 1.7 3.8 -0.3
v 1.7 3.8 -0.4
v 1.7 3.9 -0.2
v 1.7 3.9 -0.4
v 1.8 3.7 -0.1
v 1.8 3.7 -0.2
v 1.8 3.9 -0.2
v 1.8 3.9 -0.4
v 1.8 4 -0.1
v 1.8 4 -0.4
v 0.3 1.8 -1.4
v 0.3 1.8 -1.6
v 0.3 1.9 -1.4
v 0.3 1.9 -1.6
v 0.4 1.8 -1.2
v 0.4 1.8 -1.4
v 0.4 1.9 -1.2
v 0.4 1.9 -1.3
v 0.4 1.9 -1.4
v 0.5 2.1 -1.8
v 0.5 2.1 -1.9
v 0.5 2.4 -1.8
v 0.5 2.4 -1.9
v 0.6 1.8 -1.1
v 0.6 1.8 -1.2
v 0.6 1.9 -1.1
v 0.6 1.9 -1.2
v 0.6 1.9 -1.7
v 0.6 1.9 -1.8
v 0.6 2 -1.7
v 0.6 2.5 -1.7
v 0.6 2.5 -1.8
v 0.7 1.8 -1.5
v 0.7 1.8 -1.6
v 0.7 1.9 -1.5
v 0.7 1.9 -1.6
v 0.7 2 -1.6
v 0.7 2 -1.7
v 0.7 2.5 -1.6
v 0.7 2.6 -1.6
v 0.7 2.6 -1.7
v 0.8 2 -1.3
v 0.8 2 -1.4
v 0.8 2 -1.5
v 0.8 2 -1.6
v 0.8 2.1 -1.3
v 0.8 2.1 -1.5
v 0.8 2.4 -1.4
v 0.8 2.4 -1.5
v 0.8 2.5 -1.4
v 0.8 2.5 -1.5
v 0.8 2.5 -1.6
v 0.8 2.7 -1.5
v 0.8 2.7 -1.6
v 0.9 1.9 -0.9
v 0.9 1.9 -1.1
v 0.9 1.9 -1.2
v 0.9 1.9 -1.3
v 0.9 1.9 -1.4
v 0.9 1.9 -1.5
v 0.9 1.9 -1.7
v 0.9 2 -0.9
v 0.9 2 -1.1
v 0.9 2 -1.2
v 0.9 2 -1.3
v 0.9 2 -1.4
v 0.9 2 -1.5
v 0.9 2 -1.7
v 0.9 2.1 -1.3
v 0.9 2.1 -1.5
v 0.9 2.2 -1.3
v 0.9 2.3 -1.2
v 0.9 2.3 -1.3
v 0.9 2.4 -1.4
v 0.9 2.4 -1.5
v 0.9 2.5 -1.3
v 0.9 2.5 -1.4
v 0.9 2.5 -1.5
v 0.9 2.6 -1.2
v 0.9 2.6 -1.4
v 0.9 2.8 -1.4
v 0.9 2.8 -1.5
v 1 2.2 -1.2
v 1 2.2 -1.3
v 1 2.3 -1.2
v 1 2.3 -1.3
v 1 2.6 -1.2
v 1 2.6 -1.4
v 1 2.7 -1.2
v 1 2.7 -1.3
v 1 2.9 -1.3
v 1 2.9 -1.4
v 1.1 0.4 -2.3
v 1.1 0.4 -2.4
v 1.1 0.5 -0.9
v 1.1 0.5 -1
v 1.1 0.6 -1
v 1.1 0.6 -2.3
v 1.1 0.6 -2.4
v 1.1 1 -1
v 1.1 1.9 -0.9
v 1.1 1.9 -1
v 1.1 1.9 -2.3
v 1.1 1.9 -2.4
v 1.1 2.7 -1.1
v 1.1 2.7 -1.3
v 1.1 2.8 -1
v 1.1 2.8 -1.1
v 1.1 2.9 -1
v 1.1 2.9 -1.2
v 1.1 3 -1.2
v 1.1 3 -1.3
v 1.2 0.1 -2.3
v 1.2 0.1 -2.4
v 1.2 0.3 -0.9
v 1.2 0.3 -1
v 1.2 0.4 -2.3
v 1.2 0.4 -2.4
v 1.2 0.5 -0.9
v 1.2 0.5 -1
v 1.2 2.9 -0.9
v 1.2 2.9 -1.2
v 1.2 3 -0.9
v 1.2 3 -1.1
v 1.2 3.1 -1.1
v 1.2 3.1 -1.2
v 1.3 0 -0.9
v 1.3 0 -1
v 1.3 0 -2.3
v 1.3 0 -2.4
v 1.3 0.1 -2.3
v 1.3 0.1 -2.4
v 1.3 0.3 -0.9
v 1.3 0.3 -1
v 1.3 0.4 -2.2
v 1.3 0.4 -2.3
v 1.3 0.5 -1
v 1.3 0.5 -1.1
v 1.3 0.6 -2.2
v 1.3 0.6 -2.3
v 1.3 0.7 -2.2
v 1.3 0.8 -2.2
v 1.3 0.8 -2.3
v 1.3 0.9 -2.2
v 1.3 1 -1
v 1.3 1 -1.1
v 1.3 1 -2.2
v 1.3 1.2 -2.2
v 1.3 1.2 -2.3
v 1.3 1.3 -2.2
v 1.3 1.5 -1
v 1.3 1.5 -1.1
v 1.3 1.6 -2.2
v 1.3 1.6 -2.3
v 1.3 1.9 -1
v 1.3 1.9 -1.1
v 1.3 1.9 -2.2
v 1.3 1.9 -2.3
v 1.3 3 -0.8
v 1.3 3 -1.1
v 1.3 3.1 -0.8
v 1.3 3.1 -1
v 1.3 3.2 -1
v 1.3 3.2 -1.1
v 1.4 0 -1
v 1.4 0 -1.1
v 1.4 0 -2.2
v 1.4 0 -2.3
v 1.4 0.4 -2.2
v 1.4 0.4 -2.3
v 1.4 0.5 -1
v 1.4 0.5 -1.1
v 1.4 0.5 -1.2
v 1.4 0.5 -2.1
v 1.4 0.5 -2.2
v 1.4 0.6 -1.2
v 1.4 0.7 -2.1
v 1.4 0.7 -2.2
v 1.4 0.9 -2.1
v 1.4 0.9 -2.2
v 1.4 1 -2.1
v 1.4 1 -2.2
v 1.4 1.1 -1.2
v 1.4 1.3 -2.1
v 1.4 1.3 -2.2
v 1.4 1.9 -1.1
v 1.4 1.9 -1.2
v 1.4 1.9 -2.1
v 1.4 1.9 -2.2
v 1.4 3.1 -0.7
v 1.4 3.1 -1
v 1.4 3.2 -0.7
v 1.4 3.2 -0.9
v 1.4 3.3 -0.9
v 1.4 3.3 -1
v 1.5 0 -1.1
v 1.5 0 -1.2
v 1.5 0 -2.1
v 1.5 0 -2.2
v 1.5 0.3 -2
v 1.5 0.3 -2.1
v 1.5 0.4 -1.2
v 1.5 0.4 -1.3
v 1.5 0.5 -1.1
v 1.5 0.5 -1.2
v 1.5 0.5 -2.1
v 1.5 0.5 -2.2
v 1.5 0.6 -1.2
v 1.5 0.6 -1.3
v 1.5 1 -1.3
v 1.5 1.1 -1.2
v 1.5 1.1 -1.3
v 1.5 1.1 -1.9
v 1.5 1.1 -2
v 1.5 1.7 -1.3
v 1.5 1.7 -1.4
v 1.5 1.8 -1.4
v 1.5 1.8 -1.9
v 1.5 1.8 -2
v 1.5 1.9 -1.2
v 1.5 1.9 -1.4
v 1.5 1.9 -1.9
v 1.5 1.9 -2
v 1.5 1.9 -2.1
v 1.5 3.2 -0.6
v 1.5 3.2 -0.9
v 1.5 3.3 -0.6
v 1.5 3.3 -0.8
v 1.5 3.4 -0.8
v 1.5 3.4 -0.9
v 1.6 0 -1.2
v 1.6 0 -1.4
v 1.6 0 -1.9
v 1.6 0 -2.1
v 1.6 0.1 -1.4
v 1.6 0.1 -1.5
v 1.6 0.1 -1.8
v 1.6 0.1 -1.9
v 1.6 0.2 -1.3
v 1.6 0.2 -1.4
v 1.6 0.2 -1.5
v 1.6 0.2 -1.6
v 1.6 0.3 -1.3
v 1.6 0.3 -1.4
v 1.6 0.3 -1.5
v 1.6 0.3 -1.6
v 1.6 0.3 -1.8
v 1.6 0.3 -2
v 1.6 0.3 -2.1
v 1.6 0.4 -1.2
v 1.6 0.4 -1.3
v 1.6 0.5 -1.4
v 1.6 0.5 -1.5
v 1.6 0.5 -1.8
v 1.6 0.5 -1.9
v 1.6 0.6 -1.7
v 1.6 0.6 -1.8
v 1.6 0.6 -1.9
v 1.6 0.7 -1.5
v 1.6 0.7 -1.7
v 1.6 0.7 -1.8
v 1.6 0.8 -1.6
v 1.6 0.8 -1.7
v 1.6 0.9 -1.5
v 1.6 0.9 -1.6
v 1.6 0.9 -1.7
v 1.6 1 -1.3
v 1.6 1 -1.4
v 1.6 1.1 -1.6
v 1.6 1.1 -1.7
v 1.6 1.1 -1.8
v 1.6 1.1 -1.9
v 1.6 1.1 -2
v 1.6 1.3 -1.6
v 1.6 1.3 -1.7
v 1.6 1.3 -1.8
v 1.6 1.5 -1.6
v 1.6 1.5 -1.7
v 1.6 1.7 -1.3
v 1.6 1.7 -1.4
v 1.6 1.7 -1.5
v 1.6 1.8 -1.4
v 1.6 1.8 -1.5
v 1.6 1.9 -1.4
v 1.6 1.9 -1.9
v 1.6 3.3 -0.5
v 1.6 3.3 -0.8
v 1.6 3.4 -0.5
v 1.6 3.4 -0.7
v 1.6 3.5 -0.7
v 1.6 3.5 -0.8
v 1.7 0 -1.4
v 1.7 0 -1.9
v 1.7 0.1 -1.4
v 1.7 0.1 -1.5
v 1.7 0.1 -1.8
v 1.7 0.1 -1.9
v 1.7 0.2 -1.5
v 1.7 0.2 -1.6
v 1.7 0.3 -1.6
v 1.7 0.3 -1.8
v 1.7 3.4 -0.4
v 1.7 3.4 -0.7
v 1.7 3.5 -0.4
v 1.7 3.5 -0.6
v 1.7 3.6 -0.6
v 1.7 3.6 -0.7
v 1.8 3.5 -0.3
v 1.8 3.5 -0.6
v 1.8 3.6 -0.3
v 1.8 3.6 -0.5
v 1.8 3.7 -0.5
v 1.8 3.7 -0.6
v 1.9 3.6 -0.2
v 1.9 3.6 -0.5
v 1.9 3.7 -0.1
v 1.9 3.7 -0.2
v 1.9 3.7 -0.4
v 1.9 3.8 -0.1
v 1.9 3.8 -0.2
v 1.9 3.8 -0.4
v 1.9 3.8 -0.5
v 1.9 3.9 -0.1
v 1.9 3.9 -0.2
v 1.9 3.9 -0.3
v 1.9 3.9 -0.4
v 1.9 4 -0.1
v 1.9 4 -0.2
v 1.9 4 -0.3
v 1.9 4 -0.4
v 2 3.7 -0.2
v 2 3.7 -0.4
v 2 3.8 -0.1
v 2 3.8 -0.2
v 2 3.9 -0.1
v 2 3.9 -0.2
v 2 3.9 -0.3
v 2 3.9 -0.4
v 2 4 -0.2
v 2 4 -0.3
v 1.8 3.7 -0.1
v 1.8 4 -0.1
v 1.9 3.7 -0.1
v 1.9 3.8 -0.1
v 1.9 3.9 -0.1
v 1.9 4 -0.1
v 2 3.8 -0.1
v 2 3.9 -0.1
v 1.7 3.6 -0.2
v 1.7 3.9 -0.2
v 1.8 3.7 -0.2
v 1.8 3.9 -0.2
v 1.9 3.6 -0.2
v 1.9 3.7 -0.2
v 1.9 3.8 -0.2
v 1.9 3.9 -0.2
v 1.9 4 -0.2
v 2 3.7 -0.2
v 2 3.8 -0.2
v 2 3.9 -0.2
v 2 4 -0.2
v 1.6 3.5 -0.3
v 1.6 3.8 -0.3
v 1.7 3.6 -0.3
v 1.7 3.8 -0.3
v 1.8 3.5 -0.3
v 1.8 3.6 -0.3
v 1.5 3.4 -0.4
v 1.5 3.7 -0.4
v 1.6 3.5 -0.4
v 1.6 3.7 -0.4
v 1.7 3.4 -0.4
v 1.7 3.5 -0.4
v 1.4 3.3 -0.5
v 1.4 3.6 -0.5
v 1.5 3.4 -0.5
v 1.5 3.6 -0.5
v 1.6 3.3 -0.5
v 1.6 3.4 -0.5
v 1.3 3.2 -0.6
v 1.3 3.5 -0.6
v 1.4 3.3 -0.6
v 1.4 3.5 -0.6
v 1.5 3.2 -0.6
v 1.5 3.3 -0.6
v 1.2 3.1 -0.7
v 1.2 3.4 -0.7
v 1.3 3.2 -0.7
v 1.3 3.4 -0.7
v 1.4 3.1 -0.7
v 1.4 3.2 -0.7
v 1.1 3 -0.8
v 1.1 3.3 -0.8
v 1.2 3.1 -0.8
v 1.2 3.3 -0.8
v 1.3 3 -0.8
v 1.3 3.1 -0.8
v 0.5 0 -0.9
v 0.5 0.3 -0.9
v 0.6 0.3 -0.9
v 0.6 0.9 -0.9
v 0.7 0.5 -0.9
v 0.7 0.9 -0.9
v 0.7 1.1 -0.9
v 0.7 1.3 -0.9
v 0.7 1.5 -0.9
v 0.7 2 -0.9
v 0.8 0.5 -0.9
v 0.8 0.8 -0.9
v 0.8 0.9 -0.9
v 0.8 1.1 -0.9
v 0.8 1.3 -0.9
v 0.8 1.5 -0.9
v 0.8 1.6 -0.9
v 0.9 0.8 -0.9
v 0.9 0.9 -0.9
v 0.9 1.1 -0.9
v 0.9 1.3 -0.9
v 0.9 1.5 -0.9
v 0.9 1.6 -0.9
v 0.9 1.7 -0.9
v 0.9 1.9 -0.9
v 0.9 2 -0.9
v 1 1.6 -0.9
v 1 1.7 -0.9
v 1 2.9 -0.9
v 1 3.2 -0.9
v 1.1 0.5 -0.9
v 1.1 1.9 -0.9
v 1.1 3 -0.9
v 1.1 3.2 -0.9
v 1.2 0.3 -0.9
v 1.2 0.5 -0.9
v 1.2 2.9 -0.9
v 1.2 3 -0.9
v 1.3 0 -0.9
v 1.3 0.3 -0.9
v 0.3 0 -1
v 0.3 0.1 -1
v 0.4 0.1 -1
v 0.4 0.9 -1
v 0.5 0 -1
v 0.5 0.3 -1
v 0.5 0.9 -1
v 0.5 2 -1
v 0.6 0.3 -1
v 0.6 0.9 -1
v 0.7 0.9 -1
v 0.7 1.1 -1
v 0.7 1.3 -1
v 0.7 1.5 -1
v 0.7 2 -1
v 0.9 2.8 -1
v 0.9 3.1 -1
v 1 2.9 -1
v 1 3.1 -1
v 1.1 0.5 -1
v 1.1 0.6 -1
v 1.1 1 -1
v 1.1 1.9 -1
v 1.1 2.8 -1
v 1.1 2.9 -1
v 1.2 0.3 -1
v 1.2 0.5 -1
v 1.2 0.6 -1
v 1.2 1 -1
v 1.2 1.5 -1
v 1.3 0 -1
v 1.3 0.3 -1
v 1.3 0.5 -1
v 1.3 1 -1
v 1.3 1.5 -1
v 1.3 1.9 -1
v 1.4 0 -1
v 1.4 0.5 -1
v 0.3 0.1 -1.1
v 0.3 0.8 -1.1
v 0.3 1.1 -1.1
v 0.3 1.5 -1.1
v 0.3 1.6 -1.1
v 0.3 2 -1.1
v 0.4 0.1 -1.1
v 0.4 0.8 -1.1
v 0.4 0.9 -1.1
v 0.4 1.1 -1.1
v 0.4 1.5 -1.1
v 0.4 1.6 -1.1
v 0.5 0.9 -1.1
v 0.5 2 -1.1
v 0.8 2.7 -1.1
v 0.8 3 -1.1
v 0.9 2.8 -1.1
v 0.9 3 -1.1
v 1.1 2.7 -1.1
v 1.1 2.8 -1.1
v 1.3 0.5 -1.1
v 1.3 1 -1.1
v 1.3 1.5 -1.1
v 1.3 1.9 -1.1
v 1.4 0 -1.1
v 1.4 0.5 -1.1
v 1.4 1.9 -1.1
v 1.5 0 -1.1
v 1.5 0.5 -1.1
v 0.2 0 -1.2
v 0.2 0.5 -1.2
v 0.3 0 -1.2
v 0.3 0.5 -1.2
v 0.7 2.2 -1.2
v 0.7 2.4 -1.2
v 0.7 2.8 -1.2
v 0.8 2.3 -1.2
v 0.8 2.4 -1.2
v 0.8 2.7 -1.2
v 0.8 2.8 -1.2
v 0.9 2.3 -1.2
v 0.9 2.6 -1.2
v 1 2.2 -1.2
v 1 2.3 -1.2
v 1 2.6 -1.2
v 1 2.7 -1.2
v 1.4 0.5 -1.2
v 1.4 0.6 -1.2
v 1.4 1.1 -1.2
v 1.4 1.9 -1.2
v 1.5 0 -1.2
v 1.5 0.4 -1.2
v 1.5 0.5 -1.2
v 1.5 0.6 -1.2
v 1.5 1.1 -1.2
v 1.5 1.9 -1.2
v 1.6 0 -1.2
v 1.6 0.4 -1.2
v 0.1 0 -1.3
v 0.1 0.1 -1.3
v 0.2 0 -1.3
v 0.2 0.1 -1.3
v 0.2 0.5 -1.3
v 0.2 2 -1.3
v 0.3 0.5 -1.3
v 0.3 1.3 -1.3
v 0.3 1.5 -1.3
v 0.3 2 -1.3
v 0.6 2 -1.3
v 0.6 2.5 -1.3
v 0.6 2.7 -1.3
v 0.7 1.8 -1.3
v 0.7 1.9 -1.3
v 0.7 2.2 -1.3
v 0.7 2.4 -1.3
v 0.7 2.5 -1.3
v 0.7 2.7 -1.3
v 0.8 1.8 -1.3
v 0.8 1.9 -1.3
v 0.8 2 -1.3
v 0.8 2.1 -1.3
v 0.9 2.1 -1.3
v 0.9 2.2 -1.3
v 1.5 0.4 -1.3
v 1.5 0.6 -1.3
v 1.5 1 -1.3
v 1.5 1.1 -1.3
v 1.5 1.7 -1.3
v 1.6 0.4 -1.3
v 1.6 1 -1.3
v 1.6 1.7 -1.3
v 0.1 0.1 -1.4
v 0.1 0.4 -1.4
v 0.2 0.1 -1.4
v 0.2 0.4 -1.4
v 0.5 2 -1.4
v 0.5 2.6 -1.4
v 0.6 1.8 -1.4
v 0.6 1.9 -1.4
v 0.6 2 -1.4
v 0.6 2.5 -1.4
v 0.6 2.6 -1.4
v 0.7 1.8 -1.4
v 0.7 1.9 -1.4
v 1.5 1.7 -1.4
v 1.5 1.8 -1.4
v 1.5 1.9 -1.4
v 1.6 0 -1.4
v 1.6 0.1 -1.4
v 1.6 1.7 -1.4
v 1.6 1.8 -1.4
v 1.6 1.9 -1.4
v 1.7 0 -1.4
v 1.7 0.1 -1.4
v 0.1 0.4 -1.5
v 0.1 0.5 -1.5
v 0.2 0.4 -1.5
v 0.2 0.5 -1.5
v 0.4 2 -1.5
v 0.4 2.5 -1.5
v 0.5 1.8 -1.5
v 0.5 1.9 -1.5
v 0.5 2 -1.5
v 0.5 2.5 -1.5
v 0.6 1.8 -1.5
v 0.6 1.9 -1.5
v 1.6 0.1 -1.5
v 1.6 0.2 -1.5
v 1.7 0.1 -1.5
v 1.7 0.2 -1.5
v 0.3 1.8 -1.6
v 0.3 1.9 -1.6
v 0.3 2 -1.6
v 0.3 2.4 -1.6
v 0.4 1.9 -1.6
v 0.4 2 -1.6
v 0.4 2.4 -1.6
v 0.5 1.8 -1.6
v 0.5 1.9 -1.6
v 0.7 1.8 -1.6
v 0.7 1.9 -1.6
v 0.8 1.8 -1.6
v 0.8 1.9 -1.6
v 1.6 0.2 -1.6
v 1.6 0.3 -1.6
v 1.7 0.2 -1.6
v 1.7 0.3 -1.6
v 1.9 3.9 -0.3
v 1.9 4 -0.3
v 2 3.9 -0.3
v 2 4 -0.3
v 1.7 3.8 -0.4
v 1.7 3.9 -0.4
v 1.8 3.9 -0.4
v 1.8 4 -0.4
v 1.9 3.7 -0.4
v 1.9 3.8 -0.4
v 1.9 3.9 -0.4
v 1.9 4 -0.4
v 2 3.7 -0.4
v 2 3.9 -0.4
v 1.6 3.7 -0.5
v 1.6 3.8 -0.5
v 1.8 3.6 -0.5
v 1.8 3.7 -0.5
v 1.9 3.6 -0.5
v 1.9 3.8 -0.5
v 1.5 3.6 -0.6
v 1.5 3.7 -0.6
v 1.7 3.5 -0.6
v 1.7 3.6 -0.6
v 1.8 3.5 -0.6
v 1.8 3.7 -0.6
v 1.4 3.5 -0.7
v 1.4 3.6 -0.7
v 1.6 3.4 -0.7
v 1.6 3.5 -0.7
v 1.7 3.4 -0.7
v 1.7 3.6 -0.7
v 1.3 3.4 -0.8
v 1.3 3.5 -0.8
v 1.5 3.3 -0.8
v 1.5 3.4 -0.8
v 1.6 3.3 -0.8
v 1.6 3.5 -0.8
v 1.2 3.3 -0.9
v 1.2 3.4 -0.9
v 1.4 3.2 -0.9
v 1.4 3.3 -0.9
v 1.5 3.2 -0.9
v 1.5 3.4 -0.9
v 1.1 3.2 -1
v 1.1 3.3 -1
v 1.3 3.1 -1
v 1.3 3.2 -1
v 1.4 3.1 -1
v 1.4 3.3 -1
v 0.6 1.8 -1.1
v 0.6 1.9 -1.1
v 0.8 1.8 -1.1
v 0.8 1.9 -1.1
v 1 3.1 -1.1
v 1 3.2 -1.1
v 1.2 3 -1.1
v 1.2 3.1 -1.1
v 1.3 3 -1.1
v 1.3 3.2 -1.1
v 0.4 1.8 -1.2
v 0.4 1.9 -1.2
v 0.5 1.9 -1.2
v 0.6 1.8 -1.2
v 0.6 1.9 -1.2
v 0.9 3 -1.2
v 0.9 3.1 -1.2
v 1.1 2.9 -1.2
v 1.1 3 -1.2
v 1.2 2.9 -1.2
v 1.2 3.1 -1.2
v 0.8 2.9 -1.3
v 0.8 3 -1.3
v 0.9 2.2 -1.3
v 0.9 2.3 -1.3
v 1 2.2 -1.3
v 1 2.3 -1.3
v 1 2.7 -1.3
v 1 2.9 -1.3
v 1.1 2.7 -1.3
v 1.1 3 -1.3
v 0.3 1.8 -1.4
v 0.3 1.9 -1.4
v 0.4 1.8 -1.4
v 0.4 1.9 -1.4
v 0.8 2.4 -1.4
v 0.8 2.5 -1.4
v 0.8 2.8 -1.4
v 0.8 2.9 -1.4
v 0.9 2.4 -1.4
v 0.9 2.5 -1.4
v 0.9 2.6 -1.4
v 0.9 2.8 -1.4
v 1 2.6 -1.4
v 1 2.9 -1.4
v 0.7 1.8 -1.5
v 0.7 1.9 -1.5
v 0.7 2.7 -1.5
v 0.7 2.8 -1.5
v 0.8 1.8 -1.5
v 0.8 1.9 -1.5
v 0.8 2.1 -1.5
v 0.8 2.4 -1.5
v 0.8 2.5 -1.5
v 0.8 2.7 -1.5
v 0.9 2.1 -1.5
v 0.9 2.4 -1.5
v 0.9 2.5 -1.5
v 0.9 2.8 -1.5
v 0.6 2.6 -1.6
v 0.6 2.7 -1.6
v 0.7 2 -1.6
v 0.7 2.5 -1.6
v 0.7 2.6 -1.6
v 0.8 2 -1.6
v 0.8 2.5 -1.6
v 0.8 2.7 -1.6
v 0.1 0.4 -1.7
v 0.1 0.5 -1.7
v 0.2 0.4 -1.7
v 0.2 0.5 -1.7
v 0.2 1.9 -1.7
v 0.2 2 -1.7
v 0.3 1.9 -1.7
v 0.3 2 -1.7
v 0.4 1.9 -1.7
v 0.4 2 -1.7
v 0.5 2.5 -1.7
v 0.5 2.6 -1.7
v 0.6 1.9 -1.7
v 0.6 2 -1.7
v 0.6 2.5 -1.7
v 0.7 1.9 -1.7
v 0.7 2 -1.7
v 0.7 2.6 -1.7
v 0.8 1.9 -1.7
v 0.8 2 -1.7
v 0.9 1.9 -1.7
v 0.9 2 -1.7
v 0.1 0.3 -1.8
v 0.1 0.4 -1.8
v 0.2 0.3 -1.8
v 0.2 0.4 -1.8
v 0.3 2 -1.8
v 0.3 2.1 -1.8
v 0.4 1.9 -1.8
v 0.4 2 -1.8
v 0.4 2.4 -1.8
v 0.4 2.5 -1.8
v 0.5 2.1 -1.8
v 0.5 2.4 -1.8
v 0.6 1.9 -1.8
v 0.6 2.5 -1.8
v 1.6 0.1 -1.8
v 1.6 0.3 -1.8
v 1.7 0.1 -1.8
v 1.7 0.3 -1.8
v 0.1 0 -1.9
v 0.1 0.3 -1.9
v 0.2 0 -1.9
v 0.2 0.1 -1.9
v 0.2 0.2 -1.9
v 0.2 0.3 -1.9
v 0.3 2.1 -1.9
v 0.3 2.4 -1.9
v 0.5 2.1 -1.9
v 0.5 2.4 -1.9
v 1.5 1.1 -1.9
v 1.5 1.8 -1.9
v 1.5 1.9 -1.9
v 1.6 0 -1.9
v 1.6 0.1 -1.9
v 1.6 1.1 -1.9
v 1.6 1.9 -1.9
v 1.7 0 -1.9
v 1.7 0.1 -1.9
v 0.2 0.5 -2
v 0.2 1.4 -2
v 0.2 1.5 -2
v 0.2 1.9 -2
v 0.3 0.5 -2
v 0.3 0.6 -2
v 0.3 0.7 -2
v 0.3 1.2 -2
v 0.3 1.4 -2
v 0.3 1.5 -2
v 0.3 1.9 -2
v 1.5 0.3 -2
v 1.5 1.1 -2
v 1.6 0.3 -2
v 1.6 1.1 -2
v 0.2 0 -2.1
v 0.2 0.2 -2.1
v 0.2 0.4 -2.1
v 0.2 0.5 -2.1
v 0.3 0 -2.1
v 0.3 0.2 -2.1
v 0.3 0.4 -2.1
v 0.3 0.5 -2.1
v 0.3 1 -2.1
v 0.3 1.2 -2.1
v 0.3 1.5 -2.1
v 0.3 1.9 -2.1
v 0.4 1 -2.1
v 0.4 1.2 -2.1
v 0.4 1.5 -2.1
v 0.4 1.9 -2.1
v 1.4 0.5 -2.1
v 1.4 0.7 -2.1
v 1.4 0.9 -2.1
v 1.4 1 -2.1
v 1.4 1.3 -2.1
v 1.4 1.9 -2.1
v 1.5 0 -2.1
v 1.5 0.3 -2.1
v 1.5 0.5 -2.1
v 1.5 1.9 -2.1
v 1.6 0 -2.1
v 1.6 0.3 -2.1
v 0.3 0 -2.2
v 0.3 0.7 -2.2
v 0.3 0.9 -2.2
v 0.3 1 -2.2
v 0.4 0 -2.2
v 0.4 0.4 -2.2
v 0.4 0.5 -2.2
v 0.4 0.7 -2.2
v 0.4 0.9 -2.2
v 0.4 1 -2.2
v 0.4 1.9 -2.2
v 0.5 0.5 -2.2
v 0.5 0.7 -2.2
v 0.5 0.9 -2.2
v 0.5 1 -2.2
v 0.5 1.9 -2.2
v 1.3 0.4 -2.2
v 1.3 0.6 -2.2
v 1.3 0.7 -2.2
v 1.3 0.8 -2.2
v 1.3 0.9 -2.2
v 1.3 1 -2.2
v 1.3 1.2 -2.2
v 1.3 1.3 -2.2
v 1.3 1.6 -2.2
v 1.3 1.9 -2.2
v 1.4 0 -2.2
v 1.4 0.4 -2.2
v 1.4 0.5 -2.2
v 1.4 0.7 -2.2
v 1.4 0.9 -2.2
v 1.4 1 -2.2
v 1.4 1.3 -2.2
v 1.4 1.9 -2.2
v 1.5 0 -2.2
v 1.5 0.5 -2.2
v 0.4 0 -2.3
v 0.4 0.4 -2.3
v 0.4 0.5 -2.3
v 0.5 0 -2.3
v 0.5 0.3 -2.3
v 0.5 0.4 -2.3
v 0.5 0.5 -2.3
v 0.5 0.7 -2.3
v 0.5 1.9 -2.3
v 0.6 0.3 -2.3
v 0.6 0.5 -2.3
v 0.6 0.7 -2.3
v 0.7 0.5 -2.3
v 0.7 0.7 -2.3
v 0.7 1.6 -2.3
v 0.8 1.6 -2.3
v 0.8 1.9 -2.3
v 1.1 0.4 -2.3
v 1.1 0.6 -2.3
v 1.1 1.9 -2.3
v 1.2 0.1 -2.3
v 1.2 0.4 -2.3
v 1.2 0.6 -2.3
v 1.2 0.8 -2.3
v 1.2 1.2 -2.3
v 1.2 1.6 -2.3
v 1.3 0 -2.3
v 1.3 0.1 -2.3
v 1.3 0.4 -2.3
v 1.3 0.6 -2.3
v 1.3 0.8 -2.3
v 1.3 1.2 -2.3
v 1.3 1.6 -2.3
v 1.3 1.9 -2.3
v 1.4 0 -2.3
v 1.4 0.4 -2.3
v 0.5 0 -2.4
v 0.5 0.3 -2.4
v 0.6 0.3 -2.4
v 0.6 0.5 -2.4
v 0.7 0.2 -2.4
v 0.7 0.3 -2.4
v 0.7 0.4 -2.4
v 0.7 0.5 -2.4
v 0.7 0.7 -2.4
v 0.7 1.6 -2.4
v 0.8 0.1 -2.4
v 0.8 0.2 -2.4
v 0.8 0.3 -2.4
v 0.8 0.4 -2.4
v 0.8 0.7 -2.4
v 0.8 1 -2.4
v 0.8 1.3 -2.4
v 0.8 1.5 -2.4
v 0.8 1.6 -2.4
v 0.8 1.9 -2.4
v 0.9 0 -2.4
v 0.9 0.1 -2.4
v 0.9 0.2 -2.4
v 0.9 0.6 -2.4
v 0.9 0.7 -2.4
v 0.9 0.8 -2.4
v 0.9 1 -2.4
v 0.9 1.3 -2.4
v 0.9 1.5 -2.4
v 1 0 -2.4
v 1 0.1 -2.4
v 1 0.4 -2.4
v 1 0.6 -2.4
v 1 0.7 -2.4
v 1 0.8 -2.4
v 1 1.3 -2.4
v 1.1 0.4 -2.4
v 1.1 0.6 -2.4
v 1.1 1.9 -2.4
v 1.2 0.1 -2.4
v 1.2 0.4 -2.4
v 1.3 0 -2.4
v 1.3 0.1 -2.4
v 0.5 0 -0.9
v 1.3 0 -0.9
v 0.3 0 -1
v 0.5 0 -1
v 1.3 0 -1
v 1.4 0 -1
v 1.4 0 -1.1
v 1.5 0 -1.1
v 0.2 0 -1.2
v 0.3 0 -1.2
v 1.5 0 -1.2
v 1.6 0 -1.2
v 0.1 0 -1.3
v 0.2 0 -1.3
v 1.6 0 -1.4
v 1.7 0 -1.4
v 0.1 0 -1.7
v 0.2 0 -1.7
v 0.1 0 -1.8
v 0.2 0 -1.8
v 0.1 0 -1.9
v 0.2 0 -1.9
v 1.6 0 -1.9
v 1.7 0 -1.9
v 0.2 0 -2.1
v 0.3 0 -2.1
v 1.5 0 -2.1
v 1.6 0 -2.1
v 0.3 0 -2.2
v 0.4 0 -2.2
v 1.4 0 -2.2
v 1.5 0 -2.2
v 0.4 0 -2.3
v 0.5 0 -2.3
v 0.9 0 -2.3
v 1 0 -2.3
v 1.3 0 -2.3
v 1.4 0 -2.3
v 0.5 0 -2.4
v 0.9 0 -2.4
v 1 0 -2.4
v 1.3 0 -2.4
v 0.6 1.9 -1.1
v 0.8 1.9 -1.1
v 0.4 1.9 -1.2
v 0.5 1.9 -1.2
v 0.6 1.9 -1.2
v 0.8 1.9 -1.2
v 0.4 1.9 -1.3
v 0.5 1.9 -1.3
v 0.6 1.9 -1.3
v 0.7 1.9 -1.3
v 0.8 1.9 -1.3
v 0.3 1.9 -1.4
v 0.4 1.9 -1.4
v 0.5 1.9 -1.4
v 0.6 1.9 -1.4
v 0.7 1.9 -1.4
v 0.4 1.9 -1.5
v 0.5 1.9 -1.5
v 0.6 1.9 -1.5
v 0.7 1.9 -1.5
v 0.8 1.9 -1.5
v 0.3 1.9 -1.6
v 0.4 1.9 -1.6
v 0.5 1.9 -1.6
v 0.7 1.9 -1.6
v 0.8 1.9 -1.6
v 0.3 2 -1.7
v 0.4 2 -1.7
v 0.3 2 -1.8
v 0.4 2 -1.8
v 0.8 2.1 -1.3
v 0.9 2.1 -1.3
v 0.8 2.1 -1.5
v 0.9 2.1 -1.5
v 0.3 2.1 -1.8
v 0.5 2.1 -1.8
v 0.3 2.1 -1.9
v 0.5 2.1 -1.9
v 0.7 2.2 -1.2
v 1 2.2 -1.2
v 0.7 2.2 -1.3
v 0.9 2.2 -1.3
v 1 2.2 -1.3
v 0.8 2.5 -1.4
v 0.9 2.5 -1.4
v 0.8 2.5 -1.5
v 0.9 2.5 -1.5
v 0.9 2.6 -1.2
v 1 2.6 -1.2
v 0.9 2.6 -1.4
v 1 2.6 -1.4
v 0.8 2.7 -1.1
v 1.1 2.7 -1.1
v 0.8 2.7 -1.2
v 1 2.7 -1.2
v 1 2.7 -1.3
v 1.1 2.7 -1.3
v 0.9 2.8 -1
v 1.1 2.8 -1
v 0.9 2.8 -1.1
v 1.1 2.8 -1.1
v 1 2.9 -0.9
v 1.2 2.9 -0.9
v 1 2.9 -1
v 1.1 2.9 -1
v 1.1 2.9 -1.2
v 1.2 2.9 -1.2
v 1.1 3 -0.8
v 1.3 3 -0.8
v 1.1 3 -0.9
v 1.2 3 -0.9
v 1.2 3 -1.1
v 1.3 3 -1.1
v 1.2 3.1 -0.7
v 1.4 3.1 -0.7
v 1.2 3.1 -0.8
v 1.3 3.1 -0.8
v 1.3 3.1 -1
v 1.4 3.1 -1
v 1.3 3.2 -0.6
v 1.5 3.2 -0.6
v 1.3 3.2 -0.7
v 1.4 3.2 -0.7
v 1.4 3.2 -0.9
v 1.5 3.2 -0.9
v 1.4 3.3 -0.5
v 1.6 3.3 -0.5
v 1.4 3.3 -0.6
v 1.5 3.3 -0.6
v 1.5 3.3 -0.8
v 1.6 3.3 -0.8
v 1.5 3.4 -0.4
v 1.7 3.4 -0.4
v 1.5 3.4 -0.5
v 1.6 3.4 -0.5
v 1.6 3.4 -0.7
v 1.7 3.4 -0.7
v 1.6 3.5 -0.3
v 1.8 3.5 -0.3
v 1.6 3.5 -0.4
v 1.7 3.5 -0.4
v 1.7 3.5 -0.6
v 1.8 3.5 -0.6
v 1.7 3.6 -0.2
v 1.9 3.6 -0.2
v 1.7 3.6 -0.3
v 1.8 3.6 -0.3
v 1.8 3.6 -0.5
v 1.9 3.6 -0.5
v 1.8 3.7 -0.1
v 1.9 3.7 -0.1
v 1.8 3.7 -0.2
v 1.9 3.7 -0.2
v 2 3.7 -0.2
v 1.9 3.7 -0.4
v 2 3.7 -0.4
v 1.9 3.8 -0.1
v 2 3.8 -0.1
v 1.9 3.8 -0.2
v 2 3.8 -0.2
v 0.3 0.1 -1
v 0.4 0.1 -1
v 0.3 0.1 -1.1
v 0.4 0.1 -1.1
v 0.1 0.1 -1.3
v 0.2 0.1 -1.3
v 0.1 0.1 -1.4
v 0.2 0.1 -1.4
v 1.6 0.1 -1.4
v 1.7 0.1 -1.4
v 1.6 0.1 -1.5
v 1.7 0.1 -1.5
v 1.6 0.1 -1.8
v 1.7 0.1 -1.8
v 1.6 0.1 -1.9
v 1.7 0.1 -1.9
v 1.2 0.1 -2.3
v 1.3 0.1 -2.3
v 1.2 0.1 -2.4
v 1.3 0.1 -2.4
v 1.6 0.2 -1.5
v 1.7 0.2 -1.5
v 1.6 0.2 -1.6
v 1.7 0.2 -1.6
v 0.5 0.3 -0.9
v 0.6 0.3 -0.9
v 1.2 0.3 -0.9
v 1.3 0.3 -0.9
v 0.5 0.3 -1
v 0.6 0.3 -1
v 1.2 0.3 -1
v 1.3 0.3 -1
v 1.6 0.3 -1.6
v 1.7 0.3 -1.6
v 0.1 0.3 -1.8
v 0.2 0.3 -1.8
v 1.6 0.3 -1.8
v 1.7 0.3 -1.8
v 0.1 0.3 -1.9
v 0.2 0.3 -1.9
v 1.5 0.3 -2
v 1.6 0.3 -2
v 1.5 0.3 -2.1
v 1.6 0.3 -2.1
v 0.5 0.3 -2.3
v 0.6 0.3 -2.3
v 0.5 0.3 -2.4
v 0.6 0.3 -2.4
v 1.5 0.4 -1.2
v 1.6 0.4 -1.2
v 1.5 0.4 -1.3
v 1.6 0.4 -1.3
v 0.1 0.4 -1.4
v 0.2 0.4 -1.4
v 0.1 0.4 -1.5
v 0.2 0.4 -1.5
v 0.1 0.4 -1.7
v 0.2 0.4 -1.7
v 0.1 0.4 -1.8
v 0.2 0.4 -1.8
v 1.3 0.4 -2.2
v 1.4 0.4 -2.2
v 1.1 0.4 -2.3
v 1.2 0.4 -2.3
v 1.3 0.4 -2.3
v 1.4 0.4 -2.3
v 1.1 0.4 -2.4
v 1.2 0.4 -2.4
v 1.1 0.5 -0.9
v 1.2 0.5 -0.9
v 1.1 0.5 -1
v 1.2 0.5 -1
v 1.3 0.5 -1
v 1.4 0.5 -1
v 1.3 0.5 -1.1
v 1.4 0.5 -1.1
v 1.5 0.5 -1.1
v 0.2 0.5 -1.2
v 0.3 0.5 -1.2
v 1.4 0.5 -1.2
v 1.5 0.5 -1.2
v 0.2 0.5 -1.3
v 0.3 0.5 -1.3
v 0.1 0.5 -1.5
v 0.2 0.5 -1.5
v 0.1 0.5 -1.7
v 0.2 0.5 -1.7
v 0.2 0.5 -2
v 0.3 0.5 -2
v 0.2 0.5 -2.1
v 0.3 0.5 -2.1
v 1.4 0.5 -2.1
v 1.5 0.5 -2.1
v 0.4 0.5 -2.2
v 0.5 0.5 -2.2
v 1.4 0.5 -2.2
v 1.5 0.5 -2.2
v 0.4 0.5 -2.3
v 0.5 0.5 -2.3
v 0.6 0.5 -2.3
v 0.7 0.5 -2.3
v 0.6 0.5 -2.4
v 0.7 0.5 -2.4
v 0.6 0.9 -0.9
v 0.7 0.9 -0.9
v 0.4 0.9 -1
v 0.5 0.9 -1
v 0.6 0.9 -1
v 0.7 0.9 -1
v 0.4 0.9 -1.1
v 0.5 0.9 -1.1
v 0.3 1 -2.1
v 0.4 1 -2.1
v 0.3 1 -2.2
v 0.4 1 -2.2
v 1.5 1.1 -1.9
v 1.6 1.1 -1.9
v 1.5 1.1 -2
v 1.6 1.1 -2
v 0.7 1.6 -2.3
v 0.8 1.6 -2.3
v 0.7 1.6 -2.4
v 0.8 1.6 -2.4
v 1.5 1.7 -1.3
v 1.6 1.7 -1.3
v 1.5 1.7 -1.4
v 1.6 1.7 -1.4
v 0.6 1.8 -1.1
v 0.8 1.8 -1.1
v 0.4 1.8 -1.2
v 0.6 1.8 -1.2
v 0.7 1.8 -1.3
v 0.8 1.8 -1.3
v 0.3 1.8 -1.4
v 0.4 1.8 -1.4
v 0.6 1.8 -1.4
v 0.7 1.8 -1.4
v 0.5 1.8 -1.5
v 0.6 1.8 -1.5
v 0.7 1.8 -1.5
v 0.8 1.8 -1.5
v 0.3 1.8 -1.6
v 0.5 1.8 -1.6
v 0.7 1.8 -1.6
v 0.8 1.8 -1.6
v 0.9 1.9 -0.9
v 1.1 1.9 -0.9
v 1.1 1.9 -1
v 1.3 1.9 -1
v 0.9 1.9 -1.1
v 1.3 1.9 -1.1
v 1.4 1.9 -1.1
v 0.9 1.9 -1.2
v 1.2 1.9 -1.2
v 1.3 1.9 -1.2
v 1.4 1.9 -1.2
v 1.5 1.9 -1.2
v 0.9 1.9 -1.3
v 1.2 1.9 -1.3
v 1.3 1.9 -1.3
v 0.9 1.9 -1.4
v 1.2 1.9 -1.4
v 1.3 1.9 -1.4
v 1.4 1.9 -1.4
v 1.5 1.9 -1.4
v 1.6 1.9 -1.4
v 0.9 1.9 -1.5
v 1.1 1.9 -1.5
v 0.2 1.9 -1.7
v 0.3 1.9 -1.7
v 0.4 1.9 -1.7
v 0.6 1.9 -1.7
v 0.7 1.9 -1.7
v 0.8 1.9 -1.7
v 0.9 1.9 -1.7
v 0.4 1.9 -1.8
v 0.6 1.9 -1.8
v 0.7 1.9 -1.8
v 1.1 1.9 -1.8
v 0.5 1.9 -1.9
v 0.6 1.9 -1.9
v 0.8 1.9 -1.9
v 0.9 1.9 -1.9
v 1.2 1.9 -1.9
v 1.3 1.9 -1.9
v 1.5 1.9 -1.9
v 1.6 1.9 -1.9
v 0.2 1.9 -2
v 0.3 1.9 -2
v 0.6 1.9 -2
v 0.8 1.9 -2
v 0.9 1.9 -2
v 1.2 1.9 -2
v 1.3 1.9 -2
v 1.4 1.9 -2
v 1.5 1.9 -2
v 0.3 1.9 -2.1
v 0.4 1.9 -2.1
v 0.5 1.9 -2.1
v 0.9 1.9 -2.1
v 1 1.9 -2.1
v 1.3 1.9 -2.1
v 1.4 1.9 -2.1
v 1.5 1.9 -2.1
v 0.4 1.9 -2.2
v 0.5 1.9 -2.2
v 0.9 1.9 -2.2
v 1 1.9 -2.2
v 1.3 1.9 -2.2
v 1.4 1.9 -2.2
v 0.5 1.9 -2.3
v 0.8 1.9 -2.3
v 0.9 1.9 -2.3
v 1 1.9 -2.3
v 1.1 1.9 -2.3
v 1.3 1.9 -2.3
v 0.8 1.9 -2.4
v 1.1 1.9 -2.4
v 0.7 2 -0.9
v 0.9 2 -0.9
v 0.5 2 -1
v 0.7 2 -1
v 0.3 2 -1.1
v 0.5 2 -1.1
v 0.6 2 -1.1
v 0.9 2 -1.1
v 0.5 2 -1.2
v 0.6 2 -1.2
v 0.9 2 -1.2
v 0.2 2 -1.3
v 0.3 2 -1.3
v 0.4 2 -1.3
v 0.5 2 -1.3
v 0.6 2 -1.3
v 0.8 2 -1.3
v 0.9 2 -1.3
v 0.3 2 -1.4
v 0.4 2 -1.4
v 0.5 2 -1.4
v 0.6 2 -1.4
v 0.8 2 -1.4
v 0.9 2 -1.4
v 0.4 2 -1.5
v 0.5 2 -1.5
v 0.8 2 -1.5
v 0.9 2 -1.5
v 0.3 2 -1.6
v 0.4 2 -1.6
v 0.7 2 -1.6
v 0.8 2 -1.6
v 0.2 2 -1.7
v 0.3 2 -1.7
v 0.7 2 -1.7
v 0.8 2 -1.7
v 0.9 2 -1.7
v 0.9 2.3 -1.2
v 1 2.3 -1.2
v 0.9 2.3 -1.3
v 1 2.3 -1.3
v 0.8 2.4 -1.4
v 0.9 2.4 -1.4
v 0.8 2.4 -1.5
v 0.9 2.4 -1.5
v 0.3 2.4 -1.6
v 0.4 2.4 -1.6
v 0.4 2.4 -1.8
v 0.5 2.4 -1.8
v 0.3 2.4 -1.9
v 0.5 2.4 -1.9
v 0.4 2.5 -1.5
v 0.5 2.5 -1.5
v 0.5 2.5 -1.7
v 0.6 2.5 -1.7
v 0.4 2.5 -1.8
v 0.6 2.5 -1.8
v 0.5 2.6 -1.4
v 0.6 2.6 -1.4
v 0.6 2.6 -1.6
v 0.7 2.6 -1.6
v 0.5 2.6 -1.7
v 0.7 2.6 -1.7
v 0.6 2.7 -1.3
v 0.7 2.7 -1.3
v 0.7 2.7 -1.5
v 0.8 2.7 -1.5
v 0.6 2.7 -1.6
v 0.8 2.7 -1.6
v 0.7 2.8 -1.2
v 0.8 2.8 -1.2
v 0.8 2.8 -1.4
v 0.9 2.8 -1.4
v 0.7 2.8 -1.5
v 0.9 2.8 -1.5
v 0.8 2.9 -1.3
v 1 2.9 -1.3
v 0.8 2.9 -1.4
v 1 2.9 -1.4
v 0.8 3 -1.1
v 0.9 3 -1.1
v 0.9 3 -1.2
v 1.1 3 -1.2
v 0.8 3 -1.3
v 1.1 3 -1.3
v 0.9 3.1 -1
v 1 3.1 -1
v 1 3.1 -1.1
v 1.2 3.1 -1.1
v 0.9 3.1 -1.2
v 1.2 3.1 -1.2
v 1 3.2 -0.9
v 1.1 3.2 -0.9
v 1.1 3.2 -1
v 1.3 3.2 -1
v 1 3.2 -1.1
v 1.3 3.2 -1.1
v 1.1 3.3 -0.8
v 1.2 3.3 -0.8
v 1.2 3.3 -0.9
v 1.4 3.3 -0.9
v 1.1 3.3 -1
v 1.4 3.3 -1
v 1.2 3.4 -0.7
v 1.3 3.4 -0.7
v 1.3 3.4 -0.8
v 1.5 3.4 -0.8
v 1.2 3.4 -0.9
v 1.5 3.4 -0.9
v 1.3 3.5 -0.6
v 1.4 3.5 -0.6
v 1.4 3.5 -0.7
v 1.6 3.5 -0.7
v 1.3 3.5 -0.8
v 1.6 3.5 -0.8
v 1.4 3.6 -0.5
v 1.5 3.6 -0.5
v 1.5 3.6 -0.6
v 1.7 3.6 -0.6
v 1.4 3.6 -0.7
v 1.7 3.6 -0.7
v 1.5 3.7 -0.4
v 1.6 3.7 -0.4
v 1.6 3.7 -0.5
v 1.8 3.7 -0.5
v 1.5 3.7 -0.6
v 1.8 3.7 -0.6
v 1.6 3.8 -0.3
v 1.7 3.8 -0.3
v 1.7 3.8 -0.4
v 1.9 3.8 -0.4
v 1.6 3.8 -0.5
v 1.9 3.8 -0.5
v 1.9 3.9 -0.1
v 2 3.9 -0.1
v 1.7 3.9 -0.2
v 1.8 3.9 -0.2
v 1.9 3.9 -0.2
v 2 3.9 -0.2
v 1.9 3.9 -0.3
v 2 3.9 -0.3
v 1.7 3.9 -0.4
v 1.8 3.9 -0.4
v 1.9 3.9 -0.4
v 2 3.9 -0.4
v 1.8 4 -0.1
v 1.9 4 -0.1
v 1.9 4 -0.2
v 2 4 -0.2
v 1.9 4 -0.3
v 2 4 -0.3
v 1.8 4 -0.4
v 1.9 4 -0.4

# faces
f 5/4/1 2/4/1 1/4/1
f 6/4/1 2/4/1 5/4/1
f 7/4/1 2/4/1 6/4/1
f 8/1/1 3/1/1 2/1/1
f 8/4/1 2/4/1 7/4/1
f 9/4/1 4/4/1 3/4/1
f 9/1/1 3/1/1 8/1/1
f 10/4/1 7/4/1 6/4/1
f 11/1/1 8/1/1 7/1/1
f 11/4/1 7/4/1 10/4/1
f 12/4/1 9/4/1 8/4/1
f 12/1/1 8/1/1 11/1/1
f 13/4/1 10/4/1 6/4/1
f 13/1/1 11/1/1 10/1/1
f 14/4/1 12/4/1 11/4/1
f 14/1/1 11/1/1 13/1/1
f 15/4/1 9/4/1 12/4/1
f 15/4/1 12/4/1 14/4/1
f 15/4/1 4/4/1 9/4/1
f 16/4/1 4/4/1 15/4/1
f 17/4/1 14/4/1 13/4/1
f 17/4/1 13/4/1 6/4/1
f 17/4/1 15/4/1 14/4/1
f 18/4/1 15/4/1 17/4/1
f 19/4/1 15/4/1 18/4/1
f 20/4/1 15/4/1 19/4/1
f 21/4/1 19/4/1 18/4/1
f 22/4/1 19/4/1 21/4/1
f 27/4/1 24/4/1 23/4/1
f 29/4/1 26/4/1 25/4/1
f 30/4/1 26/4/1 29/4/1
f 31/1/1 30/1/1 29/1/1
f 32/4/1 26/4/1 30/4/1
f 32/1/1 30/1/1 31/1/1
f 33/4/1 26/4/1 32/4/1
f 35/4/1 32/4/1 31/4/1
f 36/4/1 28/4/1 27/4/1
f 39/4/1 35/4/1 34/4/1
f 40/1/1 33/1/1 32/1/1
f 40/4/1 32/4/1 35/4/1
f 40/4/1 35/4/1 39/4/1
f 41/1/1 33/1/1 40/1/1
f 42/4/1 37/4/1 36/4/1
f 42/4/1 27/4/1 23/4/1
f 42/4/1 36/4/1 27/4/1
f 43/4/1 37/4/1 42/4/1
f 44/4/1 37/4/1 43/4/1
f 45/4/1 37/4/1 44/4/1
f 46/4/1 41/4/1 40/4/1
f 46/4/1 39/4/1 38/4/1
f 46/4/1 40/4/1 39/4/1
f 47/4/1 41/4/1 46/4/1
f 48/4/1 41/4/1 47/4/1
f 49/1/1 45/1/1 44/1/1
f 49/4/1 44/4/1 43/4/1
f 50/4/1 47/4/1 46/4/1
f 50/1/1 45/1/1 49/1/1
f 50/4/1 46/4/1 45/4/1
f 51/4/1 47/4/1 50/4/1
f 52/4/1 47/4/1 51/4/1
f 53/4/1 47/4/1 52/4/1
f 54/4/1 50/4/1 49/4/1
f 54/1/1 51/1/1 50/1/1
f 55/4/1 52/4/1 51/4/1
f 55/1/1 51/1/1 54/1/1
f 56/4/1 55/4/1 54/4/1
f 56/4/1 52/4/1 55/4/1
f 57/1/1 53/1/1 52/1/1
f 57/4/1 52/4/1 56/4/1
f 58/4/1 56/4/1 54/4/1
f 58/4/1 54/4/1 49/4/1
f 59/1/1 57/1/1 56/1/1
f 59/4/1 56/4/1 58/4/1
f 60/1/1 53/1/1 57/1/1
f 60/1/1 57/1/1 59/1/1
f 61/4/1 49/4/1 43/4/1
f 61/4/1 58/4/1 49/4/1
f 62/1/1 59/1/1 58/1/1
f 62/4/1 58/4/1 61/4/1
f 63/4/1 60/4/1 59/4/1
f 63/1/1 59/1/1 62/1/1
f 64/1/1 53/1/1 60/1/1
f 64/4/1 60/4/1 63/4/1
f 65/4/1 47/4/1 53/4/1
f 65/1/1 53/1/1 64/1/1
f 66/4/1 61/4/1 43/4/1
f 66/1/1 62/1/1 61/1/1
f 67/4/1 63/4/1 62/4/1
f 67/1/1 62/1/1 66/1/1
f 67/4/1 64/4/1 63/4/1
f 67/4/1 65/4/1 64/4/1
f 68/4/1 65/4/1 67/4/1
f 69/4/1 47/4/1 65/4/1
f 69/4/1 65/4/1 68/4/1
f 70/4/1 47/4/1 69/4/1
f 71/1/1 68/1/1 67/1/1
f 71/4/1 67/4/1 66/4/1
f 72/4/1 69/4/1 68/4/1
f 72/1/1 68/1/1 71/1/1
f 73/4/1 69/4/1 72/4/1
f 74/1/1 70/1/1 69/1/1
f 74/4/1 69/4/1 73/4/1
f 75/1/1 70/1/1 74/1/1
f 76/1/1 73/1/1 72/1/1
f 76/4/1 72/4/1 71/4/1
f 77/4/1 75/4/1 74/4/1
f 77/1/1 73/1/1 76/1/1
f 77/4/1 74/4/1 73/4/1
f 78/4/1 77/4/1 76/4/1
f 78/4/1 75/4/1 77/4/1
f 79/4/1 75/4/1 78/4/1
f 80/4/1 66/4/1 43/4/1
f 80/4/1 71/4/1 66/4/1
f 80/4/1 78/4/1 76/4/1
f 80/4/1 76/4/1 71/4/1
f 81/4/1 78/4/1 80/4/1
f 86/4/1 83/4/1 82/4/1
f 87/4/1 83/4/1 86/4/1
f 88/4/1 85/4/1 84/4/1
f 89/4/1 85/4/1 88/4/1
f 90/4/1 83/4/1 87/4/1
f 93/4/1 85/4/1 89/4/1
f 94/4/1 93/4/1 92/4/1
f 95/4/1 85/4/1 93/4/1
f 95/4/1 93/4/1 94/4/1
f 96/1/1 95/1/1 94/1/1
f 97/4/1 85/4/1 95/4/1
f 97/1/1 95/1/1 96/1/1
f 98/4/1 85/4/1 97/4/1
f 99/4/1 91/4/1 90/4/1
f 99/4/1 90/4/1 87/4/1
f 100/4/1 91/4/1 99/4/1
f 101/1/1 98/1/1 97/1/1
f 101/4/1 97/4/1 96/4/1
f 102/1/1 98/1/1 101/1/1
f 103/4/1 101/4/1 96/4/1
f 103/4/1 102/4/1 101/4/1
f 104/4/1 102/4/1 103/4/1
f 105/1/1 100/1/1 99/1/1
f 106/4/1 91/4/1 100/4/1
f 106/1/1 100/1/1 105/1/1
f 107/4/1 103/4/1 96/4/1
f 108/4/1 103/4/1 107/4/1
f 109/4/1 91/4/1 106/4/1
f 109/4/1 106/4/1 105/4/1
f 110/4/1 91/4/1 109/4/1
f 111/1/1 108/1/1 107/1/1
f 112/4/1 109/4/1 105/4/1
f 113/1/1 110/1/1 109/1/1
f 113/4/1 109/4/1 112/4/1
f 114/1/1 110/1/1 113/1/1
f 115/1/1 108/1/1 111/1/1
f 116/1/1 108/1/1 115/1/1
f 117/1/1 113/1/1 112/1/1
f 118/4/1 114/4/1 113/4/1
f 118/1/1 113/1/1 117/1/1
f 119/4/1 116/4/1 115/4/1
f 120/4/1 116/4/1 119/4/1
f 121/4/1 118/4/1 117/4/1
f 122/4/1 114/4/1 118/4/1
f 122/4/1 118/4/1 121/4/1
f 126/5/1 125/5/1 124/5/1
f 126/5/1 124/5/1 123/5/1
f 128/5/1 126/5/1 123/5/1
f 128/5/1 127/5/1 126/5/1
f 129/5/1 127/5/1 128/5/1
f 130/5/1 128/5/1 123/5/1
f 130/7/1 129/7/1 128/7/1
f 131/5/1 127/5/1 129/5/1
f 131/7/1 129/7/1 130/7/1
f 132/5/1 130/5/1 123/5/1
f 132/5/1 131/5/1 130/5/1
f 133/5/1 127/5/1 131/5/1
f 133/5/1 131/5/1 132/5/1
f 138/4/1 135/4/1 134/4/1
f 139/4/1 135/4/1 138/4/1
f 140/1/1 139/1/1 138/1/1
f 141/1/1 139/1/1 140/1/1
f 142/4/1 137/4/1 136/4/1
f 143/4/1 142/4/1 136/4/1
f 144/4/1 142/4/1 143/4/1
f 147/4/1 146/4/1 145/4/1
f 148/4/1 146/4/1 147/4/1
f 151/4/1 146/4/1 148/4/1
f 152/4/1 146/4/1 151/4/1
f 155/5/1 150/5/1 149/5/1
f 156/5/1 150/5/1 155/5/1
f 157/5/1 154/5/1 153/5/1
f 159/5/1 157/5/1 153/5/1
f 159/5/1 158/5/1 157/5/1
f 160/5/1 158/5/1 159/5/1
f 165/4/1 162/4/1 161/4/1
f 166/4/1 162/4/1 165/4/1
f 167/4/1 164/4/1 163/4/1
f 168/4/1 164/4/1 167/4/1
f 171/1/1 170/1/1 169/1/1
f 172/1/1 170/1/1 171/1/1
f 175/4/1 172/4/1 171/4/1
f 176/4/1 172/4/1 175/4/1
f 179/4/1 178/4/1 177/4/1
f 180/4/1 178/4/1 179/4/1
f 181/4/1 172/4/1 176/4/1
f 182/4/1 172/4/1 181/4/1
f 183/4/1 174/4/1 173/4/1
f 184/4/1 174/4/1 183/4/1
f 187/5/1 186/5/1 185/5/1
f 189/5/1 187/5/1 185/5/1
f 189/5/1 188/5/1 187/5/1
f 190/5/1 188/5/1 189/5/1
f 195/4/1 194/4/1 193/4/1
f 196/4/1 194/4/1 195/4/1
f 197/4/1 192/4/1 191/4/1
f 198/4/1 192/4/1 197/4/1
f 201/4/1 200/4/1 199/4/1
f 202/4/1 200/4/1 201/4/1
f 205/5/1 204/5/1 203/5/1
f 206/5/1 204/5/1 205/5/1
f 207/6/1 206/6/1 205/6/1
f 209/6/1 207/6/1 205/6/1
f 209/6/1 208/6/1 207/6/1
f 210/6/1 208/6/1 209/6/1
f 213/1/1 212/1/1 211/1/1
f 214/1/1 212/1/1 213/1/1
f 217/1/1 216/1/1 215/1/1
f 218/1/1 216/1/1 217/1/1
f 219/4/1 218/4/1 217/4/1
f 220/4/1 218/4/1 219/4/1
f 221/1/1 220/1/1 219/1/1
f 222/1/1 220/1/1 221/1/1
f 223/4/1 214/4/1 213/4/1
f 224/4/1 214/4/1 223/4/1
f 227/4/1 226/4/1 225/4/1
f 228/4/1 226/4/1 227/4/1
f 229/4/1 222/4/1 221/4/1
f 230/4/1 222/4/1 229/4/1
f 233/5/1 232/5/1 231/5/1
f 234/5/1 232/5/1 233/5/1
f 235/6/1 234/6/1 233/6/1
f 236/6/1 235/6/1 233/6/1
f 238/6/1 236/6/1 233/6/1
f 238/6/1 237/6/1 236/6/1
f 239/6/1 237/6/1 238/6/1
f 246/4/1 243/4/1 242/4/1
f 247/4/1 243/4/1 246/4/1
f 248/4/1 243/4/1 247/4/1
f 249/4/1 245/4/1 244/4/1
f 250/4/1 245/4/1 249/4/1
f 251/4/1 241/4/1 240/4/1
f 252/4/1 241/4/1 251/4/1
f 255/6/1 254/6/1 253/6/1
f 257/6/1 256/6/1 255/6/1
f 258/6/1 256/6/1 257/6/1
f 259/6/1 255/6/1 253/6/1
f 259/6/1 257/6/1 255/6/1
f 260/6/1 257/6/1 259/6/1
f 263/6/1 262/6/1 261/6/1
f 265/6/1 263/6/1 261/6/1
f 265/6/1 264/6/1 263/6/1
f 266/6/1 264/6/1 265/6/1
f 269/6/1 268/6/1 267/6/1
f 271/6/1 269/6/1 267/6/1
f 271/6/1 270/6/1 269/6/1
f 272/6/1 270/6/1 271/6/1
f 275/6/1 274/6/1 273/6/1
f 277/6/1 275/6/1 273/6/1
f 277/6/1 276/6/1 275/6/1
f 278/6/1 276/6/1 277/6/1
f 281/6/1 280/6/1 279/6/1
f 283/6/1 281/6/1 279/6/1
f 283/6/1 282/6/1 281/6/1
f 284/6/1 282/6/1 283/6/1
f 287/6/1 286/6/1 285/6/1
f 289/6/1 287/6/1 285/6/1
f 289/6/1 288/6/1 287/6/1
f 290/6/1 288/6/1 289/6/1
f 293/6/1 292/6/1 291/6/1
f 295/6/1 293/6/1 291/6/1
f 295/6/1 294/6/1 293/6/1
f 296/6/1 294/6/1 295/6/1
f 299/6/1 298/6/1 297/6/1
f 301/6/1 299/6/1 297/6/1
f 301/6/1 300/6/1 299/6/1
f 302/6/1 300/6/1 301/6/1
f 305/6/1 304/6/1 303/6/1
f 307/6/1 305/6/1 303/6/1
f 307/6/1 306/6/1 305/6/1
f 308/6/1 306/6/1 307/6/1
f 311/6/1 310/6/1 309/6/1
f 313/6/1 311/6/1 309/6/1
f 313/6/1 312/6/1 311/6/1
f 314/6/1 312/6/1 313/6/1
f 317/6/1 316/6/1 315/6/1
f 319/6/1 317/6/1 315/6/1
f 319/6/1 318/6/1 317/6/1
f 320/6/1 318/6/1 319/6/1
f 321/4/2 322/4/2 323/4/2
f 323/4/2 322/4/2 324/4/2
f 325/4/2 326/4/2 327/4/2
f 327/4/2 326/4/2 328/4/2
f 328/4/2 326/4/2 329/4/2
f 330/5/2 331/5/2 332/5/2
f 332/5/2 331/5/2 333/5/2
f 334/4/2 335/4/2 336/4/2
f 336/4/2 335/4/2 337/4/2
f 338/5/2 339/5/2 340/5/2
f 340/5/2 339/5/2 341/5/2
f 341/5/2 339/5/2 342/5/2
f 343/4/2 344/4/2 345/4/2
f 345/4/2 344/4/2 346/4/2
f 347/5/2 348/5/2 349/5/2
f 349/5/2 348/5/2 350/5/2
f 350/5/2 348/5/2 351/5/2
f 352/5/2 353/5/2 356/5/2
f 354/5/2 355/5/2 356/5/2
f 353/5/2 354/5/2 356/5/2
f 356/5/2 355/5/2 357/5/2
f 357/5/2 355/5/2 359/5/2
f 358/5/2 359/5/2 360/5/2
f 359/5/2 355/5/2 361/5/2
f 360/5/2 359/5/2 361/5/2
f 361/5/2 355/5/2 362/5/2
f 361/6/2 362/6/2 363/6/2
f 363/6/2 362/6/2 364/6/2
f 365/4/2 366/4/2 372/4/2
f 366/2/2 367/2/2 373/2/2
f 372/4/2 366/4/2 373/4/2
f 367/4/2 368/4/2 374/4/2
f 373/2/2 367/2/2 374/2/2
f 368/2/2 369/2/2 375/2/2
f 374/4/2 368/4/2 375/4/2
f 369/4/2 370/4/2 376/4/2
f 375/2/2 369/2/2 376/2/2
f 370/3/2 371/3/2 377/3/2
f 376/4/2 370/4/2 377/4/2
f 377/3/2 371/3/2 378/3/2
f 379/5/2 380/5/2 381/5/2
f 381/5/2 380/5/2 383/5/2
f 383/5/2 380/5/2 384/5/2
f 384/5/2 380/5/2 385/5/2
f 382/6/2 383/6/2 386/6/2
f 383/5/2 384/5/2 386/5/2
f 386/5/2 384/5/2 387/5/2
f 382/6/2 386/6/2 389/6/2
f 387/6/2 388/6/2 389/6/2
f 386/6/2 387/6/2 389/6/2
f 389/6/2 388/6/2 390/6/2
f 390/6/2 388/6/2 391/6/2
f 391/6/2 388/6/2 392/6/2
f 393/5/2 394/5/2 395/5/2
f 395/5/2 394/5/2 396/5/2
f 397/6/2 398/6/2 399/6/2
f 399/6/2 398/6/2 400/6/2
f 400/6/2 398/6/2 401/6/2
f 401/6/2 398/6/2 402/6/2
f 405/4/2 406/4/2 407/4/2
f 403/1/2 404/1/2 408/1/2
f 408/1/2 404/1/2 409/1/2
f 405/4/2 407/4/2 410/4/2
f 405/4/2 410/4/2 411/4/2
f 411/4/2 410/4/2 412/4/2
f 408/4/2 409/4/2 413/4/2
f 413/4/2 409/4/2 414/4/2
f 415/6/2 416/6/2 418/6/2
f 417/6/2 418/6/2 419/6/2
f 418/6/2 416/6/2 420/6/2
f 419/6/2 418/6/2 420/6/2
f 420/6/2 416/6/2 421/6/2
f 421/6/2 416/6/2 422/6/2
f 423/4/2 424/4/2 427/4/2
f 427/4/2 424/4/2 428/4/2
f 425/4/2 426/4/2 429/4/2
f 429/4/2 426/4/2 430/4/2
f 431/6/2 432/6/2 433/6/2
f 433/6/2 432/6/2 434/6/2
f 434/6/2 432/6/2 435/6/2
f 435/6/2 432/6/2 436/6/2
f 439/4/2 440/4/2 441/4/2
f 441/4/2 440/4/2 442/4/2
f 437/4/2 438/4/2 443/4/2
f 443/4/2 438/4/2 444/4/2
f 445/4/2 446/4/2 449/4/2
f 449/4/2 446/4/2 450/4/2
f 449/1/2 450/1/2 451/1/2
f 451/1/2 450/1/2 452/1/2
f 452/1/2 450/1/2 453/1/2
f 452/4/2 453/4/2 454/4/2
f 447/4/2 448/4/2 455/4/2
f 455/4/2 448/4/2 456/4/2
f 454/4/2 453/4/2 457/4/2
f 457/4/2 453/4/2 458/4/2
f 458/4/2 453/4/2 459/4/2
f 458/1/2 459/1/2 460/1/2
f 455/1/2 456/1/2 461/1/2
f 461/1/2 456/1/2 462/1/2
f 460/1/2 459/1/2 463/1/2
f 463/1/2 459/1/2 464/1/2
f 461/4/2 462/4/2 465/4/2
f 465/4/2 462/4/2 466/4/2
f 463/4/2 464/4/2 467/4/2
f 467/4/2 464/4/2 468/4/2
f 469/6/2 470/6/2 471/6/2
f 471/6/2 470/6/2 472/6/2
f 472/6/2 470/6/2 473/6/2
f 473/6/2 470/6/2 474/6/2
f 477/4/2 478/4/2 479/4/2
f 479/4/2 478/4/2 480/4/2
f 475/4/2 476/4/2 481/4/2
f 481/4/2 476/4/2 482/4/2
f 482/4/2 483/4/2 486/4/2
f 484/4/2 485/4/2 487/4/2
f 487/4/2 485/4/2 488/4/2
f 487/1/2 488/1/2 489/1/2
f 489/1/2 488/1/2 490/1/2
f 489/4/2 490/4/2 491/4/2
f 491/4/2 490/4/2 492/4/2
f 482/4/2 486/4/2 493/4/2
f 491/1/2 492/1/2 494/1/2
f 494/1/2 492/1/2 495/1/2
f 482/4/2 493/4/2 496/4/2
f 496/4/2 493/4/2 497/4/2
f 494/4/2 495/4/2 498/4/2
f 498/4/2 495/4/2 499/4/2
f 500/6/2 501/6/2 502/6/2
f 502/6/2 501/6/2 503/6/2
f 503/6/2 501/6/2 504/6/2
f 504/6/2 501/6/2 505/6/2
f 508/4/2 509/4/2 511/4/2
f 506/4/2 507/4/2 512/4/2
f 506/4/2 512/4/2 514/4/2
f 512/4/2 513/4/2 514/4/2
f 514/4/2 513/4/2 515/4/2
f 510/4/2 511/4/2 516/4/2
f 511/4/2 509/4/2 516/4/2
f 516/4/2 509/4/2 517/4/2
f 515/4/2 513/4/2 518/4/2
f 518/4/2 513/4/2 519/4/2
f 518/1/2 519/1/2 520/1/2
f 518/1/2 520/1/2 521/1/2
f 521/1/2 520/1/2 522/1/2
f 510/4/2 516/4/2 524/4/2
f 521/4/2 522/4/2 525/4/2
f 525/4/2 526/4/2 527/4/2
f 523/4/2 524/4/2 528/4/2
f 524/4/2 516/4/2 529/4/2
f 528/4/2 524/4/2 529/4/2
f 525/4/2 527/4/2 530/4/2
f 521/4/2 525/4/2 530/4/2
f 530/4/2 527/4/2 531/4/2
f 528/2/2 529/2/2 532/2/2
f 529/4/2 516/4/2 533/4/2
f 532/2/2 529/2/2 533/2/2
f 533/4/2 516/4/2 534/4/2
f 535/6/2 536/6/2 537/6/2
f 537/6/2 536/6/2 538/6/2
f 538/6/2 536/6/2 539/6/2
f 539/6/2 536/6/2 540/6/2
f 541/4/2 542/4/2 545/4/2
f 543/4/2 544/4/2 548/4/2
f 545/4/2 546/4/2 549/4/2
f 541/4/2 545/4/2 549/4/2
f 549/4/2 546/4/2 550/4/2
f 550/4/2 546/4/2 551/4/2
f 541/4/2 549/4/2 553/4/2
f 549/1/2 550/1/2 553/1/2
f 551/4/2 552/4/2 554/4/2
f 553/1/2 550/1/2 554/1/2
f 550/4/2 551/4/2 554/4/2
f 554/4/2 552/4/2 555/4/2
f 555/4/2 552/4/2 556/4/2
f 547/4/2 548/4/2 557/4/2
f 548/4/2 544/4/2 558/4/2
f 557/4/2 548/4/2 558/4/2
f 558/4/2 544/4/2 559/4/2
f 541/4/2 553/4/2 560/4/2
f 553/4/2 554/4/2 560/4/2
f 560/4/2 554/4/2 561/4/2
f 554/1/2 555/1/2 562/1/2
f 561/4/2 554/4/2 562/4/2
f 555/4/2 556/4/2 563/4/2
f 562/1/2 555/1/2 563/1/2
f 556/4/2 557/4/2 563/4/2
f 557/4/2 558/4/2 563/4/2
f 563/4/2 558/4/2 564/4/2
f 564/4/2 558/4/2 565/4/2
f 562/4/2 563/4/2 566/4/2
f 563/4/2 564/4/2 566/4/2
f 564/1/2 565/1/2 567/1/2
f 566/4/2 564/4/2 567/4/2
f 565/4/2 558/4/2 568/4/2
f 567/1/2 565/1/2 568/1/2
f 562/4/2 566/4/2 569/4/2
f 566/1/2 567/1/2 570/1/2
f 569/4/2 566/4/2 570/4/2
f 567/4/2 568/4/2 571/4/2
f 570/1/2 567/1/2 571/1/2
f 569/1/2 570/1/2 572/1/2
f 570/4/2 571/4/2 573/4/2
f 572/1/2 570/1/2 573/1/2
f 562/4/2 569/4/2 574/4/2
f 569/1/2 572/1/2 574/1/2
f 572/4/2 573/4/2 575/4/2
f 574/1/2 572/1/2 575/1/2
f 573/4/2 571/4/2 576/4/2
f 575/4/2 573/4/2 576/4/2
f 561/4/2 562/4/2 577/4/2
f 574/4/2 575/4/2 577/4/2
f 562/4/2 574/4/2 577/4/2
f 577/4/2 575/4/2 578/4/2
f 575/1/2 576/1/2 579/1/2
f 578/4/2 575/4/2 579/4/2
f 576/4/2 571/4/2 580/4/2
f 579/1/2 576/1/2 580/1/2
f 571/4/2 568/4/2 581/4/2
f 580/4/2 571/4/2 581/4/2
f 568/4/2 558/4/2 582/4/2
f 581/4/2 568/4/2 582/4/2
f 582/4/2 558/4/2 583/4/2
f 578/4/2 579/4/2 584/4/2
f 579/4/2 580/4/2 584/4/2
f 580/1/2 581/1/2 585/1/2
f 584/4/2 580/4/2 585/4/2
f 581/4/2 582/4/2 586/4/2
f 585/1/2 581/1/2 586/1/2
f 578/4/2 584/4/2 587/4/2
f 584/1/2 585/1/2 587/1/2
f 585/4/2 586/4/2 588/4/2
f 587/1/2 585/1/2 588/1/2
f 577/1/2 578/1/2 589/1/2
f 578/4/2 587/4/2 590/4/2
f 589/1/2 578/1/2 590/1/2
f 587/4/2 588/4/2 590/4/2
f 590/4/2 588/4/2 591/4/2
f 590/1/2 591/1/2 592/1/2
f 591/4/2 588/4/2 593/4/2
f 592/1/2 591/1/2 593/1/2
f 592/4/2 593/4/2 594/4/2
f 588/4/2 586/4/2 595/4/2
f 594/4/2 593/4/2 595/4/2
f 586/4/2 582/4/2 595/4/2
f 593/4/2 588/4/2 595/4/2
f 596/6/2 597/6/2 598/6/2
f 598/6/2 597/6/2 599/6/2
f 599/6/2 597/6/2 600/6/2
f 600/6/2 597/6/2 601/6/2
f 602/4/2 603/4/2 604/4/2
f 604/4/2 603/4/2 605/4/2
f 605/4/2 603/4/2 606/4/2
f 606/4/2 603/4/2 607/4/2
f 605/4/2 606/4/2 608/4/2
f 608/4/2 606/4/2 609/4/2
f 609/4/2 606/4/2 610/4/2
f 610/4/2 606/4/2 611/4/2
f 612/6/2 613/6/2 614/6/2
f 614/6/2 613/6/2 615/6/2
f 615/6/2 613/6/2 616/6/2
f 616/6/2 613/6/2 617/6/2
f 618/6/2 619/6/2 620/6/2
f 620/6/2 619/6/2 621/6/2
f 621/6/2 619/6/2 622/6/2
f 622/6/2 619/6/2 623/6/2
f 624/6/2 625/6/2 627/6/2
f 627/6/2 625/6/2 628/6/2
f 626/6/2 627/6/2 629/6/2
f 629/6/2 627/6/2 630/6/2
f 628/6/2 625/6/2 631/6/2
f 631/6/2 625/6/2 632/6/2
f 633/6/2 634/6/2 637/6/2
f 637/6/2 634/6/2 638/6/2
f 635/6/2 636/6/2 639/6/2
f 639/6/2 636/6/2 640/6/2
f 641/6/2 642/6/2 644/6/2
f 643/6/2 644/6/2 645/6/2
f 644/6/2 642/6/2 646/6/2
f 645/6/2 644/6/2 646/6/2
f 646/6/2 642/6/2 647/6/2
f 647/6/2 642/6/2 648/6/2
f 646/6/2 647/6/2 649/6/2
f 649/6/2 647/6/2 650/6/2
f 653/6/3 652/6/3 651/6/3
f 654/6/3 652/6/3 653/6/3
f 655/6/3 652/6/3 654/6/3
f 656/6/3 652/6/3 655/6/3
f 657/6/3 655/6/3 654/6/3
f 658/6/3 655/6/3 657/6/3
f 661/6/3 660/6/3 659/6/3
f 662/6/3 660/6/3 661/6/3
f 663/6/3 661/6/3 659/6/3
f 664/6/3 661/6/3 663/6/3
f 668/6/3 665/6/3 664/6/3
f 669/6/3 665/6/3 668/6/3
f 670/6/3 667/6/3 666/6/3
f 671/6/3 667/6/3 670/6/3
f 674/6/3 673/6/3 672/6/3
f 675/6/3 673/6/3 674/6/3
f 676/6/3 674/6/3 672/6/3
f 677/6/3 674/6/3 676/6/3
f 680/6/3 679/6/3 678/6/3
f 681/6/3 679/6/3 680/6/3
f 682/6/3 680/6/3 678/6/3
f 683/6/3 680/6/3 682/6/3
f 686/6/3 685/6/3 684/6/3
f 687/6/3 685/6/3 686/6/3
f 688/6/3 686/6/3 684/6/3
f 689/6/3 686/6/3 688/6/3
f 692/6/3 691/6/3 690/6/3
f 693/6/3 691/6/3 692/6/3
f 694/6/3 692/6/3 690/6/3
f 695/6/3 692/6/3 694/6/3
f 698/6/3 697/6/3 696/6/3
f 699/6/3 697/6/3 698/6/3
f 700/6/3 698/6/3 696/6/3
f 701/6/3 698/6/3 700/6/3
f 704/6/3 703/6/3 702/6/3
f 705/6/3 703/6/3 704/6/3
f 706/6/3 704/6/3 702/6/3
f 707/6/3 704/6/3 706/6/3
f 710/4/3 709/4/3 708/4/3
f 712/4/3 711/4/3 710/4/3
f 713/4/3 711/4/3 712/4/3
f 718/4/3 712/4/3 710/4/3
f 718/1/3 713/1/3 712/1/3
f 718/1/3 714/1/3 713/1/3
f 719/1/3 714/1/3 718/1/3
f 720/1/3 714/1/3 719/1/3
f 721/4/3 715/4/3 714/4/3
f 721/1/3 714/1/3 720/1/3
f 722/1/3 716/1/3 715/1/3
f 722/4/3 715/4/3 721/4/3
f 723/4/3 717/4/3 716/4/3
f 723/1/3 716/1/3 722/1/3
f 724/4/3 717/4/3 723/4/3
f 725/1/3 720/1/3 719/1/3
f 725/4/3 719/4/3 718/4/3
f 726/4/3 721/4/3 720/4/3
f 726/1/3 720/1/3 725/1/3
f 727/1/3 722/1/3 721/1/3
f 727/4/3 721/4/3 726/4/3
f 728/4/3 723/4/3 722/4/3
f 728/1/3 722/1/3 727/1/3
f 729/1/3 724/1/3 723/1/3
f 729/4/3 723/4/3 728/4/3
f 730/4/3 717/4/3 724/4/3
f 730/1/3 724/1/3 729/1/3
f 731/4/3 717/4/3 730/4/3
f 732/4/3 717/4/3 731/4/3
f 733/4/3 717/4/3 732/4/3
f 734/4/3 726/4/3 725/4/3
f 734/4/3 729/4/3 728/4/3
f 734/4/3 728/4/3 727/4/3
f 734/1/3 731/1/3 730/1/3
f 734/4/3 730/4/3 729/4/3
f 734/4/3 727/4/3 726/4/3
f 735/4/3 732/4/3 731/4/3
f 735/1/3 731/1/3 734/1/3
f 738/4/3 725/4/3 718/4/3
f 738/4/3 734/4/3 725/4/3
f 738/4/3 735/4/3 734/4/3
f 738/4/3 718/4/3 710/4/3
f 739/4/3 732/4/3 735/4/3
f 739/4/3 735/4/3 738/4/3
f 740/6/3 737/6/3 736/6/3
f 741/6/3 737/6/3 740/6/3
f 742/4/3 710/4/3 708/4/3
f 742/4/3 738/4/3 710/4/3
f 743/4/3 738/4/3 742/4/3
f 744/6/3 740/6/3 736/6/3
f 745/6/3 740/6/3 744/6/3
f 746/4/3 742/4/3 708/4/3
f 747/4/3 742/4/3 746/4/3
f 750/4/3 749/4/3 748/4/3
f 752/4/3 750/4/3 748/4/3
f 752/4/3 751/4/3 750/4/3
f 753/4/3 751/4/3 752/4/3
f 754/4/3 751/4/3 753/4/3
f 756/4/3 755/4/3 754/4/3
f 756/4/3 754/4/3 753/4/3
f 757/4/3 755/4/3 756/4/3
f 758/4/3 755/4/3 757/4/3
f 759/4/3 755/4/3 758/4/3
f 760/4/3 755/4/3 759/4/3
f 761/4/3 755/4/3 760/4/3
f 762/4/3 755/4/3 761/4/3
f 765/6/3 764/6/3 763/6/3
f 766/6/3 764/6/3 765/6/3
f 771/6/3 765/6/3 763/6/3
f 772/6/3 765/6/3 771/6/3
f 774/4/3 768/4/3 767/4/3
f 775/1/3 769/1/3 768/1/3
f 775/4/3 768/4/3 774/4/3
f 776/4/3 770/4/3 769/4/3
f 776/1/3 769/1/3 775/1/3
f 777/4/3 770/4/3 776/4/3
f 779/4/3 775/4/3 774/4/3
f 779/4/3 774/4/3 773/4/3
f 779/4/3 776/4/3 775/4/3
f 780/4/3 776/4/3 779/4/3
f 781/1/3 777/1/3 776/1/3
f 781/4/3 776/4/3 780/4/3
f 782/4/3 770/4/3 777/4/3
f 782/1/3 777/1/3 781/1/3
f 783/4/3 770/4/3 782/4/3
f 784/4/3 780/4/3 779/4/3
f 784/4/3 779/4/3 778/4/3
f 785/4/3 780/4/3 784/4/3
f 792/4/3 787/4/3 786/4/3
f 793/1/3 788/1/3 787/1/3
f 793/4/3 787/4/3 792/4/3
f 794/1/3 788/1/3 793/1/3
f 795/4/3 789/4/3 788/4/3
f 795/1/3 788/1/3 794/1/3
f 796/1/3 790/1/3 789/1/3
f 796/4/3 789/4/3 795/4/3
f 797/4/3 791/4/3 790/4/3
f 797/1/3 790/1/3 796/1/3
f 798/4/3 796/4/3 795/4/3
f 798/4/3 797/4/3 796/4/3
f 798/4/3 795/4/3 794/4/3
f 799/4/3 791/4/3 797/4/3
f 799/4/3 797/4/3 798/4/3
f 802/6/3 801/6/3 800/6/3
f 803/6/3 801/6/3 802/6/3
f 804/6/3 802/6/3 800/6/3
f 805/6/3 802/6/3 804/6/3
f 811/4/3 807/4/3 806/4/3
f 811/4/3 809/4/3 808/4/3
f 811/4/3 808/4/3 807/4/3
f 812/4/3 809/4/3 811/4/3
f 813/4/3 811/4/3 810/4/3
f 814/4/3 811/4/3 813/4/3
f 817/4/3 816/4/3 815/4/3
f 818/4/3 816/4/3 817/4/3
f 822/5/3 820/5/3 819/5/3
f 823/6/3 821/6/3 820/6/3
f 823/5/3 820/5/3 822/5/3
f 824/6/3 821/6/3 823/6/3
f 825/6/3 821/6/3 824/6/3
f 826/5/3 822/5/3 819/5/3
f 826/6/3 823/6/3 822/6/3
f 826/6/3 824/6/3 823/6/3
f 827/6/3 824/6/3 826/6/3
f 828/5/3 826/5/3 819/5/3
f 829/5/3 826/5/3 828/5/3
f 830/6/3 824/6/3 827/6/3
f 831/6/3 824/6/3 830/6/3
f 838/4/3 833/4/3 832/4/3
f 839/1/3 834/1/3 833/1/3
f 839/4/3 833/4/3 838/4/3
f 840/4/3 835/4/3 834/4/3
f 840/1/3 834/1/3 839/1/3
f 841/4/3 835/4/3 840/4/3
f 842/4/3 837/4/3 836/4/3
f 843/4/3 837/4/3 842/4/3
f 846/4/3 845/4/3 844/4/3
f 847/4/3 845/4/3 846/4/3
f 850/4/3 849/4/3 848/4/3
f 851/4/3 849/4/3 850/4/3
f 852/4/3 849/4/3 851/4/3
f 853/4/3 849/4/3 852/4/3
f 859/5/3 855/5/3 854/5/3
f 860/5/3 855/5/3 859/5/3
f 861/6/3 856/6/3 855/6/3
f 861/5/3 855/5/3 860/5/3
f 862/6/3 856/6/3 861/6/3
f 863/4/3 858/4/3 857/4/3
f 864/4/3 858/4/3 863/4/3
f 865/5/3 859/5/3 854/5/3
f 866/5/3 859/5/3 865/5/3
f 867/5/3 859/5/3 866/5/3
f 868/5/3 859/5/3 867/5/3
f 874/4/3 870/4/3 869/4/3
f 874/4/3 871/4/3 870/4/3
f 875/1/3 873/1/3 872/1/3
f 875/4/3 871/4/3 874/4/3
f 875/1/3 872/1/3 871/1/3
f 876/1/3 873/1/3 875/1/3
f 879/4/3 878/4/3 877/4/3
f 880/4/3 878/4/3 879/4/3
f 885/5/3 882/5/3 881/5/3
f 886/5/3 882/5/3 885/5/3
f 887/5/3 882/5/3 886/5/3
f 888/4/3 884/4/3 883/4/3
f 889/4/3 884/4/3 888/4/3
f 895/1/3 891/1/3 890/1/3
f 896/4/3 892/4/3 891/4/3
f 896/1/3 891/1/3 895/1/3
f 897/4/3 892/4/3 896/4/3
f 898/4/3 894/4/3 893/4/3
f 899/4/3 894/4/3 898/4/3
f 902/4/3 901/4/3 900/4/3
f 903/4/3 901/4/3 902/4/3
f 908/5/3 905/5/3 904/5/3
f 909/5/3 905/5/3 908/5/3
f 910/4/3 907/4/3 906/4/3
f 911/4/3 907/4/3 910/4/3
f 914/4/3 913/4/3 912/4/3
f 915/4/3 913/4/3 914/4/3
f 920/4/3 917/4/3 916/4/3
f 921/5/3 919/5/3 918/5/3
f 922/5/3 919/5/3 921/5/3
f 923/4/3 920/4/3 916/4/3
f 924/4/3 920/4/3 923/4/3
f 927/4/3 926/4/3 925/4/3
f 928/4/3 926/4/3 927/4/3
f 931/4/3 930/4/3 929/4/3
f 932/4/3 930/4/3 931/4/3
f 933/6/4 934/6/4 935/6/4
f 935/6/4 934/6/4 936/6/4
f 937/6/4 938/6/4 939/6/4
f 937/6/4 939/6/4 942/6/4
f 939/6/4 940/6/4 942/6/4
f 942/6/4 940/6/4 943/6/4
f 943/6/4 940/6/4 944/6/4
f 941/6/4 942/6/4 945/6/4
f 942/6/4 943/6/4 945/6/4
f 945/6/4 943/6/4 946/6/4
f 947/6/4 948/6/4 950/6/4
f 949/6/4 950/6/4 951/6/4
f 950/6/4 948/6/4 952/6/4
f 951/6/4 950/6/4 952/6/4
f 953/6/4 954/6/4 956/6/4
f 955/6/4 956/6/4 957/6/4
f 956/6/4 954/6/4 958/6/4
f 957/6/4 956/6/4 958/6/4
f 959/6/4 960/6/4 962/6/4
f 961/6/4 962/6/4 963/6/4
f 962/6/4 960/6/4 964/6/4
f 963/6/4 962/6/4 964/6/4
f 965/6/4 966/6/4 968/6/4
f 967/6/4 968/6/4 969/6/4
f 968/6/4 966/6/4 970/6/4
f 969/6/4 968/6/4 970/6/4
f 971/6/4 972/6/4 974/6/4
f 973/6/4 974/6/4 975/6/4
f 974/6/4 972/6/4 976/6/4
f 975/6/4 974/6/4 976/6/4
f 977/6/4 978/6/4 980/6/4
f 979/6/4 980/6/4 981/6/4
f 980/6/4 978/6/4 982/6/4
f 981/6/4 980/6/4 982/6/4
f 983/4/4 984/4/4 985/4/4
f 985/4/4 984/4/4 986/4/4
f 987/6/4 988/6/4 990/6/4
f 989/6/4 990/6/4 991/6/4
f 990/6/4 988/6/4 992/6/4
f 991/6/4 990/6/4 992/6/4
f 993/4/4 994/4/4 995/4/4
f 993/4/4 995/4/4 996/4/4
f 996/4/4 995/4/4 997/4/4
f 998/6/4 999/6/4 1001/6/4
f 1000/6/4 1001/6/4 1002/6/4
f 1001/6/4 999/6/4 1003/6/4
f 1002/6/4 1001/6/4 1003/6/4
f 1006/5/4 1007/5/4 1008/5/4
f 1008/5/4 1007/5/4 1009/5/4
f 1004/6/4 1005/6/4 1011/6/4
f 1010/6/4 1011/6/4 1012/6/4
f 1011/6/4 1005/6/4 1013/6/4
f 1012/6/4 1011/6/4 1013/6/4
f 1014/4/4 1015/4/4 1016/4/4
f 1016/4/4 1015/4/4 1017/4/4
f 1018/5/4 1019/5/4 1022/5/4
f 1022/5/4 1019/5/4 1023/5/4
f 1020/6/4 1021/6/4 1025/6/4
f 1024/6/4 1025/6/4 1026/6/4
f 1025/6/4 1021/6/4 1027/6/4
f 1026/6/4 1025/6/4 1027/6/4
f 1028/4/4 1029/4/4 1032/4/4
f 1032/4/4 1029/4/4 1033/4/4
f 1030/6/4 1031/6/4 1037/6/4
f 1034/5/4 1035/5/4 1038/5/4
f 1038/5/4 1035/5/4 1039/5/4
f 1036/6/4 1037/6/4 1040/6/4
f 1037/6/4 1031/6/4 1041/6/4
f 1040/6/4 1037/6/4 1041/6/4
f 1042/6/4 1043/6/4 1046/6/4
f 1044/5/4 1045/5/4 1047/5/4
f 1045/6/4 1046/6/4 1048/6/4
f 1047/5/4 1045/5/4 1048/5/4
f 1046/6/4 1043/6/4 1049/6/4
f 1048/6/4 1046/6/4 1049/6/4
f 1050/4/4 1051/4/4 1052/4/4
f 1052/4/4 1051/4/4 1053/4/4
f 1054/4/4 1055/4/4 1056/4/4
f 1056/4/4 1055/4/4 1057/4/4
f 1056/5/4 1057/5/4 1058/5/4
f 1058/5/4 1057/5/4 1059/5/4
f 1060/5/4 1061/5/4 1064/5/4
f 1062/4/4 1063/4/4 1065/4/4
f 1063/5/4 1064/5/4 1066/5/4
f 1065/4/4 1063/4/4 1066/4/4
f 1064/5/4 1061/5/4 1067/5/4
f 1066/5/4 1064/5/4 1067/5/4
f 1065/4/4 1066/4/4 1068/4/4
f 1068/4/4 1066/4/4 1069/4/4
f 1068/3/4 1069/3/4 1070/3/4
f 1070/3/4 1069/3/4 1071/3/4
f 1072/4/4 1073/4/4 1074/4/4
f 1074/4/4 1073/4/4 1075/4/4
f 1076/5/4 1077/5/4 1079/5/4
f 1079/5/4 1077/5/4 1082/5/4
f 1078/5/4 1079/5/4 1082/5/4
f 1080/5/4 1081/5/4 1083/5/4
f 1078/5/4 1082/5/4 1084/5/4
f 1082/5/4 1083/5/4 1084/5/4
f 1083/5/4 1081/5/4 1085/5/4
f 1084/5/4 1083/5/4 1085/5/4
f 1086/4/4 1087/4/4 1088/4/4
f 1088/4/4 1087/4/4 1089/4/4
f 1090/4/4 1091/4/4 1092/4/4
f 1092/4/4 1091/4/4 1093/4/4
f 1093/4/4 1091/4/4 1094/4/4
f 1094/4/4 1091/4/4 1095/4/4
f 1096/5/4 1097/5/4 1098/5/4
f 1098/5/4 1097/5/4 1099/5/4
f 1100/4/4 1101/4/4 1105/4/4
f 1101/4/4 1102/4/4 1105/4/4
f 1105/4/4 1102/4/4 1106/4/4
f 1103/4/4 1104/4/4 1107/4/4
f 1107/4/4 1104/4/4 1108/4/4
f 1109/4/4 1110/4/4 1113/4/4
f 1113/4/4 1110/4/4 1114/4/4
f 1114/4/4 1110/4/4 1115/4/4
f 1115/4/4 1110/4/4 1116/4/4
f 1110/1/4 1111/1/4 1117/1/4
f 1116/4/4 1110/4/4 1117/4/4
f 1111/4/4 1112/4/4 1118/4/4
f 1117/1/4 1111/1/4 1118/1/4
f 1118/4/4 1112/4/4 1119/4/4
f 1120/4/4 1121/4/4 1122/4/4
f 1122/4/4 1121/4/4 1123/4/4
f 1124/4/4 1125/4/4 1128/4/4
f 1125/1/4 1126/1/4 1129/1/4
f 1128/4/4 1125/4/4 1129/4/4
f 1126/4/4 1127/4/4 1130/4/4
f 1129/1/4 1126/1/4 1130/1/4
f 1130/4/4 1127/4/4 1131/4/4
f 1132/4/4 1133/4/4 1136/4/4
f 1133/1/4 1134/1/4 1137/1/4
f 1136/4/4 1133/4/4 1137/4/4
f 1134/4/4 1135/4/4 1138/4/4
f 1137/1/4 1134/1/4 1138/1/4
f 1138/4/4 1135/4/4 1139/4/4
f 1140/4/4 1141/4/4 1148/4/4
f 1141/4/4 1142/4/4 1148/4/4
f 1144/4/4 1145/4/4 1148/4/4
f 1143/4/4 1144/4/4 1148/4/4
f 1142/4/4 1143/4/4 1148/4/4
f 1148/4/4 1145/4/4 1149/4/4
f 1146/4/4 1147/4/4 1150/4/4
f 1150/4/4 1147/4/4 1151/4/4
f 1152/4/4 1153/4/4 1156/4/4
f 1156/4/4 1153/4/4 1157/4/4
f 1157/4/4 1153/4/4 1158/4/4
f 1153/1/4 1154/1/4 1159/1/4
f 1158/4/4 1153/4/4 1159/4/4
f 1154/4/4 1155/4/4 1160/4/4
f 1159/1/4 1154/1/4 1160/1/4
f 1160/4/4 1155/4/4 1161/4/4
f 1158/4/4 1159/4/4 1163/4/4
f 1159/4/4 1160/4/4 1163/4/4
f 1163/4/4 1160/4/4 1164/4/4
f 1160/1/4 1161/1/4 1165/1/4
f 1164/4/4 1160/4/4 1165/4/4
f 1161/4/4 1162/4/4 1166/4/4
f 1165/1/4 1161/1/4 1166/1/4
f 1166/4/4 1162/4/4 1167/4/4
f 1168/4/4 1169/4/4 1179/4/4
f 1169/4/4 1170/4/4 1179/4/4
f 1179/4/4 1170/4/4 1180/4/4
f 1170/1/4 1171/1/4 1181/1/4
f 1180/4/4 1170/4/4 1181/4/4
f 1171/1/4 1172/1/4 1181/1/4
f 1172/4/4 1173/4/4 1182/4/4
f 1181/1/4 1172/1/4 1182/1/4
f 1173/1/4 1174/1/4 1183/1/4
f 1182/4/4 1173/4/4 1183/4/4
f 1174/1/4 1175/1/4 1183/1/4
f 1176/4/4 1177/4/4 1184/4/4
f 1183/1/4 1175/1/4 1184/1/4
f 1175/4/4 1176/4/4 1184/4/4
f 1184/4/4 1177/4/4 1185/4/4
f 1179/4/4 1180/4/4 1186/4/4
f 1178/4/4 1179/4/4 1186/4/4
f 1186/4/4 1180/4/4 1187/4/4
f 1188/4/4 1189/4/4 1191/4/4
f 1191/4/4 1189/4/4 1192/4/4
f 1189/1/4 1190/1/4 1193/1/4
f 1192/4/4 1189/4/4 1193/4/4
f 1193/1/4 1190/1/4 1194/1/4
f 1192/4/4 1193/4/4 1197/4/4
f 1193/4/4 1194/4/4 1197/4/4
f 1194/1/4 1195/1/4 1198/1/4
f 1197/4/4 1194/4/4 1198/4/4
f 1195/4/4 1196/4/4 1199/4/4
f 1198/1/4 1195/1/4 1199/1/4
f 1198/4/4 1199/4/4 1200/4/4
f 1199/4/4 1196/4/4 1201/4/4
f 1200/4/4 1199/4/4 1201/4/4
f 1201/4/4 1196/4/4 1202/4/4
f 1202/4/4 1196/4/4 1203/4/4
f 1203/4/4 1196/4/4 1204/4/4
f 1205/4/4 1206/4/4 1209/4/4
f 1206/4/4 1207/4/4 1209/4/4
f 1209/4/4 1207/4/4 1210/4/4
f 1210/4/4 1207/4/4 1211/4/4
f 1211/4/4 1207/4/4 1212/4/4
f 1212/4/4 1207/4/4 1213/4/4
f 1208/4/4 1209/4/4 1215/4/4
f 1209/4/4 1210/4/4 1215/4/4
f 1215/4/4 1210/4/4 1216/4/4
f 1210/1/4 1211/1/4 1217/1/4
f 1216/4/4 1210/4/4 1217/4/4
f 1211/4/4 1212/4/4 1218/4/4
f 1217/1/4 1211/1/4 1218/1/4
f 1212/1/4 1213/1/4 1219/1/4
f 1218/4/4 1212/4/4 1219/4/4
f 1213/4/4 1207/4/4 1220/4/4
f 1219/1/4 1213/1/4 1220/1/4
f 1220/4/4 1207/4/4 1221/4/4
f 1214/4/4 1215/4/4 1222/4/4
f 1215/4/4 1216/4/4 1222/4/4
f 1222/4/4 1216/4/4 1223/4/4
f 1224/4/4 1225/4/4 1226/4/4
f 1224/4/4 1226/4/4 1228/4/4
f 1226/4/4 1227/4/4 1228/4/4
f 1228/4/4 1227/4/4 1229/4/4
f 1229/4/4 1227/4/4 1230/4/4
f 1230/4/4 1227/4/4 1231/4/4
f 1224/4/4 1228/4/4 1234/4/4
f 1228/1/4 1229/1/4 1235/1/4
f 1234/4/4 1228/4/4 1235/4/4
f 1229/4/4 1230/4/4 1236/4/4
f 1235/1/4 1229/1/4 1236/1/4
f 1230/1/4 1231/1/4 1237/1/4
f 1236/4/4 1230/4/4 1237/4/4
f 1231/1/4 1232/1/4 1237/1/4
f 1232/4/4 1233/4/4 1238/4/4
f 1237/1/4 1232/1/4 1238/1/4
f 1238/4/4 1233/4/4 1239/4/4
f 1239/4/4 1233/4/4 1240/4/4
f 1240/4/4 1233/4/4 1241/4/4
f 1241/4/4 1233/4/4 1242/4/4
f 1224/4/4 1234/4/4 1244/4/4
f 1234/1/4 1235/1/4 1245/1/4
f 1244/4/4 1234/4/4 1245/4/4
f 1236/4/4 1237/4/4 1246/4/4
f 1245/1/4 1235/1/4 1246/1/4
f 1235/4/4 1236/4/4 1246/4/4
f 1237/4/4 1238/4/4 1246/4/4
f 1246/4/4 1238/4/4 1247/4/4
f 1238/1/4 1239/1/4 1248/1/4
f 1247/4/4 1238/4/4 1248/4/4
f 1248/1/4 1239/1/4 1249/1/4
f 1239/4/4 1240/4/4 1250/4/4
f 1249/1/4 1239/1/4 1250/1/4
f 1240/1/4 1241/1/4 1251/1/4
f 1250/4/4 1240/4/4 1251/4/4
f 1242/4/4 1243/4/4 1252/4/4
f 1251/1/4 1241/1/4 1252/1/4
f 1241/4/4 1242/4/4 1252/4/4
f 1244/1/4 1245/1/4 1253/1/4
f 1246/4/4 1247/4/4 1254/4/4
f 1253/1/4 1245/1/4 1254/1/4
f 1245/4/4 1246/4/4 1254/4/4
f 1254/4/4 1247/4/4 1255/4/4
f 1247/1/4 1248/1/4 1256/1/4
f 1255/4/4 1247/4/4 1256/4/4
f 1248/4/4 1249/4/4 1257/4/4
f 1256/1/4 1248/1/4 1257/1/4
f 1250/1/4 1251/1/4 1258/1/4
f 1257/4/4 1249/4/4 1258/4/4
f 1249/1/4 1250/1/4 1258/1/4
f 1251/4/4 1252/4/4 1259/4/4
f 1258/1/4 1251/1/4 1259/1/4
f 1254/4/4 1255/4/4 1260/4/4
f 1253/4/4 1254/4/4 1260/4/4
f 1255/1/4 1256/1/4 1260/1/4
f 1256/4/4 1257/4/4 1261/4/4
f 1260/1/4 1256/1/4 1261/1/4
f 1258/4/4 1259/4/4 1261/4/4
f 1257/4/4 1258/4/4 1261/4/4
f 1252/4/4 1243/4/4 1262/4/4
f 1261/4/4 1259/4/4 1262/4/4
f 1259/4/4 1252/4/4 1262/4/4
f 1253/4/4 1260/4/4 1263/4/4
f 1263/4/4 1260/4/4 1264/4/4
f 1253/4/4 1263/4/4 1265/4/4
f 1265/4/4 1263/4/4 1266/4/4
f 1270/4/5 1268/4/5 1267/4/5
f 1271/4/5 1268/4/5 1270/4/5
f 1273/4/5 1270/4/5 1269/4/5
f 1273/4/5 1272/4/5 1271/4/5
f 1273/4/5 1271/4/5 1270/4/5
f 1276/4/5 1273/4/5 1269/4/5
f 1276/4/5 1274/4/5 1273/4/5
f 1277/4/5 1274/4/5 1276/4/5
f 1280/4/5 1276/4/5 1275/4/5
f 1280/4/5 1278/4/5 1277/4/5
f 1280/4/5 1277/4/5 1276/4/5
f 1281/4/5 1278/4/5 1280/4/5
f 1281/4/5 1280/4/5 1279/4/5
f 1283/4/5 1281/4/5 1279/4/5
f 1283/4/5 1282/4/5 1281/4/5
f 1284/4/5 1282/4/5 1283/4/5
f 1285/1/5 1284/1/5 1283/1/5
f 1286/4/5 1282/4/5 1284/4/5
f 1286/1/5 1284/1/5 1285/1/5
f 1287/4/5 1286/4/5 1285/4/5
f 1288/4/5 1282/4/5 1286/4/5
f 1288/4/5 1286/4/5 1287/4/5
f 1289/4/5 1282/4/5 1288/4/5
f 1290/4/5 1282/4/5 1289/4/5
f 1291/4/5 1289/4/5 1288/4/5
f 1292/4/5 1289/4/5 1291/4/5
f 1293/4/5 1289/4/5 1292/4/5
f 1294/4/5 1289/4/5 1293/4/5
f 1295/4/5 1293/4/5 1292/4/5
f 1296/4/5 1293/4/5 1295/4/5
f 1297/4/5 1293/4/5 1296/4/5
f 1298/4/5 1293/4/5 1297/4/5
f 1299/4/5 1297/4/5 1296/4/5
f 1300/4/5 1297/4/5 1299/4/5
f 1301/4/5 1297/4/5 1300/4/5
f 1302/4/5 1297/4/5 1301/4/5
f 1303/4/5 1297/4/5 1302/4/5
f 1304/4/5 1297/4/5 1303/4/5
f 1305/4/5 1301/4/5 1300/4/5
f 1306/1/5 1302/1/5 1301/1/5
f 1306/4/5 1301/4/5 1305/4/5
f 1307/4/5 1303/4/5 1302/4/5
f 1307/1/5 1302/1/5 1306/1/5
f 1308/4/5 1303/4/5 1307/4/5
f 1313/2/5 1310/2/5 1309/2/5
f 1314/2/5 1310/2/5 1313/2/5
f 1315/4/5 1312/4/5 1311/4/5
f 1316/2/5 1313/2/5 1312/2/5
f 1316/4/5 1312/4/5 1315/4/5
f 1317/4/5 1314/4/5 1313/4/5
f 1317/2/5 1313/2/5 1316/2/5
f 1318/4/5 1314/4/5 1317/4/5
f 1319/4/5 1314/4/5 1318/4/5
f 1321/2/5 1316/2/5 1315/2/5
f 1322/4/5 1317/4/5 1316/4/5
f 1322/4/5 1318/4/5 1317/4/5
f 1322/2/5 1316/2/5 1321/2/5
f 1323/4/5 1318/4/5 1322/4/5
f 1324/4/5 1318/4/5 1323/4/5
f 1325/2/5 1321/2/5 1320/2/5
f 1325/4/5 1322/4/5 1321/4/5
f 1326/7/5 1323/7/5 1322/7/5
f 1326/4/5 1322/4/5 1325/4/5
f 1327/7/5 1323/7/5 1326/7/5
f 1330/2/5 1325/2/5 1320/2/5
f 1331/7/5 1326/7/5 1325/7/5
f 1331/2/5 1325/2/5 1330/2/5
f 1332/7/5 1326/7/5 1331/7/5
f 1333/4/5 1329/4/5 1328/4/5
f 1334/4/5 1329/4/5 1333/4/5
f 1337/5/5 1336/5/5 1335/5/5
f 1338/5/5 1336/5/5 1337/5/5
f 1341/5/5 1340/5/5 1339/5/5
f 1342/5/5 1340/5/5 1341/5/5
f 1345/5/5 1344/5/5 1343/5/5
f 1346/5/5 1344/5/5 1345/5/5
f 1349/5/5 1348/5/5 1347/5/5
f 1350/5/5 1348/5/5 1349/5/5
f 1351/5/5 1348/5/5 1350/5/5
f 1354/6/5 1353/6/5 1352/6/5
f 1355/6/5 1353/6/5 1354/6/5
f 1358/6/5 1357/6/5 1356/6/5
f 1359/6/5 1357/6/5 1358/6/5
f 1362/6/5 1361/6/5 1360/6/5
f 1363/6/5 1361/6/5 1362/6/5
f 1364/6/5 1361/6/5 1363/6/5
f 1365/6/5 1361/6/5 1364/6/5
f 1368/6/5 1367/6/5 1366/6/5
f 1369/6/5 1367/6/5 1368/6/5
f 1372/6/5 1371/6/5 1370/6/5
f 1373/6/5 1371/6/5 1372/6/5
f 1374/6/5 1371/6/5 1373/6/5
f 1375/6/5 1371/6/5 1374/6/5
f 1378/6/5 1377/6/5 1376/6/5
f 1379/6/5 1377/6/5 1378/6/5
f 1380/6/5 1377/6/5 1379/6/5
f 1381/6/5 1377/6/5 1380/6/5
f 1384/6/5 1383/6/5 1382/6/5
f 1385/6/5 1383/6/5 1384/6/5
f 1386/6/5 1383/6/5 1385/6/5
f 1387/6/5 1383/6/5 1386/6/5
f 1390/6/5 1389/6/5 1388/6/5
f 1391/6/5 1389/6/5 1390/6/5
f 1392/6/5 1389/6/5 1391/6/5
f 1393/6/5 1389/6/5 1392/6/5
f 1396/6/5 1395/6/5 1394/6/5
f 1397/6/5 1395/6/5 1396/6/5
f 1398/6/5 1395/6/5 1397/6/5
f 1399/6/5 1395/6/5 1398/6/5
f 1402/6/5 1401/6/5 1400/6/5
f 1403/6/5 1401/6/5 1402/6/5
f 1404/6/5 1401/6/5 1403/6/5
f 1405/6/5 1401/6/5 1404/6/5
f 1408/6/5 1407/6/5 1406/6/5
f 1409/6/5 1407/6/5 1408/6/5
f 1410/6/5 1407/6/5 1409/6/5
f 1411/6/5 1407/6/5 1410/6/5
f 1414/6/5 1413/6/5 1412/6/5
f 1415/6/5 1413/6/5 1414/6/5
f 1416/6/5 1413/6/5 1415/6/5
f 1417/6/5 1413/6/5 1416/6/5
f 1420/6/5 1419/6/5 1418/6/5
f 1421/6/5 1419/6/5 1420/6/5
f 1423/6/5 1422/6/5 1421/6/5
f 1424/6/5 1422/6/5 1423/6/5
f 1427/6/5 1426/6/5 1425/6/5
f 1428/6/5 1426/6/5 1427/6/5
f 1429/4/6 1430/4/6 1431/4/6
f 1431/4/6 1430/4/6 1432/4/6
f 1433/4/6 1434/4/6 1435/4/6
f 1435/4/6 1434/4/6 1436/4/6
f 1437/4/6 1438/4/6 1439/4/6
f 1439/4/6 1438/4/6 1440/4/6
f 1441/4/6 1442/4/6 1443/4/6
f 1443/4/6 1442/4/6 1444/4/6
f 1445/4/6 1446/4/6 1447/4/6
f 1447/4/6 1446/4/6 1448/4/6
f 1449/4/6 1450/4/6 1451/4/6
f 1451/4/6 1450/4/6 1452/4/6
f 1453/4/6 1454/4/6 1457/4/6
f 1457/4/6 1454/4/6 1458/4/6
f 1455/4/6 1456/4/6 1459/4/6
f 1459/4/6 1456/4/6 1460/4/6
f 1461/4/6 1462/4/6 1465/4/6
f 1465/4/6 1462/4/6 1466/4/6
f 1463/4/6 1464/4/6 1467/4/6
f 1467/4/6 1464/4/6 1468/4/6
f 1469/4/6 1470/4/6 1471/4/6
f 1471/4/6 1470/4/6 1472/4/6
f 1473/4/6 1474/4/6 1475/4/6
f 1475/4/6 1474/4/6 1476/4/6
f 1477/4/6 1478/4/6 1479/4/6
f 1479/4/6 1478/4/6 1480/4/6
f 1481/4/6 1482/4/6 1483/4/6
f 1483/4/6 1482/4/6 1484/4/6
f 1485/4/6 1486/4/6 1487/4/6
f 1487/4/6 1486/4/6 1488/4/6
f 1489/4/6 1490/4/6 1493/4/6
f 1493/4/6 1490/4/6 1494/4/6
f 1491/4/6 1492/4/6 1495/4/6
f 1495/4/6 1492/4/6 1496/4/6
f 1497/4/6 1498/4/6 1499/4/6
f 1499/4/6 1498/4/6 1500/4/6
f 1501/4/6 1502/4/6 1503/4/6
f 1503/4/6 1502/4/6 1504/4/6
f 1504/4/6 1505/4/6 1508/4/6
f 1508/4/6 1505/4/6 1509/4/6
f 1506/4/6 1507/4/6 1510/4/6
f 1510/4/6 1507/4/6 1511/4/6
f 1512/4/6 1513/4/6 1514/4/6
f 1514/4/6 1513/4/6 1515/4/6
f 1516/4/6 1517/4/6 1518/4/6
f 1518/4/6 1517/4/6 1519/4/6
f 1520/4/6 1521/4/6 1524/4/6
f 1524/4/6 1521/4/6 1525/4/6
f 1522/1/6 1523/1/6 1526/1/6
f 1526/1/6 1523/1/6 1527/1/6
f 1528/4/6 1529/4/6 1530/4/6
f 1530/4/6 1529/4/6 1531/4/6
f 1532/4/6 1533/4/6 1536/4/6
f 1536/4/6 1533/4/6 1537/4/6
f 1534/4/6 1535/4/6 1538/4/6
f 1538/4/6 1535/4/6 1539/4/6
f 1540/4/6 1541/4/6 1542/4/6
f 1542/4/6 1541/4/6 1543/4/6
f 1544/4/6 1545/4/6 1546/4/6
f 1546/4/6 1545/4/6 1547/4/6
f 1548/4/6 1549/4/6 1550/4/6
f 1550/4/6 1549/4/6 1551/4/6
f 1552/1/6 1553/1/6 1554/1/6
f 1554/1/6 1553/1/6 1555/1/6
f 1556/6/6 1557/6/6 1559/6/6
f 1559/6/6 1557/6/6 1560/6/6
f 1558/6/6 1559/6/6 1560/6/6
f 1560/6/6 1557/6/6 1561/6/6
f 1558/6/6 1560/6/6 1563/6/6
f 1563/6/6 1560/6/6 1564/6/6
f 1564/6/6 1560/6/6 1565/6/6
f 1562/6/6 1563/6/6 1566/6/6
f 1563/6/6 1564/6/6 1566/6/6
f 1566/6/6 1564/6/6 1567/6/6
f 1562/6/6 1566/6/6 1570/6/6
f 1570/6/6 1566/6/6 1571/6/6
f 1568/6/6 1569/6/6 1572/6/6
f 1572/6/6 1569/6/6 1573/6/6
f 1574/4/6 1575/4/6 1576/4/6
f 1574/4/6 1576/4/6 1578/4/6
f 1576/4/6 1577/4/6 1578/4/6
f 1578/4/6 1577/4/6 1579/4/6
f 1578/2/6 1579/2/6 1581/2/6
f 1581/2/6 1579/2/6 1582/2/6
f 1579/4/6 1580/4/6 1583/4/6
f 1582/2/6 1579/2/6 1583/2/6
f 1583/4/6 1580/4/6 1584/4/6
f 1581/4/6 1582/4/6 1586/4/6
f 1582/2/6 1583/2/6 1587/2/6
f 1586/4/6 1582/4/6 1587/4/6
f 1583/2/6 1584/2/6 1587/2/6
f 1587/2/6 1584/2/6 1588/2/6
f 1586/2/6 1587/2/6 1589/2/6
f 1587/4/6 1588/4/6 1590/4/6
f 1589/2/6 1587/2/6 1590/2/6
f 1588/2/6 1584/2/6 1591/2/6
f 1590/4/6 1588/4/6 1591/4/6
f 1584/4/6 1585/4/6 1592/4/6
f 1591/2/6 1584/2/6 1592/2/6
f 1592/4/6 1585/4/6 1593/4/6
f 1589/4/6 1590/4/6 1595/4/6
f 1595/4/6 1590/4/6 1596/4/6
f 1595/3/6 1596/3/6 1603/3/6
f 1597/4/6 1598/4/6 1604/4/6
f 1598/4/6 1599/4/6 1604/4/6
f 1600/4/6 1601/4/6 1605/4/6
f 1601/3/6 1602/3/6 1606/3/6
f 1602/3/6 1603/3/6 1606/3/6
f 1605/4/6 1601/4/6 1606/4/6
f 1596/4/6 1590/4/6 1607/4/6
f 1606/3/6 1603/3/6 1607/3/6
f 1603/3/6 1596/3/6 1607/3/6
f 1604/2/6 1605/2/6 1608/2/6
f 1605/4/6 1606/4/6 1609/4/6
f 1608/2/6 1605/2/6 1609/2/6
f 1606/4/6 1607/4/6 1609/4/6
f 1609/4/6 1607/4/6 1610/4/6
f 1610/4/6 1607/4/6 1611/4/6
f 1590/2/6 1591/2/6 1612/2/6
f 1611/4/6 1607/4/6 1612/4/6
f 1607/4/6 1590/4/6 1612/4/6
f 1591/4/6 1592/4/6 1613/4/6
f 1612/2/6 1591/2/6 1613/2/6
f 1593/4/6 1594/4/6 1614/4/6
f 1592/2/6 1593/2/6 1614/2/6
f 1614/4/6 1594/4/6 1615/4/6
f 1597/4/6 1604/4/6 1616/4/6
f 1616/4/6 1604/4/6 1617/4/6
f 1609/2/6 1610/2/6 1618/2/6
f 1608/4/6 1609/4/6 1618/4/6
f 1610/4/6 1611/4/6 1619/4/6
f 1618/2/6 1610/2/6 1619/2/6
f 1611/2/6 1612/2/6 1620/2/6
f 1619/4/6 1611/4/6 1620/4/6
f 1612/4/6 1613/4/6 1621/4/6
f 1620/2/6 1612/2/6 1621/2/6
f 1613/4/6 1592/4/6 1622/4/6
f 1621/4/6 1613/4/6 1622/4/6
f 1592/2/6 1614/2/6 1623/2/6
f 1622/4/6 1592/4/6 1623/4/6
f 1623/2/6 1614/2/6 1624/2/6
f 1617/4/6 1604/4/6 1625/4/6
f 1604/2/6 1608/2/6 1626/2/6
f 1625/4/6 1604/4/6 1626/4/6
f 1608/4/6 1618/4/6 1627/4/6
f 1626/2/6 1608/2/6 1627/2/6
f 1620/4/6 1621/4/6 1627/4/6
f 1618/4/6 1619/4/6 1627/4/6
f 1619/4/6 1620/4/6 1627/4/6
f 1621/4/6 1622/4/6 1627/4/6
f 1627/4/6 1622/4/6 1628/4/6
f 1628/4/6 1622/4/6 1629/4/6
f 1622/2/6 1623/2/6 1630/2/6
f 1629/4/6 1622/4/6 1630/4/6
f 1623/4/6 1624/4/6 1631/4/6
f 1630/2/6 1623/2/6 1631/2/6
f 1631/4/6 1624/4/6 1632/4/6
f 1626/4/6 1627/4/6 1633/4/6
f 1627/2/6 1628/2/6 1634/2/6
f 1633/4/6 1627/4/6 1634/4/6
f 1628/4/6 1629/4/6 1635/4/6
f 1634/2/6 1628/2/6 1635/2/6
f 1629/2/6 1630/2/6 1636/2/6
f 1635/4/6 1629/4/6 1636/4/6
f 1630/4/6 1631/4/6 1637/4/6
f 1636/2/6 1630/2/6 1637/2/6
f 1637/4/6 1631/4/6 1638/4/6
f 1634/4/6 1635/4/6 1639/4/6
f 1639/4/6 1635/4/6 1640/4/6
f 1635/2/6 1636/2/6 1641/2/6
f 1640/4/6 1635/4/6 1641/4/6
f 1636/4/6 1637/4/6 1642/4/6
f 1641/2/6 1636/2/6 1642/2/6
f 1642/4/6 1637/4/6 1643/4/6
f 1643/4/6 1637/4/6 1644/4/6
f 1640/4/6 1641/4/6 1645/4/6
f 1642/4/6 1643/4/6 1645/4/6
f 1641/4/6 1642/4/6 1645/4/6
f 1645/4/6 1643/4/6 1646/4/6
f 1647/4/6 1648/4/6 1650/4/6
f 1649/4/6 1650/4/6 1652/4/6
f 1652/4/6 1650/4/6 1653/4/6
f 1650/4/6 1648/4/6 1654/4/6
f 1653/4/6 1650/4/6 1654/4/6
f 1652/4/6 1653/4/6 1655/4/6
f 1651/4/6 1652/4/6 1655/4/6
f 1653/2/6 1654/2/6 1656/2/6
f 1655/4/6 1653/4/6 1656/4/6
f 1656/2/6 1654/2/6 1657/2/6
f 1651/4/6 1655/4/6 1659/4/6
f 1659/4/6 1655/4/6 1660/4/6
f 1655/2/6 1656/2/6 1661/2/6
f 1660/4/6 1655/4/6 1661/4/6
f 1656/4/6 1657/4/6 1662/4/6
f 1661/2/6 1656/2/6 1662/2/6
f 1662/4/6 1657/4/6 1663/4/6
f 1663/4/6 1657/4/6 1664/4/6
f 1659/4/6 1660/4/6 1665/4/6
f 1658/4/6 1659/4/6 1665/4/6
f 1660/2/6 1661/2/6 1666/2/6
f 1665/4/6 1660/4/6 1666/4/6
f 1661/4/6 1662/4/6 1667/4/6
f 1666/2/6 1661/2/6 1667/2/6
f 1667/4/6 1662/4/6 1668/4/6
f 1663/2/6 1664/2/6 1669/2/6
f 1669/2/6 1664/2/6 1670/2/6
f 1665/2/6 1666/2/6 1671/2/6
f 1666/4/6 1667/4/6 1671/4/6
f 1671/4/6 1667/4/6 1672/4/6
f 1669/4/6 1670/4/6 1673/4/6
f 1673/4/6 1670/4/6 1674/4/6
f 1658/4/6 1665/4/6 1675/4/6
f 1665/2/6 1671/2/6 1675/2/6
f 1675/2/6 1671/2/6 1676/2/6
f 1673/3/6 1674/3/6 1678/3/6
f 1658/4/6 1675/4/6 1679/4/6
f 1679/4/6 1675/4/6 1680/4/6
f 1677/4/6 1678/4/6 1681/4/6
f 1678/3/6 1674/3/6 1682/3/6
f 1681/4/6 1678/4/6 1682/4/6
f 1682/3/6 1674/3/6 1683/3/6
f 1684/5/6 1685/5/6 1686/5/6
f 1686/5/6 1685/5/6 1687/5/6
f 1688/5/6 1689/5/6 1690/5/6
f 1690/5/6 1689/5/6 1691/5/6
f 1692/5/6 1693/5/6 1694/5/6
f 1692/5/6 1694/5/6 1696/5/6
f 1694/5/6 1695/5/6 1696/5/6
f 1696/5/6 1695/5/6 1697/5/6
f 1698/5/6 1699/5/6 1700/5/6
f 1698/5/6 1700/5/6 1702/5/6
f 1700/5/6 1701/5/6 1702/5/6
f 1702/5/6 1701/5/6 1703/5/6
f 1704/5/6 1705/5/6 1706/5/6
f 1704/5/6 1706/5/6 1708/5/6
f 1706/5/6 1707/5/6 1708/5/6
f 1708/5/6 1707/5/6 1709/5/6
f 1710/6/6 1711/6/6 1712/6/6
f 1710/6/6 1712/6/6 1714/6/6
f 1712/6/6 1713/6/6 1714/6/6
f 1714/6/6 1713/6/6 1715/6/6
f 1716/6/6 1717/6/6 1718/6/6
f 1716/6/6 1718/6/6 1720/6/6
f 1718/6/6 1719/6/6 1720/6/6
f 1720/6/6 1719/6/6 1721/6/6
f 1722/6/6 1723/6/6 1724/6/6
f 1724/6/6 1723/6/6 1725/6/6
f 1726/6/6 1727/6/6 1728/6/6
f 1726/6/6 1728/6/6 1730/6/6
f 1728/6/6 1729/6/6 1730/6/6
f 1730/6/6 1729/6/6 1731/6/6
f 1732/6/6 1733/6/6 1734/6/6
f 1732/6/6 1734/6/6 1736/6/6
f 1734/6/6 1735/6/6 1736/6/6
f 1736/6/6 1735/6/6 1737/6/6
f 1738/6/6 1739/6/6 1740/6/6
f 1738/6/6 1740/6/6 1742/6/6
f 1740/6/6 1741/6/6 1742/6/6
f 1742/6/6 1741/6/6 1743/6/6
f 1744/6/6 1745/6/6 1746/6/6
f 1744/6/6 1746/6/6 1748/6/6
f 1746/6/6 1747/6/6 1748/6/6
f 1748/6/6 1747/6/6 1749/6/6
f 1750/6/6 1751/6/6 1752/6/6
f 1750/6/6 1752/6/6 1754/6/6
f 1752/6/6 1753/6/6 1754/6/6
f 1754/6/6 1753/6/6 1755/6/6
f 1756/6/6 1757/6/6 1758/6/6
f 1756/6/6 1758/6/6 1760/6/6
f 1758/6/6 1759/6/6 1760/6/6
f 1760/6/6 1759/6/6 1761/6/6
f 1762/6/6 1763/6/6 1764/6/6
f 1762/6/6 1764/6/6 1766/6/6
f 1764/6/6 1765/6/6 1766/6/6
f 1766/6/6 1765/6/6 1767/6/6
f 1768/6/6 1769/6/6 1770/6/6
f 1768/6/6 1770/6/6 1772/6/6
f 1770/6/6 1771/6/6 1772/6/6
f 1772/6/6 1771/6/6 1773/6/6
f 1774/6/6 1775/6/6 1776/6/6
f 1774/6/6 1776/6/6 1778/6/6
f 1776/6/6 1777/6/6 1778/6/6
f 1778/6/6 1777/6/6 1779/6/6
f 1780/6/6 1781/6/6 1784/6/6
f 1784/6/6 1781/6/6 1785/6/6
f 1782/6/6 1783/6/6 1788/6/6
f 1788/6/6 1783/6/6 1789/6/6
f 1786/6/6 1787/6/6 1790/6/6
f 1790/6/6 1787/6/6 1791/6/6
f 1792/6/6 1793/6/6 1794/6/6
f 1792/6/6 1794/6/6 1796/6/6
f 1794/6/6 1795/6/6 1796/6/6
f 1796/6/6 1795/6/6 1797/6/6
f 1792/6/6 1796/6/6 1798/6/6
f 1798/6/6 1796/6/6 1799/6/6
