# MagicaVoxel @ Ephtracy

# group
o 

# material
mtllib fontan.mtl
usemtl palette

# normals
vn -1 0 0
vn 1 0 0
vn 0 0 1
vn 0 0 -1
vn 0 -1 0
vn 0 1 0

# texcoords
vt 0.302734 0.5
vt 0.333984 0.5
vt 0.337891 0.5
vt 0.365234 0.5
vt 0.400391 0.5

# verts
v 0.7 2 -1.6
v 0.7 2 -2.3
v 0.7 2.1 -1.6
v 0.7 2.1 -2.3
v 0.8 2 -1.4
v 0.8 2 -1.6
v 0.8 2 -2.3
v 0.8 2 -2.5
v 0.8 2.1 -1.4
v 0.8 2.1 -1.6
v 0.8 2.1 -2.3
v 0.8 2.1 -2.5
v 0.8 2.8 -1.6
v 0.8 2.8 -2.4
v 0.8 3 -1.5
v 0.8 3 -1.6
v 0.8 3.2 -1.5
v 0.8 3.2 -2.4
v 0.9 2 -1.3
v 0.9 2 -1.4
v 0.9 2 -2.5
v 0.9 2 -2.6
v 0.9 2.1 -1.3
v 0.9 2.1 -1.4
v 0.9 2.1 -2.5
v 0.9 2.1 -2.6
v 0.9 2.8 -1.4
v 0.9 2.8 -1.6
v 0.9 2.8 -2.4
v 0.9 2.8 -2.5
v 0.9 3 -1.5
v 0.9 3 -1.6
v 0.9 3.2 -1.4
v 0.9 3.2 -1.5
v 0.9 3.2 -2.4
v 0.9 3.2 -2.5
v 0.9 3.5 -1.5
v 0.9 3.5 -2.4
v 1 2 -1.2
v 1 2 -1.3
v 1 2 -2.6
v 1 2 -2.7
v 1 2.1 -1.2
v 1 2.1 -1.3
v 1 2.1 -2.6
v 1 2.1 -2.7
v 1 2.7 -1.7
v 1 2.7 -2.2
v 1 2.8 -1.3
v 1 2.8 -1.4
v 1 2.8 -1.7
v 1 2.8 -2.2
v 1 2.8 -2.5
v 1 2.8 -2.6
v 1 3.2 -1.3
v 1 3.2 -1.4
v 1 3.2 -1.5
v 1 3.2 -2.4
v 1 3.2 -2.5
v 1 3.2 -2.6
v 1 3.5 -1.4
v 1 3.5 -1.5
v 1 3.5 -2.4
v 1 3.5 -2.5
v 1 3.6 -1.8
v 1 3.6 -2.1
v 1 3.7 -1.7
v 1 3.7 -1.8
v 1 3.7 -2.1
v 1 3.7 -2.2
v 1 3.8 -1.5
v 1 3.8 -1.7
v 1 3.8 -2.2
v 1 3.8 -2.4
v 1.1 2 -1.1
v 1.1 2 -1.2
v 1.1 2 -2.7
v 1.1 2 -2.8
v 1.1 2.1 -1.1
v 1.1 2.1 -1.2
v 1.1 2.1 -2.7
v 1.1 2.1 -2.8
v 1.1 2.5 -1.7
v 1.1 2.5 -2.2
v 1.1 2.7 -1.5
v 1.1 2.7 -1.7
v 1.1 2.7 -2.2
v 1.1 2.7 -2.4
v 1.1 2.8 -1.2
v 1.1 2.8 -1.3
v 1.1 2.8 -1.5
v 1.1 2.8 -1.7
v 1.1 2.8 -2.2
v 1.1 2.8 -2.4
v 1.1 2.8 -2.6
v 1.1 2.8 -2.7
v 1.1 3.2 -1.2
v 1.1 3.2 -1.3
v 1.1 3.2 -1.4
v 1.1 3.2 -2.5
v 1.1 3.2 -2.6
v 1.1 3.2 -2.7
v 1.1 3.5 -1.3
v 1.1 3.5 -1.4
v 1.1 3.5 -1.5
v 1.1 3.5 -2.4
v 1.1 3.5 -2.5
v 1.1 3.5 -2.6
v 1.1 3.8 -1.4
v 1.1 3.8 -1.5
v 1.1 3.8 -2.4
v 1.1 3.8 -2.5
v 1.2 2 -1
v 1.2 2 -1.1
v 1.2 2 -2.8
v 1.2 2 -2.9
v 1.2 2.1 -1
v 1.2 2.1 -1.1
v 1.2 2.1 -1.7
v 1.2 2.1 -2.2
v 1.2 2.1 -2.8
v 1.2 2.1 -2.9
v 1.2 2.5 -1.5
v 1.2 2.5 -1.7
v 1.2 2.5 -2.2
v 1.2 2.5 -2.4
v 1.2 2.7 -1.4
v 1.2 2.7 -1.5
v 1.2 2.7 -1.7
v 1.2 2.7 -2.2
v 1.2 2.7 -2.4
v 1.2 2.7 -2.5
v 1.2 2.8 -1.1
v 1.2 2.8 -1.2
v 1.2 2.8 -1.4
v 1.2 2.8 -1.5
v 1.2 2.8 -2.4
v 1.2 2.8 -2.5
v 1.2 2.8 -2.7
v 1.2 2.8 -2.8
v 1.2 3.2 -1.1
v 1.2 3.2 -1.2
v 1.2 3.2 -1.3
v 1.2 3.2 -2.6
v 1.2 3.2 -2.7
v 1.2 3.2 -2.8
v 1.2 3.5 -1.2
v 1.2 3.5 -1.3
v 1.2 3.5 -1.4
v 1.2 3.5 -2.5
v 1.2 3.5 -2.6
v 1.2 3.5 -2.7
v 1.2 3.8 -1.3
v 1.2 3.8 -1.4
v 1.2 3.8 -2.5
v 1.2 3.8 -2.6
v 1.3 2.1 -1.6
v 1.3 2.1 -1.7
v 1.3 2.1 -2.2
v 1.3 2.1 -2.3
v 1.3 2.5 -1.4
v 1.3 2.5 -1.5
v 1.3 2.5 -1.6
v 1.3 2.5 -1.7
v 1.3 2.5 -2.2
v 1.3 2.5 -2.3
v 1.3 2.5 -2.4
v 1.3 2.5 -2.5
v 1.3 2.7 -1.3
v 1.3 2.7 -1.4
v 1.3 2.7 -1.5
v 1.3 2.7 -2.4
v 1.3 2.7 -2.5
v 1.3 2.7 -2.6
v 1.3 2.8 -1.3
v 1.3 2.8 -1.4
v 1.3 2.8 -2.5
v 1.3 2.8 -2.6
v 1.3 2.8 -2.8
v 1.3 2.8 -2.9
v 1.3 3 -1
v 1.3 3 -1.1
v 1.3 3.2 -1
v 1.3 3.2 -1.1
v 1.3 3.2 -1.2
v 1.3 3.2 -2.7
v 1.3 3.2 -2.8
v 1.3 3.2 -2.9
v 1.3 3.5 -1.1
v 1.3 3.5 -1.2
v 1.3 3.5 -1.3
v 1.3 3.5 -2.6
v 1.3 3.5 -2.7
v 1.3 3.5 -2.8
v 1.3 3.8 -1.2
v 1.3 3.8 -1.3
v 1.3 3.8 -2.6
v 1.3 3.8 -2.7
v 1.4 2 -0.9
v 1.4 2 -1
v 1.4 2 -2.9
v 1.4 2 -3
v 1.4 2.1 -0.9
v 1.4 2.1 -1
v 1.4 2.1 -1.5
v 1.4 2.1 -1.6
v 1.4 2.1 -2.3
v 1.4 2.1 -2.4
v 1.4 2.1 -2.9
v 1.4 2.1 -3
v 1.4 2.5 -1.5
v 1.4 2.5 -1.6
v 1.4 2.5 -2.3
v 1.4 2.5 -2.4
v 1.4 2.8 -1
v 1.4 2.8 -1.1
v 1.4 3 -1
v 1.4 3 -1.1
v 1.4 3.5 -1.8
v 1.4 3.5 -1.9
v 1.4 3.5 -2
v 1.4 3.5 -2.1
v 1.4 3.6 -1.8
v 1.4 3.6 -1.9
v 1.4 3.7 -1.8
v 1.4 3.7 -1.9
v 1.4 3.9 -1.8
v 1.4 3.9 -1.9
v 1.4 3.9 -2
v 1.4 3.9 -2.1
v 1.5 2.1 -1.4
v 1.5 2.1 -1.5
v 1.5 2.1 -2.4
v 1.5 2.1 -2.5
v 1.5 2.5 -1.3
v 1.5 2.5 -1.4
v 1.5 2.5 -1.5
v 1.5 2.5 -2.4
v 1.5 2.5 -2.5
v 1.5 2.5 -2.6
v 1.5 2.7 -1.2
v 1.5 2.7 -1.3
v 1.5 2.7 -1.4
v 1.5 2.7 -2.5
v 1.5 2.7 -2.6
v 1.5 2.7 -2.7
v 1.5 2.8 -1.2
v 1.5 2.8 -1.3
v 1.5 2.8 -2.6
v 1.5 2.8 -2.7
v 1.5 3.6 -1.8
v 1.5 3.6 -1.9
v 1.5 3.7 -1.8
v 1.5 3.7 -1.9
v 1.6 3.5 -1.6
v 1.6 3.5 -1.7
v 1.6 3.5 -1.8
v 1.6 3.5 -2.1
v 1.6 3.5 -2.2
v 1.6 3.5 -2.3
v 1.6 3.7 -1.7
v 1.6 3.7 -1.8
v 1.6 3.7 -2.2
v 1.6 3.7 -2.3
v 1.6 3.8 -1.7
v 1.6 3.8 -1.8
v 1.6 3.8 -2.1
v 1.6 3.8 -2.2
v 1.6 3.8 -2.3
v 1.6 3.9 -1.6
v 1.6 3.9 -1.8
v 1.6 3.9 -2.1
v 1.6 3.9 -2.3
v 1.6 4.1 -2.1
v 1.6 4.1 -2.2
v 1.6 4.2 -2
v 1.6 4.2 -2.1
v 1.6 4.2 -2.2
v 1.6 4.3 -2
v 1.6 4.3 -2.1
v 1.7 3.5 -1.9
v 1.7 3.5 -2
v 1.7 3.6 -1.9
v 1.7 3.6 -2
v 1.7 4.2 -1.7
v 1.7 4.2 -1.8
v 1.7 4.2 -2
v 1.7 4.3 -1.7
v 1.7 4.3 -1.8
v 1.7 4.3 -1.9
v 1.7 4.3 -2
v 1.7 4.4 -1.8
v 1.7 4.4 -1.9
v 1.8 3.5 -1.6
v 1.8 3.5 -1.7
v 1.8 3.5 -1.9
v 1.8 3.5 -2
v 1.8 3.5 -2.2
v 1.8 3.6 -1.8
v 1.8 3.6 -1.9
v 1.8 3.6 -2
v 1.8 3.6 -2.1
v 1.8 3.6 -2.2
v 1.8 3.6 -2.3
v 1.8 3.8 -1.7
v 1.8 3.8 -1.8
v 1.8 3.8 -2.1
v 1.8 3.8 -2.2
v 1.8 3.9 -1.6
v 1.8 3.9 -1.8
v 1.8 3.9 -2.1
v 1.8 3.9 -2.3
v 1.9 3.6 -1.2
v 1.9 3.6 -1.3
v 1.9 3.6 -1.8
v 1.9 3.6 -1.9
v 1.9 3.6 -2
v 1.9 3.6 -2.1
v 1.9 3.6 -2.6
v 1.9 3.6 -2.7
v 1.9 3.7 -1.2
v 1.9 3.7 -1.3
v 1.9 3.7 -2.6
v 1.9 3.7 -2.7
v 1.9 3.8 -1.8
v 1.9 3.8 -1.9
v 1.9 3.8 -2
v 1.9 3.8 -2.1
v 1.9 3.9 -1.8
v 1.9 3.9 -1.9
v 1.9 3.9 -2
v 1.9 3.9 -2.1
v 1.9 4.1 -2
v 1.9 4.1 -2.1
v 1.9 4.2 -2
v 1.9 4.3 -2
v 1.9 4.3 -2.1
v 2 3.7 -1.2
v 2 3.7 -1.3
v 2 3.7 -2.6
v 2 3.7 -2.7
v 2 3.8 -1.2
v 2 3.8 -1.3
v 2 3.8 -2.6
v 2 3.8 -2.7
v 2.2 3.5 -1.3
v 2.2 3.5 -1.4
v 2.2 3.5 -2.5
v 2.2 3.5 -2.6
v 2.2 3.8 -1.3
v 2.2 3.8 -1.4
v 2.2 3.8 -2.5
v 2.2 3.8 -2.6
v 2.3 3.5 -1.4
v 2.3 3.5 -1.5
v 2.3 3.5 -2.4
v 2.3 3.5 -2.5
v 2.3 3.8 -1.4
v 2.3 3.8 -1.5
v 2.3 3.8 -2.4
v 2.3 3.8 -2.5
v 2.4 3.5 -1.5
v 2.4 3.5 -2.4
v 2.4 3.6 -1.8
v 2.4 3.6 -2.1
v 2.4 3.7 -1.7
v 2.4 3.7 -1.8
v 2.4 3.7 -2.1
v 2.4 3.7 -2.2
v 2.4 3.8 -1.5
v 2.4 3.8 -1.7
v 2.4 3.8 -2.2
v 2.4 3.8 -2.4
v 1.1 3.5 -1.5
v 1.1 3.5 -2.4
v 1.1 3.6 -1.8
v 1.1 3.6 -2.1
v 1.1 3.7 -1.7
v 1.1 3.7 -1.8
v 1.1 3.7 -2.1
v 1.1 3.7 -2.2
v 1.1 3.8 -1.5
v 1.1 3.8 -1.7
v 1.1 3.8 -2.2
v 1.1 3.8 -2.4
v 1.2 3.5 -1.4
v 1.2 3.5 -1.5
v 1.2 3.5 -2.4
v 1.2 3.5 -2.5
v 1.2 3.8 -1.4
v 1.2 3.8 -1.5
v 1.2 3.8 -2.4
v 1.2 3.8 -2.5
v 1.3 3.5 -1.3
v 1.3 3.5 -1.4
v 1.3 3.5 -2.5
v 1.3 3.5 -2.6
v 1.3 3.8 -1.3
v 1.3 3.8 -1.4
v 1.3 3.8 -2.5
v 1.3 3.8 -2.6
v 1.5 3.7 -1.2
v 1.5 3.7 -1.3
v 1.5 3.7 -2.6
v 1.5 3.7 -2.7
v 1.5 3.8 -1.2
v 1.5 3.8 -1.3
v 1.5 3.8 -2.6
v 1.5 3.8 -2.7
v 1.6 3.6 -1.2
v 1.6 3.6 -1.3
v 1.6 3.6 -1.8
v 1.6 3.6 -1.9
v 1.6 3.6 -2
v 1.6 3.6 -2.1
v 1.6 3.6 -2.6
v 1.6 3.6 -2.7
v 1.6 3.7 -1.2
v 1.6 3.7 -1.3
v 1.6 3.7 -1.8
v 1.6 3.7 -1.9
v 1.6 3.7 -2.6
v 1.6 3.7 -2.7
v 1.6 3.8 -1.8
v 1.6 3.8 -1.9
v 1.6 3.8 -2
v 1.6 3.8 -2.1
v 1.6 3.9 -1.8
v 1.6 3.9 -1.9
v 1.6 3.9 -2
v 1.6 3.9 -2.1
v 1.7 3.5 -1.6
v 1.7 3.5 -1.7
v 1.7 3.5 -1.9
v 1.7 3.5 -2
v 1.7 3.5 -2.2
v 1.7 3.5 -2.3
v 1.7 3.6 -1.8
v 1.7 3.6 -1.9
v 1.7 3.6 -2
v 1.7 3.6 -2.1
v 1.7 3.7 -1.7
v 1.7 3.7 -1.8
v 1.7 3.7 -2.2
v 1.7 3.7 -2.3
v 1.7 3.8 -1.7
v 1.7 3.8 -1.8
v 1.7 3.8 -2.1
v 1.7 3.8 -2.2
v 1.7 3.8 -2.3
v 1.7 3.9 -1.6
v 1.7 3.9 -1.8
v 1.7 3.9 -2.1
v 1.7 3.9 -2.3
v 1.7 4.1 -2.1
v 1.7 4.1 -2.2
v 1.7 4.2 -2
v 1.7 4.2 -2.1
v 1.7 4.2 -2.2
v 1.7 4.3 -2
v 1.7 4.3 -2.1
v 1.8 3.5 -1.9
v 1.8 3.5 -2
v 1.8 3.6 -1.9
v 1.8 3.6 -2
v 1.8 4.2 -1.7
v 1.8 4.2 -1.8
v 1.8 4.2 -1.9
v 1.8 4.2 -2
v 1.8 4.3 -1.7
v 1.8 4.3 -1.8
v 1.8 4.3 -1.9
v 1.8 4.4 -1.8
v 1.8 4.4 -1.9
v 1.9 3.5 -1.6
v 1.9 3.5 -1.7
v 1.9 3.5 -1.8
v 1.9 3.5 -2.1
v 1.9 3.5 -2.2
v 1.9 3.6 -2.2
v 1.9 3.6 -2.3
v 1.9 3.8 -1.7
v 1.9 3.8 -1.8
v 1.9 3.8 -2.1
v 1.9 3.8 -2.2
v 1.9 3.9 -1.6
v 1.9 3.9 -1.8
v 1.9 3.9 -2.1
v 1.9 3.9 -2.3
v 1.9 4.2 -1.9
v 1.9 4.2 -2
v 1.9 4.3 -1.9
v 1.9 4.3 -2
v 2 2.1 -1.4
v 2 2.1 -1.5
v 2 2.1 -2.4
v 2 2.1 -2.5
v 2 2.5 -1.3
v 2 2.5 -1.4
v 2 2.5 -1.5
v 2 2.5 -2.4
v 2 2.5 -2.5
v 2 2.5 -2.6
v 2 2.7 -1.2
v 2 2.7 -1.3
v 2 2.7 -1.4
v 2 2.7 -2.5
v 2 2.7 -2.6
v 2 2.7 -2.7
v 2 2.8 -1.2
v 2 2.8 -1.3
v 2 2.8 -2.6
v 2 2.8 -2.7
v 2 4.1 -2
v 2 4.1 -2.1
v 2 4.3 -2
v 2 4.3 -2.1
v 2.1 2 -0.9
v 2.1 2 -1
v 2.1 2 -2.9
v 2.1 2 -3
v 2.1 2.1 -0.9
v 2.1 2.1 -1
v 2.1 2.1 -1.5
v 2.1 2.1 -1.6
v 2.1 2.1 -2.3
v 2.1 2.1 -2.4
v 2.1 2.1 -2.9
v 2.1 2.1 -3
v 2.1 2.5 -1.5
v 2.1 2.5 -1.6
v 2.1 2.5 -2.3
v 2.1 2.5 -2.4
v 2.1 2.8 -1
v 2.1 2.8 -1.1
v 2.1 2.8 -2.8
v 2.1 2.8 -2.9
v 2.1 3 -1
v 2.1 3 -1.1
v 2.1 3 -2.8
v 2.1 3 -2.9
v 2.1 3.5 -1.8
v 2.1 3.5 -1.9
v 2.1 3.5 -2
v 2.1 3.5 -2.1
v 2.1 3.9 -1.8
v 2.1 3.9 -1.9
v 2.1 3.9 -2
v 2.1 3.9 -2.1
v 2.2 2.1 -1.6
v 2.2 2.1 -1.7
v 2.2 2.1 -2.2
v 2.2 2.1 -2.3
v 2.2 2.5 -1.4
v 2.2 2.5 -1.5
v 2.2 2.5 -1.6
v 2.2 2.5 -1.7
v 2.2 2.5 -2.2
v 2.2 2.5 -2.3
v 2.2 2.5 -2.4
v 2.2 2.5 -2.5
v 2.2 2.7 -1.3
v 2.2 2.7 -1.4
v 2.2 2.7 -1.5
v 2.2 2.7 -2.4
v 2.2 2.7 -2.5
v 2.2 2.7 -2.6
v 2.2 2.8 -1.3
v 2.2 2.8 -1.4
v 2.2 2.8 -2.5
v 2.2 2.8 -2.6
v 2.2 3 -1
v 2.2 3 -1.1
v 2.2 3 -2.8
v 2.2 3 -2.9
v 2.2 3.2 -1
v 2.2 3.2 -1.1
v 2.2 3.2 -1.2
v 2.2 3.2 -2.7
v 2.2 3.2 -2.8
v 2.2 3.2 -2.9
v 2.2 3.5 -1.1
v 2.2 3.5 -1.2
v 2.2 3.5 -1.3
v 2.2 3.5 -2.6
v 2.2 3.5 -2.7
v 2.2 3.5 -2.8
v 2.2 3.8 -1.2
v 2.2 3.8 -1.3
v 2.2 3.8 -2.6
v 2.2 3.8 -2.7
v 2.3 2 -1
v 2.3 2 -1.1
v 2.3 2 -2.8
v 2.3 2 -2.9
v 2.3 2.1 -1
v 2.3 2.1 -1.1
v 2.3 2.1 -1.7
v 2.3 2.1 -2.2
v 2.3 2.1 -2.8
v 2.3 2.1 -2.9
v 2.3 2.5 -1.5
v 2.3 2.5 -1.7
v 2.3 2.5 -2.2
v 2.3 2.5 -2.4
v 2.3 2.7 -1.4
v 2.3 2.7 -1.5
v 2.3 2.7 -1.7
v 2.3 2.7 -2.2
v 2.3 2.7 -2.4
v 2.3 2.7 -2.5
v 2.3 2.8 -1.1
v 2.3 2.8 -1.2
v 2.3 2.8 -1.4
v 2.3 2.8 -1.5
v 2.3 2.8 -2.4
v 2.3 2.8 -2.5
v 2.3 2.8 -2.7
v 2.3 2.8 -2.8
v 2.3 3.2 -1.1
v 2.3 3.2 -1.2
v 2.3 3.2 -1.3
v 2.3 3.2 -2.6
v 2.3 3.2 -2.7
v 2.3 3.2 -2.8
v 2.3 3.5 -1.2
v 2.3 3.5 -1.3
v 2.3 3.5 -1.4
v 2.3 3.5 -2.5
v 2.3 3.5 -2.6
v 2.3 3.5 -2.7
v 2.3 3.8 -1.3
v 2.3 3.8 -1.4
v 2.3 3.8 -2.5
v 2.3 3.8 -2.6
v 2.4 2 -1.1
v 2.4 2 -1.2
v 2.4 2 -2.7
v 2.4 2 -2.8
v 2.4 2.1 -1.1
v 2.4 2.1 -1.2
v 2.4 2.1 -2.7
v 2.4 2.1 -2.8
v 2.4 2.5 -1.7
v 2.4 2.5 -2.2
v 2.4 2.7 -1.5
v 2.4 2.7 -1.7
v 2.4 2.7 -2.2
v 2.4 2.7 -2.4
v 2.4 2.8 -1.2
v 2.4 2.8 -1.3
v 2.4 2.8 -1.5
v 2.4 2.8 -1.7
v 2.4 2.8 -2.2
v 2.4 2.8 -2.4
v 2.4 2.8 -2.6
v 2.4 2.8 -2.7
v 2.4 3.2 -1.2
v 2.4 3.2 -1.3
v 2.4 3.2 -1.4
v 2.4 3.2 -2.5
v 2.4 3.2 -2.6
v 2.4 3.2 -2.7
v 2.4 3.5 -1.3
v 2.4 3.5 -1.4
v 2.4 3.5 -1.5
v 2.4 3.5 -2.4
v 2.4 3.5 -2.5
v 2.4 3.5 -2.6
v 2.4 3.8 -1.4
v 2.4 3.8 -1.5
v 2.4 3.8 -2.4
v 2.4 3.8 -2.5
v 2.5 2 -1.2
v 2.5 2 -1.3
v 2.5 2 -2.6
v 2.5 2 -2.7
v 2.5 2.1 -1.2
v 2.5 2.1 -1.3
v 2.5 2.1 -2.6
v 2.5 2.1 -2.7
v 2.5 2.7 -1.7
v 2.5 2.7 -2.2
v 2.5 2.8 -1.3
v 2.5 2.8 -1.4
v 2.5 2.8 -1.7
v 2.5 2.8 -2.2
v 2.5 2.8 -2.5
v 2.5 2.8 -2.6
v 2.5 3.2 -1.3
v 2.5 3.2 -1.4
v 2.5 3.2 -1.5
v 2.5 3.2 -2.4
v 2.5 3.2 -2.5
v 2.5 3.2 -2.6
v 2.5 3.5 -1.4
v 2.5 3.5 -1.5
v 2.5 3.5 -2.4
v 2.5 3.5 -2.5
v 2.5 3.6 -1.8
v 2.5 3.6 -2.1
v 2.5 3.7 -1.7
v 2.5 3.7 -1.8
v 2.5 3.7 -2.1
v 2.5 3.7 -2.2
v 2.5 3.8 -1.5
v 2.5 3.8 -1.7
v 2.5 3.8 -2.2
v 2.5 3.8 -2.4
v 2.6 2 -1.3
v 2.6 2 -1.4
v 2.6 2 -2.5
v 2.6 2 -2.6
v 2.6 2.1 -1.3
v 2.6 2.1 -1.4
v 2.6 2.1 -2.5
v 2.6 2.1 -2.6
v 2.6 2.8 -1.4
v 2.6 2.8 -1.6
v 2.6 2.8 -2.3
v 2.6 2.8 -2.5
v 2.6 3 -1.5
v 2.6 3 -1.6
v 2.6 3 -2.3
v 2.6 3 -2.4
v 2.6 3.2 -1.4
v 2.6 3.2 -1.5
v 2.6 3.2 -2.4
v 2.6 3.2 -2.5
v 2.6 3.5 -1.5
v 2.6 3.5 -2.4
v 2.7 2 -1.4
v 2.7 2 -1.6
v 2.7 2 -2.3
v 2.7 2 -2.5
v 2.7 2.1 -1.4
v 2.7 2.1 -1.6
v 2.7 2.1 -2.3
v 2.7 2.1 -2.5
v 2.7 2.8 -1.6
v 2.7 2.8 -2.3
v 2.7 3 -1.5
v 2.7 3 -1.6
v 2.7 3 -2.3
v 2.7 3 -2.4
v 2.7 3.2 -1.5
v 2.7 3.2 -2.4
v 2.8 2 -1.6
v 2.8 2 -2.3
v 2.8 2.1 -1.6
v 2.8 2.1 -2.3
v 1.4 2 -0.9
v 1.4 2.1 -0.9
v 2.1 2 -0.9
v 2.1 2.1 -0.9
v 1.2 2 -1
v 1.2 2.1 -1
v 1.3 3 -1
v 1.3 3.2 -1
v 1.4 2 -1
v 1.4 2.1 -1
v 1.4 2.8 -1
v 1.4 3 -1
v 2.1 2 -1
v 2.1 2.1 -1
v 2.1 2.8 -1
v 2.1 3 -1
v 2.2 3 -1
v 2.2 3.2 -1
v 2.3 2 -1
v 2.3 2.1 -1
v 1.1 2 -1.1
v 1.1 2.1 -1.1
v 1.2 2 -1.1
v 1.2 2.1 -1.1
v 1.2 2.8 -1.1
v 1.2 3.2 -1.1
v 1.3 3 -1.1
v 1.3 3.2 -1.1
v 1.3 3.5 -1.1
v 1.4 2.8 -1.1
v 1.4 3 -1.1
v 2.1 2.8 -1.1
v 2.1 3 -1.1
v 2.2 3 -1.1
v 2.2 3.2 -1.1
v 2.2 3.5 -1.1
v 2.3 2 -1.1
v 2.3 2.1 -1.1
v 2.3 2.8 -1.1
v 2.3 3.2 -1.1
v 2.4 2 -1.1
v 2.4 2.1 -1.1
v 1 2 -1.2
v 1 2.1 -1.2
v 1.1 2 -1.2
v 1.1 2.1 -1.2
v 1.1 2.8 -1.2
v 1.1 3.2 -1.2
v 1.2 2.8 -1.2
v 1.2 3.2 -1.2
v 1.2 3.5 -1.2
v 1.3 3.2 -1.2
v 1.3 3.5 -1.2
v 1.3 3.8 -1.2
v 1.5 2.7 -1.2
v 1.5 2.8 -1.2
v 1.5 3.7 -1.2
v 1.5 3.8 -1.2
v 1.6 3.6 -1.2
v 1.6 3.7 -1.2
v 1.9 3.6 -1.2
v 1.9 3.7 -1.2
v 2 2.7 -1.2
v 2 2.8 -1.2
v 2 3.7 -1.2
v 2 3.8 -1.2
v 2.2 3.2 -1.2
v 2.2 3.5 -1.2
v 2.2 3.8 -1.2
v 2.3 2.8 -1.2
v 2.3 3.2 -1.2
v 2.3 3.5 -1.2
v 2.4 2 -1.2
v 2.4 2.1 -1.2
v 2.4 2.8 -1.2
v 2.4 3.2 -1.2
v 2.5 2 -1.2
v 2.5 2.1 -1.2
v 0.9 2 -1.3
v 0.9 2.1 -1.3
v 1 2 -1.3
v 1 2.1 -1.3
v 1 2.8 -1.3
v 1 3.2 -1.3
v 1.1 2.8 -1.3
v 1.1 3.2 -1.3
v 1.1 3.5 -1.3
v 1.2 3.2 -1.3
v 1.2 3.5 -1.3
v 1.2 3.8 -1.3
v 1.3 2.7 -1.3
v 1.3 2.8 -1.3
v 1.3 3.5 -1.3
v 1.3 3.8 -1.3
v 1.5 2.5 -1.3
v 1.5 2.7 -1.3
v 1.5 2.8 -1.3
v 2 2.5 -1.3
v 2 2.7 -1.3
v 2 2.8 -1.3
v 2.2 2.7 -1.3
v 2.2 2.8 -1.3
v 2.2 3.5 -1.3
v 2.2 3.8 -1.3
v 2.3 3.2 -1.3
v 2.3 3.5 -1.3
v 2.3 3.8 -1.3
v 2.4 2.8 -1.3
v 2.4 3.2 -1.3
v 2.4 3.5 -1.3
v 2.5 2 -1.3
v 2.5 2.1 -1.3
v 2.5 2.8 -1.3
v 2.5 3.2 -1.3
v 2.6 2 -1.3
v 2.6 2.1 -1.3
v 0.8 2 -1.4
v 0.8 2.1 -1.4
v 0.9 2 -1.4
v 0.9 2.1 -1.4
v 0.9 2.8 -1.4
v 0.9 3.2 -1.4
v 1 2.8 -1.4
v 1 3.2 -1.4
v 1 3.5 -1.4
v 1.1 3.2 -1.4
v 1.1 3.5 -1.4
v 1.1 3.8 -1.4
v 1.2 2.7 -1.4
v 1.2 2.8 -1.4
v 1.2 3.5 -1.4
v 1.2 3.8 -1.4
v 1.3 2.5 -1.4
v 1.3 2.7 -1.4
v 1.3 2.8 -1.4
v 1.5 2.1 -1.4
v 1.5 2.5 -1.4
v 1.5 2.7 -1.4
v 2 2.1 -1.4
v 2 2.5 -1.4
v 2 2.7 -1.4
v 2.2 2.5 -1.4
v 2.2 2.7 -1.4
v 2.2 2.8 -1.4
v 2.3 2.7 -1.4
v 2.3 2.8 -1.4
v 2.3 3.5 -1.4
v 2.3 3.8 -1.4
v 2.4 3.2 -1.4
v 2.4 3.5 -1.4
v 2.4 3.8 -1.4
v 2.5 2.8 -1.4
v 2.5 3.2 -1.4
v 2.5 3.5 -1.4
v 2.6 2 -1.4
v 2.6 2.1 -1.4
v 2.6 2.8 -1.4
v 2.6 3.2 -1.4
v 2.7 2 -1.4
v 2.7 2.1 -1.4
v 0.8 3 -1.5
v 0.8 3.2 -1.5
v 0.9 3 -1.5
v 0.9 3.2 -1.5
v 0.9 3.5 -1.5
v 1 3.2 -1.5
v 1 3.5 -1.5
v 1 3.8 -1.5
v 1.1 2.7 -1.5
v 1.1 2.8 -1.5
v 1.1 3.5 -1.5
v 1.1 3.8 -1.5
v 1.2 2.5 -1.5
v 1.2 2.7 -1.5
v 1.2 2.8 -1.5
v 1.3 2.5 -1.5
v 1.3 2.7 -1.5
v 1.4 2.1 -1.5
v 1.4 2.5 -1.5
v 1.5 2.1 -1.5
v 1.5 2.5 -1.5
v 2 2.1 -1.5
v 2 2.5 -1.5
v 2.1 2.1 -1.5
v 2.1 2.5 -1.5
v 2.2 2.5 -1.5
v 2.2 2.7 -1.5
v 2.3 2.5 -1.5
v 2.3 2.7 -1.5
v 2.3 2.8 -1.5
v 2.4 2.7 -1.5
v 2.4 2.8 -1.5
v 2.4 3.5 -1.5
v 2.4 3.8 -1.5
v 2.5 3.2 -1.5
v 2.5 3.5 -1.5
v 2.5 3.8 -1.5
v 2.6 3 -1.5
v 2.6 3.2 -1.5
v 2.6 3.5 -1.5
v 2.7 3 -1.5
v 2.7 3.2 -1.5
v 0.7 2 -1.6
v 0.7 2.1 -1.6
v 0.8 2 -1.6
v 0.8 2.1 -1.6
v 0.8 2.8 -1.6
v 0.8 3 -1.6
v 0.9 2.8 -1.6
v 0.9 3 -1.6
v 1.3 2.1 -1.6
v 1.3 2.5 -1.6
v 1.4 2.1 -1.6
v 1.4 2.5 -1.6
v 1.6 3.5 -1.6
v 1.6 3.9 -1.6
v 1.7 3.5 -1.6
v 1.7 3.9 -1.6
v 1.8 3.5 -1.6
v 1.8 3.9 -1.6
v 1.9 3.5 -1.6
v 1.9 3.9 -1.6
v 2.1 2.1 -1.6
v 2.1 2.5 -1.6
v 2.2 2.1 -1.6
v 2.2 2.5 -1.6
v 2.6 2.8 -1.6
v 2.6 3 -1.6
v 2.7 2 -1.6
v 2.7 2.1 -1.6
v 2.7 2.8 -1.6
v 2.7 3 -1.6
v 2.8 2 -1.6
v 2.8 2.1 -1.6
v 1 2.7 -1.7
v 1 2.8 -1.7
v 1.1 2.5 -1.7
v 1.1 2.7 -1.7
v 1.1 2.8 -1.7
v 1.2 2.1 -1.7
v 1.2 2.5 -1.7
v 1.2 2.7 -1.7
v 1.3 2.1 -1.7
v 1.3 2.5 -1.7
v 1.7 4.2 -1.7
v 1.7 4.3 -1.7
v 1.8 4.2 -1.7
v 1.8 4.3 -1.7
v 2.2 2.1 -1.7
v 2.2 2.5 -1.7
v 2.3 2.1 -1.7
v 2.3 2.5 -1.7
v 2.3 2.7 -1.7
v 2.4 2.5 -1.7
v 2.4 2.7 -1.7
v 2.4 2.8 -1.7
v 2.5 2.7 -1.7
v 2.5 2.8 -1.7
v 1.4 3.5 -1.8
v 1.4 3.6 -1.8
v 1.4 3.7 -1.8
v 1.4 3.9 -1.8
v 1.5 3.5 -1.8
v 1.5 3.6 -1.8
v 1.5 3.7 -1.8
v 1.5 3.8 -1.8
v 1.6 3.5 -1.8
v 1.6 3.7 -1.8
v 1.6 3.8 -1.8
v 1.6 3.9 -1.8
v 1.7 4.3 -1.8
v 1.7 4.4 -1.8
v 1.8 4.3 -1.8
v 1.8 4.4 -1.8
v 1.9 3.5 -1.8
v 1.9 3.8 -1.8
v 1.9 3.9 -1.8
v 2 3.5 -1.8
v 2 3.8 -1.8
v 2.1 3.5 -1.8
v 2.1 3.9 -1.8
v 1.7 3.5 -1.9
v 1.7 3.6 -1.9
v 1.7 4.3 -1.9
v 1.8 3.5 -1.9
v 1.8 3.6 -1.9
v 1.8 4.2 -1.9
v 1.8 4.3 -1.9
v 1.9 4.2 -1.9
v 1.9 4.3 -1.9
v 1.4 3.5 -2
v 1.4 3.9 -2
v 1.5 3.5 -2
v 1.5 3.8 -2
v 1.6 3.6 -2
v 1.6 3.8 -2
v 1.6 3.9 -2
v 1.6 4.2 -2
v 1.6 4.3 -2
v 1.7 3.5 -2
v 1.7 3.6 -2
v 1.7 4.2 -2
v 1.7 4.3 -2
v 1.8 3.5 -2
v 1.8 3.6 -2
v 1.9 3.6 -2
v 1.9 3.8 -2
v 1.9 3.9 -2
v 1.9 4.1 -2
v 1.9 4.2 -2
v 1.9 4.3 -2
v 2 3.5 -2
v 2 3.8 -2
v 2 4.1 -2
v 2 4.3 -2
v 2.1 3.5 -2
v 2.1 3.9 -2
v 1 3.6 -2.1
v 1 3.7 -2.1
v 1.1 3.6 -2.1
v 1.1 3.7 -2.1
v 1.6 3.6 -2.1
v 1.6 3.8 -2.1
v 1.6 3.9 -2.1
v 1.6 4.1 -2.1
v 1.6 4.2 -2.1
v 1.7 3.6 -2.1
v 1.7 3.8 -2.1
v 1.7 3.9 -2.1
v 1.7 4.1 -2.1
v 1.7 4.2 -2.1
v 1.8 3.6 -2.1
v 1.8 3.8 -2.1
v 1.8 3.9 -2.1
v 1.9 3.6 -2.1
v 1.9 3.8 -2.1
v 1.9 3.9 -2.1
v 2.4 3.6 -2.1
v 2.4 3.7 -2.1
v 2.5 3.6 -2.1
v 2.5 3.7 -2.1
v 1 3.7 -2.2
v 1 3.8 -2.2
v 1.1 3.7 -2.2
v 1.1 3.8 -2.2
v 2.4 3.7 -2.2
v 2.4 3.8 -2.2
v 2.5 3.7 -2.2
v 2.5 3.8 -2.2
v 1.1 3.5 -2.4
v 1.1 3.8 -2.4
v 1.2 3.5 -2.4
v 1.2 3.8 -2.4
v 2.3 3.5 -2.4
v 2.3 3.8 -2.4
v 2.4 3.5 -2.4
v 2.4 3.8 -2.4
v 1.2 3.5 -2.5
v 1.2 3.8 -2.5
v 1.3 3.5 -2.5
v 1.3 3.8 -2.5
v 2.2 3.5 -2.5
v 2.2 3.8 -2.5
v 2.3 3.5 -2.5
v 2.3 3.8 -2.5
v 1.3 3.5 -2.6
v 1.3 3.8 -2.6
v 1.5 3.7 -2.6
v 1.5 3.8 -2.6
v 1.6 3.6 -2.6
v 1.6 3.7 -2.6
v 1.9 3.6 -2.6
v 1.9 3.7 -2.6
v 2 3.7 -2.6
v 2 3.8 -2.6
v 2.2 3.5 -2.6
v 2.2 3.8 -2.6
v 1.3 3.5 -1.3
v 1.3 3.8 -1.3
v 1.5 3.7 -1.3
v 1.5 3.8 -1.3
v 1.6 3.6 -1.3
v 1.6 3.7 -1.3
v 1.9 3.6 -1.3
v 1.9 3.7 -1.3
v 2 3.7 -1.3
v 2 3.8 -1.3
v 2.2 3.5 -1.3
v 2.2 3.8 -1.3
v 1.2 3.5 -1.4
v 1.2 3.8 -1.4
v 1.3 3.5 -1.4
v 1.3 3.8 -1.4
v 2.2 3.5 -1.4
v 2.2 3.8 -1.4
v 2.3 3.5 -1.4
v 2.3 3.8 -1.4
v 1.1 3.5 -1.5
v 1.1 3.8 -1.5
v 1.2 3.5 -1.5
v 1.2 3.8 -1.5
v 2.3 3.5 -1.5
v 2.3 3.8 -1.5
v 2.4 3.5 -1.5
v 2.4 3.8 -1.5
v 1 3.7 -1.7
v 1 3.8 -1.7
v 1.1 3.7 -1.7
v 1.1 3.8 -1.7
v 2.4 3.7 -1.7
v 2.4 3.8 -1.7
v 2.5 3.7 -1.7
v 2.5 3.8 -1.7
v 1 3.6 -1.8
v 1 3.7 -1.8
v 1.1 3.6 -1.8
v 1.1 3.7 -1.8
v 1.6 3.6 -1.8
v 1.6 3.7 -1.8
v 1.6 3.8 -1.8
v 1.6 3.9 -1.8
v 1.7 3.6 -1.8
v 1.7 3.7 -1.8
v 1.7 3.8 -1.8
v 1.7 3.9 -1.8
v 1.7 4.2 -1.8
v 1.7 4.3 -1.8
v 1.8 3.6 -1.8
v 1.8 3.8 -1.8
v 1.8 3.9 -1.8
v 1.8 4.2 -1.8
v 1.8 4.3 -1.8
v 1.9 3.6 -1.8
v 1.9 3.8 -1.8
v 1.9 3.9 -1.8
v 2.4 3.6 -1.8
v 2.4 3.7 -1.8
v 2.5 3.6 -1.8
v 2.5 3.7 -1.8
v 1.4 3.5 -1.9
v 1.4 3.6 -1.9
v 1.4 3.7 -1.9
v 1.4 3.9 -1.9
v 1.5 3.5 -1.9
v 1.5 3.6 -1.9
v 1.5 3.7 -1.9
v 1.5 3.8 -1.9
v 1.6 3.6 -1.9
v 1.6 3.7 -1.9
v 1.6 3.8 -1.9
v 1.6 3.9 -1.9
v 1.7 3.5 -1.9
v 1.7 3.6 -1.9
v 1.7 4.3 -1.9
v 1.7 4.4 -1.9
v 1.8 3.5 -1.9
v 1.8 3.6 -1.9
v 1.8 4.3 -1.9
v 1.8 4.4 -1.9
v 1.9 3.6 -1.9
v 1.9 3.8 -1.9
v 1.9 3.9 -1.9
v 2 3.5 -1.9
v 2 3.8 -1.9
v 2.1 3.5 -1.9
v 2.1 3.9 -1.9
v 1.7 3.5 -2
v 1.7 3.6 -2
v 1.7 4.2 -2
v 1.7 4.3 -2
v 1.8 3.5 -2
v 1.8 3.6 -2
v 1.8 4.2 -2
v 1.9 4.2 -2
v 1.9 4.3 -2
v 1.4 3.5 -2.1
v 1.4 3.9 -2.1
v 1.5 3.5 -2.1
v 1.5 3.8 -2.1
v 1.6 3.5 -2.1
v 1.6 3.8 -2.1
v 1.6 3.9 -2.1
v 1.6 4.2 -2.1
v 1.6 4.3 -2.1
v 1.7 4.2 -2.1
v 1.7 4.3 -2.1
v 1.9 3.5 -2.1
v 1.9 3.8 -2.1
v 1.9 3.9 -2.1
v 1.9 4.1 -2.1
v 1.9 4.3 -2.1
v 2 3.5 -2.1
v 2 3.8 -2.1
v 2 4.1 -2.1
v 2 4.3 -2.1
v 2.1 3.5 -2.1
v 2.1 3.9 -2.1
v 1 2.7 -2.2
v 1 2.8 -2.2
v 1.1 2.5 -2.2
v 1.1 2.7 -2.2
v 1.1 2.8 -2.2
v 1.2 2.1 -2.2
v 1.2 2.5 -2.2
v 1.2 2.7 -2.2
v 1.3 2.1 -2.2
v 1.3 2.5 -2.2
v 1.6 3.7 -2.2
v 1.6 3.8 -2.2
v 1.6 4.1 -2.2
v 1.6 4.2 -2.2
v 1.7 3.7 -2.2
v 1.7 3.8 -2.2
v 1.7 4.1 -2.2
v 1.7 4.2 -2.2
v 1.8 3.5 -2.2
v 1.8 3.6 -2.2
v 1.9 3.5 -2.2
v 1.9 3.6 -2.2
v 2.2 2.1 -2.2
v 2.2 2.5 -2.2
v 2.3 2.1 -2.2
v 2.3 2.5 -2.2
v 2.3 2.7 -2.2
v 2.4 2.5 -2.2
v 2.4 2.7 -2.2
v 2.4 2.8 -2.2
v 2.5 2.7 -2.2
v 2.5 2.8 -2.2
v 0.7 2 -2.3
v 0.7 2.1 -2.3
v 0.8 2 -2.3
v 0.8 2.1 -2.3
v 1.3 2.1 -2.3
v 1.3 2.5 -2.3
v 1.4 2.1 -2.3
v 1.4 2.5 -2.3
v 1.6 3.5 -2.3
v 1.6 3.7 -2.3
v 1.6 3.8 -2.3
v 1.6 3.9 -2.3
v 1.7 3.5 -2.3
v 1.7 3.7 -2.3
v 1.7 3.8 -2.3
v 1.7 3.9 -2.3
v 1.8 3.6 -2.3
v 1.8 3.9 -2.3
v 1.9 3.6 -2.3
v 1.9 3.9 -2.3
v 2.1 2.1 -2.3
v 2.1 2.5 -2.3
v 2.2 2.1 -2.3
v 2.2 2.5 -2.3
v 2.6 2.8 -2.3
v 2.6 3 -2.3
v 2.7 2 -2.3
v 2.7 2.1 -2.3
v 2.7 2.8 -2.3
v 2.7 3 -2.3
v 2.8 2 -2.3
v 2.8 2.1 -2.3
v 0.8 2.8 -2.4
v 0.8 3.2 -2.4
v 0.9 2.8 -2.4
v 0.9 3.2 -2.4
v 0.9 3.5 -2.4
v 1 3.2 -2.4
v 1 3.5 -2.4
v 1 3.8 -2.4
v 1.1 2.7 -2.4
v 1.1 2.8 -2.4
v 1.1 3.5 -2.4
v 1.1 3.8 -2.4
v 1.2 2.5 -2.4
v 1.2 2.7 -2.4
v 1.2 2.8 -2.4
v 1.3 2.5 -2.4
v 1.3 2.7 -2.4
v 1.4 2.1 -2.4
v 1.4 2.5 -2.4
v 1.5 2.1 -2.4
v 1.5 2.5 -2.4
v 2 2.1 -2.4
v 2 2.5 -2.4
v 2.1 2.1 -2.4
v 2.1 2.5 -2.4
v 2.2 2.5 -2.4
v 2.2 2.7 -2.4
v 2.3 2.5 -2.4
v 2.3 2.7 -2.4
v 2.3 2.8 -2.4
v 2.4 2.7 -2.4
v 2.4 2.8 -2.4
v 2.4 3.5 -2.4
v 2.4 3.8 -2.4
v 2.5 3.2 -2.4
v 2.5 3.5 -2.4
v 2.5 3.8 -2.4
v 2.6 3 -2.4
v 2.6 3.2 -2.4
v 2.6 3.5 -2.4
v 2.7 3 -2.4
v 2.7 3.2 -2.4
v 0.8 2 -2.5
v 0.8 2.1 -2.5
v 0.9 2 -2.5
v 0.9 2.1 -2.5
v 0.9 2.8 -2.5
v 0.9 3.2 -2.5
v 1 2.8 -2.5
v 1 3.2 -2.5
v 1 3.5 -2.5
v 1.1 3.2 -2.5
v 1.1 3.5 -2.5
v 1.1 3.8 -2.5
v 1.2 2.7 -2.5
v 1.2 2.8 -2.5
v 1.2 3.5 -2.5
v 1.2 3.8 -2.5
v 1.3 2.5 -2.5
v 1.3 2.7 -2.5
v 1.3 2.8 -2.5
v 1.5 2.1 -2.5
v 1.5 2.5 -2.5
v 1.5 2.7 -2.5
v 2 2.1 -2.5
v 2 2.5 -2.5
v 2 2.7 -2.5
v 2.2 2.5 -2.5
v 2.2 2.7 -2.5
v 2.2 2.8 -2.5
v 2.3 2.7 -2.5
v 2.3 2.8 -2.5
v 2.3 3.5 -2.5
v 2.3 3.8 -2.5
v 2.4 3.2 -2.5
v 2.4 3.5 -2.5
v 2.4 3.8 -2.5
v 2.5 2.8 -2.5
v 2.5 3.2 -2.5
v 2.5 3.5 -2.5
v 2.6 2 -2.5
v 2.6 2.1 -2.5
v 2.6 2.8 -2.5
v 2.6 3.2 -2.5
v 2.7 2 -2.5
v 2.7 2.1 -2.5
v 0.9 2 -2.6
v 0.9 2.1 -2.6
v 1 2 -2.6
v 1 2.1 -2.6
v 1 2.8 -2.6
v 1 3.2 -2.6
v 1.1 2.8 -2.6
v 1.1 3.2 -2.6
v 1.1 3.5 -2.6
v 1.2 3.2 -2.6
v 1.2 3.5 -2.6
v 1.2 3.8 -2.6
v 1.3 2.7 -2.6
v 1.3 2.8 -2.6
v 1.3 3.5 -2.6
v 1.3 3.8 -2.6
v 1.5 2.5 -2.6
v 1.5 2.7 -2.6
v 1.5 2.8 -2.6
v 2 2.5 -2.6
v 2 2.7 -2.6
v 2 2.8 -2.6
v 2.2 2.7 -2.6
v 2.2 2.8 -2.6
v 2.2 3.5 -2.6
v 2.2 3.8 -2.6
v 2.3 3.2 -2.6
v 2.3 3.5 -2.6
v 2.3 3.8 -2.6
v 2.4 2.8 -2.6
v 2.4 3.2 -2.6
v 2.4 3.5 -2.6
v 2.5 2 -2.6
v 2.5 2.1 -2.6
v 2.5 2.8 -2.6
v 2.5 3.2 -2.6
v 2.6 2 -2.6
v 2.6 2.1 -2.6
v 1 2 -2.7
v 1 2.1 -2.7
v 1.1 2 -2.7
v 1.1 2.1 -2.7
v 1.1 2.8 -2.7
v 1.1 3.2 -2.7
v 1.2 2.8 -2.7
v 1.2 3.2 -2.7
v 1.2 3.5 -2.7
v 1.3 3.2 -2.7
v 1.3 3.5 -2.7
v 1.3 3.8 -2.7
v 1.5 2.7 -2.7
v 1.5 2.8 -2.7
v 1.5 3.7 -2.7
v 1.5 3.8 -2.7
v 1.6 3.6 -2.7
v 1.6 3.7 -2.7
v 1.9 3.6 -2.7
v 1.9 3.7 -2.7
v 2 2.7 -2.7
v 2 2.8 -2.7
v 2 3.7 -2.7
v 2 3.8 -2.7
v 2.2 3.2 -2.7
v 2.2 3.5 -2.7
v 2.2 3.8 -2.7
v 2.3 2.8 -2.7
v 2.3 3.2 -2.7
v 2.3 3.5 -2.7
v 2.4 2 -2.7
v 2.4 2.1 -2.7
v 2.4 2.8 -2.7
v 2.4 3.2 -2.7
v 2.5 2 -2.7
v 2.5 2.1 -2.7
v 1.1 2 -2.8
v 1.1 2.1 -2.8
v 1.2 2 -2.8
v 1.2 2.1 -2.8
v 1.2 2.8 -2.8
v 1.2 3.2 -2.8
v 1.3 2.8 -2.8
v 1.3 3.2 -2.8
v 1.3 3.5 -2.8
v 2.1 2.8 -2.8
v 2.1 3 -2.8
v 2.2 3 -2.8
v 2.2 3.2 -2.8
v 2.2 3.5 -2.8
v 2.3 2 -2.8
v 2.3 2.1 -2.8
v 2.3 2.8 -2.8
v 2.3 3.2 -2.8
v 2.4 2 -2.8
v 2.4 2.1 -2.8
v 1.2 2 -2.9
v 1.2 2.1 -2.9
v 1.3 2.8 -2.9
v 1.3 3.2 -2.9
v 1.4 2 -2.9
v 1.4 2.1 -2.9
v 2.1 2 -2.9
v 2.1 2.1 -2.9
v 2.1 2.8 -2.9
v 2.1 3 -2.9
v 2.2 3 -2.9
v 2.2 3.2 -2.9
v 2.3 2 -2.9
v 2.3 2.1 -2.9
v 1.4 2 -3
v 1.4 2.1 -3
v 2.1 2 -3
v 2.1 2.1 -3
v 1.4 2 -0.9
v 2.1 2 -0.9
v 1.2 2 -1
v 1.4 2 -1
v 2.1 2 -1
v 2.3 2 -1
v 1.1 2 -1.1
v 1.2 2 -1.1
v 2.3 2 -1.1
v 2.4 2 -1.1
v 1 2 -1.2
v 1.1 2 -1.2
v 2.4 2 -1.2
v 2.5 2 -1.2
v 0.9 2 -1.3
v 1 2 -1.3
v 2.5 2 -1.3
v 2.6 2 -1.3
v 0.8 2 -1.4
v 0.9 2 -1.4
v 2.6 2 -1.4
v 2.7 2 -1.4
v 0.7 2 -1.6
v 0.8 2 -1.6
v 2.7 2 -1.6
v 2.8 2 -1.6
v 0.7 2 -2.3
v 0.8 2 -2.3
v 2.7 2 -2.3
v 2.8 2 -2.3
v 0.8 2 -2.5
v 0.9 2 -2.5
v 2.6 2 -2.5
v 2.7 2 -2.5
v 0.9 2 -2.6
v 1 2 -2.6
v 2.5 2 -2.6
v 2.6 2 -2.6
v 1 2 -2.7
v 1.1 2 -2.7
v 2.4 2 -2.7
v 2.5 2 -2.7
v 1.1 2 -2.8
v 1.2 2 -2.8
v 2.3 2 -2.8
v 2.4 2 -2.8
v 1.2 2 -2.9
v 1.4 2 -2.9
v 2.1 2 -2.9
v 2.3 2 -2.9
v 1.4 2 -3
v 2.1 2 -3
v 1.5 2.5 -1.3
v 2 2.5 -1.3
v 1.3 2.5 -1.4
v 1.5 2.5 -1.4
v 2 2.5 -1.4
v 2.2 2.5 -1.4
v 1.2 2.5 -1.5
v 1.3 2.5 -1.5
v 1.4 2.5 -1.5
v 1.5 2.5 -1.5
v 2 2.5 -1.5
v 2.1 2.5 -1.5
v 2.2 2.5 -1.5
v 2.3 2.5 -1.5
v 1.3 2.5 -1.6
v 1.4 2.5 -1.6
v 2.1 2.5 -1.6
v 2.2 2.5 -1.6
v 1.1 2.5 -1.7
v 1.2 2.5 -1.7
v 1.3 2.5 -1.7
v 2.2 2.5 -1.7
v 2.3 2.5 -1.7
v 2.4 2.5 -1.7
v 1.1 2.5 -2.2
v 1.2 2.5 -2.2
v 1.3 2.5 -2.2
v 2.2 2.5 -2.2
v 2.3 2.5 -2.2
v 2.4 2.5 -2.2
v 1.3 2.5 -2.3
v 1.4 2.5 -2.3
v 2.1 2.5 -2.3
v 2.2 2.5 -2.3
v 1.2 2.5 -2.4
v 1.3 2.5 -2.4
v 1.4 2.5 -2.4
v 1.5 2.5 -2.4
v 2 2.5 -2.4
v 2.1 2.5 -2.4
v 2.2 2.5 -2.4
v 2.3 2.5 -2.4
v 1.3 2.5 -2.5
v 1.5 2.5 -2.5
v 2 2.5 -2.5
v 2.2 2.5 -2.5
v 1.5 2.5 -2.6
v 2 2.5 -2.6
v 1.5 2.7 -1.2
v 2 2.7 -1.2
v 1.3 2.7 -1.3
v 1.5 2.7 -1.3
v 2 2.7 -1.3
v 2.2 2.7 -1.3
v 1.2 2.7 -1.4
v 1.3 2.7 -1.4
v 1.5 2.7 -1.4
v 2 2.7 -1.4
v 2.2 2.7 -1.4
v 2.3 2.7 -1.4
v 1.1 2.7 -1.5
v 1.2 2.7 -1.5
v 1.3 2.7 -1.5
v 2.2 2.7 -1.5
v 2.3 2.7 -1.5
v 2.4 2.7 -1.5
v 1 2.7 -1.7
v 1.1 2.7 -1.7
v 1.2 2.7 -1.7
v 2.3 2.7 -1.7
v 2.4 2.7 -1.7
v 2.5 2.7 -1.7
v 1 2.7 -2.2
v 1.1 2.7 -2.2
v 1.2 2.7 -2.2
v 2.3 2.7 -2.2
v 2.4 2.7 -2.2
v 2.5 2.7 -2.2
v 1.1 2.7 -2.4
v 1.2 2.7 -2.4
v 1.3 2.7 -2.4
v 2.2 2.7 -2.4
v 2.3 2.7 -2.4
v 2.4 2.7 -2.4
v 1.2 2.7 -2.5
v 1.3 2.7 -2.5
v 1.5 2.7 -2.5
v 2 2.7 -2.5
v 2.2 2.7 -2.5
v 2.3 2.7 -2.5
v 1.3 2.7 -2.6
v 1.5 2.7 -2.6
v 2 2.7 -2.6
v 2.2 2.7 -2.6
v 1.5 2.7 -2.7
v 2 2.7 -2.7
v 1.4 2.8 -1
v 2.1 2.8 -1
v 1.2 2.8 -1.1
v 1.4 2.8 -1.1
v 2.1 2.8 -1.1
v 2.3 2.8 -1.1
v 1.1 2.8 -1.2
v 1.2 2.8 -1.2
v 1.5 2.8 -1.2
v 2 2.8 -1.2
v 2.3 2.8 -1.2
v 2.4 2.8 -1.2
v 1 2.8 -1.3
v 1.1 2.8 -1.3
v 1.3 2.8 -1.3
v 1.5 2.8 -1.3
v 2 2.8 -1.3
v 2.2 2.8 -1.3
v 2.4 2.8 -1.3
v 2.5 2.8 -1.3
v 0.9 2.8 -1.4
v 1 2.8 -1.4
v 1.2 2.8 -1.4
v 1.3 2.8 -1.4
v 2.2 2.8 -1.4
v 2.3 2.8 -1.4
v 2.5 2.8 -1.4
v 2.6 2.8 -1.4
v 1.1 2.8 -1.5
v 1.2 2.8 -1.5
v 2.3 2.8 -1.5
v 2.4 2.8 -1.5
v 0.8 2.8 -1.6
v 0.9 2.8 -1.6
v 2.6 2.8 -1.6
v 2.7 2.8 -1.6
v 1 2.8 -1.7
v 1.1 2.8 -1.7
v 2.4 2.8 -1.7
v 2.5 2.8 -1.7
v 1 2.8 -2.2
v 1.1 2.8 -2.2
v 2.4 2.8 -2.2
v 2.5 2.8 -2.2
v 2.6 2.8 -2.3
v 2.7 2.8 -2.3
v 0.8 2.8 -2.4
v 0.9 2.8 -2.4
v 1.1 2.8 -2.4
v 1.2 2.8 -2.4
v 2.3 2.8 -2.4
v 2.4 2.8 -2.4
v 0.9 2.8 -2.5
v 1 2.8 -2.5
v 1.2 2.8 -2.5
v 1.3 2.8 -2.5
v 2.2 2.8 -2.5
v 2.3 2.8 -2.5
v 2.5 2.8 -2.5
v 2.6 2.8 -2.5
v 1 2.8 -2.6
v 1.1 2.8 -2.6
v 1.3 2.8 -2.6
v 1.5 2.8 -2.6
v 2 2.8 -2.6
v 2.2 2.8 -2.6
v 2.4 2.8 -2.6
v 2.5 2.8 -2.6
v 1.1 2.8 -2.7
v 1.2 2.8 -2.7
v 1.5 2.8 -2.7
v 2 2.8 -2.7
v 2.3 2.8 -2.7
v 2.4 2.8 -2.7
v 1.2 2.8 -2.8
v 1.3 2.8 -2.8
v 2.1 2.8 -2.8
v 2.3 2.8 -2.8
v 1.3 2.8 -2.9
v 2.1 2.8 -2.9
v 1.3 3 -1
v 1.4 3 -1
v 2.1 3 -1
v 2.2 3 -1
v 1.3 3 -1.1
v 1.4 3 -1.1
v 2.1 3 -1.1
v 2.2 3 -1.1
v 0.8 3 -1.5
v 0.9 3 -1.5
v 2.6 3 -1.5
v 2.7 3 -1.5
v 0.8 3 -1.6
v 0.9 3 -1.6
v 2.6 3 -1.6
v 2.7 3 -1.6
v 2.6 3 -2.3
v 2.7 3 -2.3
v 2.6 3 -2.4
v 2.7 3 -2.4
v 2.1 3 -2.8
v 2.2 3 -2.8
v 2.1 3 -2.9
v 2.2 3 -2.9
v 1.8 3.6 -2.2
v 1.9 3.6 -2.2
v 1.8 3.6 -2.3
v 1.9 3.6 -2.3
v 1.4 3.7 -1.8
v 1.5 3.7 -1.8
v 1.4 3.7 -1.9
v 1.5 3.7 -1.9
v 1.6 3.8 -2.2
v 1.7 3.8 -2.2
v 1.6 3.8 -2.3
v 1.7 3.8 -2.3
v 1.9 4.1 -2
v 2 4.1 -2
v 1.6 4.1 -2.1
v 1.7 4.1 -2.1
v 1.9 4.1 -2.1
v 2 4.1 -2.1
v 1.6 4.1 -2.2
v 1.7 4.1 -2.2
v 1.7 4.2 -1.7
v 1.8 4.2 -1.7
v 1.7 4.2 -1.8
v 1.8 4.2 -1.8
v 1.8 4.2 -1.9
v 1.9 4.2 -1.9
v 1.6 4.2 -2
v 1.7 4.2 -2
v 1.8 4.2 -2
v 1.9 4.2 -2
v 1.6 4.2 -2.1
v 1.7 4.2 -2.1
v 1.7 4.3 -1.8
v 1.8 4.3 -1.8
v 1.7 4.3 -1.9
v 1.8 4.3 -1.9
v 1.4 2.1 -0.9
v 2.1 2.1 -0.9
v 1.2 2.1 -1
v 1.4 2.1 -1
v 2.1 2.1 -1
v 2.3 2.1 -1
v 1.1 2.1 -1.1
v 1.2 2.1 -1.1
v 2.3 2.1 -1.1
v 2.4 2.1 -1.1
v 1 2.1 -1.2
v 1.1 2.1 -1.2
v 2.4 2.1 -1.2
v 2.5 2.1 -1.2
v 0.9 2.1 -1.3
v 1 2.1 -1.3
v 2.5 2.1 -1.3
v 2.6 2.1 -1.3
v 0.8 2.1 -1.4
v 0.9 2.1 -1.4
v 1.5 2.1 -1.4
v 2 2.1 -1.4
v 2.6 2.1 -1.4
v 2.7 2.1 -1.4
v 1.4 2.1 -1.5
v 1.5 2.1 -1.5
v 2 2.1 -1.5
v 2.1 2.1 -1.5
v 0.7 2.1 -1.6
v 0.8 2.1 -1.6
v 1.3 2.1 -1.6
v 1.4 2.1 -1.6
v 2.1 2.1 -1.6
v 2.2 2.1 -1.6
v 2.7 2.1 -1.6
v 2.8 2.1 -1.6
v 1.2 2.1 -1.7
v 1.3 2.1 -1.7
v 2.2 2.1 -1.7
v 2.3 2.1 -1.7
v 1.2 2.1 -2.2
v 1.3 2.1 -2.2
v 2.2 2.1 -2.2
v 2.3 2.1 -2.2
v 0.7 2.1 -2.3
v 0.8 2.1 -2.3
v 1.3 2.1 -2.3
v 1.4 2.1 -2.3
v 2.1 2.1 -2.3
v 2.2 2.1 -2.3
v 2.7 2.1 -2.3
v 2.8 2.1 -2.3
v 1.4 2.1 -2.4
v 1.5 2.1 -2.4
v 2 2.1 -2.4
v 2.1 2.1 -2.4
v 0.8 2.1 -2.5
v 0.9 2.1 -2.5
v 1.5 2.1 -2.5
v 2 2.1 -2.5
v 2.6 2.1 -2.5
v 2.7 2.1 -2.5
v 0.9 2.1 -2.6
v 1 2.1 -2.6
v 2.5 2.1 -2.6
v 2.6 2.1 -2.6
v 1 2.1 -2.7
v 1.1 2.1 -2.7
v 2.4 2.1 -2.7
v 2.5 2.1 -2.7
v 1.1 2.1 -2.8
v 1.2 2.1 -2.8
v 2.3 2.1 -2.8
v 2.4 2.1 -2.8
v 1.2 2.1 -2.9
v 1.4 2.1 -2.9
v 2.1 2.1 -2.9
v 2.3 2.1 -2.9
v 1.4 2.1 -3
v 2.1 2.1 -3
v 1.3 3.2 -1
v 2.2 3.2 -1
v 1.2 3.2 -1.1
v 1.3 3.2 -1.1
v 2.2 3.2 -1.1
v 2.3 3.2 -1.1
v 1.1 3.2 -1.2
v 1.2 3.2 -1.2
v 1.3 3.2 -1.2
v 2.2 3.2 -1.2
v 2.3 3.2 -1.2
v 2.4 3.2 -1.2
v 1 3.2 -1.3
v 1.1 3.2 -1.3
v 1.2 3.2 -1.3
v 2.3 3.2 -1.3
v 2.4 3.2 -1.3
v 2.5 3.2 -1.3
v 0.9 3.2 -1.4
v 1 3.2 -1.4
v 1.1 3.2 -1.4
v 2.4 3.2 -1.4
v 2.5 3.2 -1.4
v 2.6 3.2 -1.4
v 0.8 3.2 -1.5
v 0.9 3.2 -1.5
v 1 3.2 -1.5
v 2.5 3.2 -1.5
v 2.6 3.2 -1.5
v 2.7 3.2 -1.5
v 0.8 3.2 -2.4
v 0.9 3.2 -2.4
v 1 3.2 -2.4
v 2.5 3.2 -2.4
v 2.6 3.2 -2.4
v 2.7 3.2 -2.4
v 0.9 3.2 -2.5
v 1 3.2 -2.5
v 1.1 3.2 -2.5
v 2.4 3.2 -2.5
v 2.5 3.2 -2.5
v 2.6 3.2 -2.5
v 1 3.2 -2.6
v 1.1 3.2 -2.6
v 1.2 3.2 -2.6
v 2.3 3.2 -2.6
v 2.4 3.2 -2.6
v 2.5 3.2 -2.6
v 1.1 3.2 -2.7
v 1.2 3.2 -2.7
v 1.3 3.2 -2.7
v 2.2 3.2 -2.7
v 2.3 3.2 -2.7
v 2.4 3.2 -2.7
v 1.2 3.2 -2.8
v 1.3 3.2 -2.8
v 2.2 3.2 -2.8
v 2.3 3.2 -2.8
v 1.3 3.2 -2.9
v 2.2 3.2 -2.9
v 1.3 3.5 -1.1
v 2.2 3.5 -1.1
v 1.2 3.5 -1.2
v 1.3 3.5 -1.2
v 2.2 3.5 -1.2
v 2.3 3.5 -1.2
v 1.1 3.5 -1.3
v 1.2 3.5 -1.3
v 1.3 3.5 -1.3
v 2.2 3.5 -1.3
v 2.3 3.5 -1.3
v 2.4 3.5 -1.3
v 1 3.5 -1.4
v 1.1 3.5 -1.4
v 1.2 3.5 -1.4
v 1.3 3.5 -1.4
v 2.2 3.5 -1.4
v 2.3 3.5 -1.4
v 2.4 3.5 -1.4
v 2.5 3.5 -1.4
v 0.9 3.5 -1.5
v 1 3.5 -1.5
v 1.1 3.5 -1.5
v 1.2 3.5 -1.5
v 2.3 3.5 -1.5
v 2.4 3.5 -1.5
v 2.5 3.5 -1.5
v 2.6 3.5 -1.5
v 1.6 3.5 -1.6
v 1.7 3.5 -1.6
v 1.8 3.5 -1.6
v 1.9 3.5 -1.6
v 1.6 3.5 -1.7
v 1.7 3.5 -1.7
v 1.8 3.5 -1.7
v 1.9 3.5 -1.7
v 1.4 3.5 -1.8
v 1.5 3.5 -1.8
v 1.6 3.5 -1.8
v 1.9 3.5 -1.8
v 2 3.5 -1.8
v 2.1 3.5 -1.8
v 1.4 3.5 -1.9
v 1.5 3.5 -1.9
v 1.7 3.5 -1.9
v 1.8 3.5 -1.9
v 2 3.5 -1.9
v 2.1 3.5 -1.9
v 1.4 3.5 -2
v 1.5 3.5 -2
v 1.7 3.5 -2
v 1.8 3.5 -2
v 2 3.5 -2
v 2.1 3.5 -2
v 1.4 3.5 -2.1
v 1.5 3.5 -2.1
v 1.6 3.5 -2.1
v 1.9 3.5 -2.1
v 2 3.5 -2.1
v 2.1 3.5 -2.1
v 1.6 3.5 -2.2
v 1.7 3.5 -2.2
v 1.8 3.5 -2.2
v 1.9 3.5 -2.2
v 1.6 3.5 -2.3
v 1.7 3.5 -2.3
v 0.9 3.5 -2.4
v 1 3.5 -2.4
v 1.1 3.5 -2.4
v 1.2 3.5 -2.4
v 2.3 3.5 -2.4
v 2.4 3.5 -2.4
v 2.5 3.5 -2.4
v 2.6 3.5 -2.4
v 1 3.5 -2.5
v 1.1 3.5 -2.5
v 1.2 3.5 -2.5
v 1.3 3.5 -2.5
v 2.2 3.5 -2.5
v 2.3 3.5 -2.5
v 2.4 3.5 -2.5
v 2.5 3.5 -2.5
v 1.1 3.5 -2.6
v 1.2 3.5 -2.6
v 1.3 3.5 -2.6
v 2.2 3.5 -2.6
v 2.3 3.5 -2.6
v 2.4 3.5 -2.6
v 1.2 3.5 -2.7
v 1.3 3.5 -2.7
v 2.2 3.5 -2.7
v 2.3 3.5 -2.7
v 1.3 3.5 -2.8
v 2.2 3.5 -2.8
v 1.6 3.6 -1.2
v 1.9 3.6 -1.2
v 1.6 3.6 -1.3
v 1.9 3.6 -1.3
v 1 3.6 -1.8
v 1.1 3.6 -1.8
v 1.4 3.6 -1.8
v 1.5 3.6 -1.8
v 1.6 3.6 -1.8
v 1.7 3.6 -1.8
v 1.8 3.6 -1.8
v 1.9 3.6 -1.8
v 2.4 3.6 -1.8
v 2.5 3.6 -1.8
v 1.4 3.6 -1.9
v 1.5 3.6 -1.9
v 1.6 3.6 -1.9
v 1.7 3.6 -1.9
v 1.8 3.6 -1.9
v 1.9 3.6 -1.9
v 1.6 3.6 -2
v 1.7 3.6 -2
v 1.8 3.6 -2
v 1.9 3.6 -2
v 1 3.6 -2.1
v 1.1 3.6 -2.1
v 1.6 3.6 -2.1
v 1.7 3.6 -2.1
v 1.8 3.6 -2.1
v 1.9 3.6 -2.1
v 2.4 3.6 -2.1
v 2.5 3.6 -2.1
v 1.6 3.6 -2.6
v 1.9 3.6 -2.6
v 1.6 3.6 -2.7
v 1.9 3.6 -2.7
v 1.5 3.7 -1.2
v 1.6 3.7 -1.2
v 1.9 3.7 -1.2
v 2 3.7 -1.2
v 1.5 3.7 -1.3
v 1.6 3.7 -1.3
v 1.9 3.7 -1.3
v 2 3.7 -1.3
v 1 3.7 -1.7
v 1.1 3.7 -1.7
v 2.4 3.7 -1.7
v 2.5 3.7 -1.7
v 1 3.7 -1.8
v 1.1 3.7 -1.8
v 2.4 3.7 -1.8
v 2.5 3.7 -1.8
v 1 3.7 -2.1
v 1.1 3.7 -2.1
v 2.4 3.7 -2.1
v 2.5 3.7 -2.1
v 1 3.7 -2.2
v 1.1 3.7 -2.2
v 1.6 3.7 -2.2
v 1.7 3.7 -2.2
v 2.4 3.7 -2.2
v 2.5 3.7 -2.2
v 1.6 3.7 -2.3
v 1.7 3.7 -2.3
v 1.5 3.7 -2.6
v 1.6 3.7 -2.6
v 1.9 3.7 -2.6
v 2 3.7 -2.6
v 1.5 3.7 -2.7
v 1.6 3.7 -2.7
v 1.9 3.7 -2.7
v 2 3.7 -2.7
v 1.3 3.8 -1.2
v 1.5 3.8 -1.2
v 2 3.8 -1.2
v 2.2 3.8 -1.2
v 1.2 3.8 -1.3
v 1.3 3.8 -1.3
v 1.5 3.8 -1.3
v 2 3.8 -1.3
v 2.2 3.8 -1.3
v 2.3 3.8 -1.3
v 1.1 3.8 -1.4
v 1.2 3.8 -1.4
v 1.3 3.8 -1.4
v 2.2 3.8 -1.4
v 2.3 3.8 -1.4
v 2.4 3.8 -1.4
v 1 3.8 -1.5
v 1.1 3.8 -1.5
v 1.2 3.8 -1.5
v 2.3 3.8 -1.5
v 2.4 3.8 -1.5
v 2.5 3.8 -1.5
v 1 3.8 -1.7
v 1.1 3.8 -1.7
v 2.4 3.8 -1.7
v 2.5 3.8 -1.7
v 1 3.8 -2.2
v 1.1 3.8 -2.2
v 2.4 3.8 -2.2
v 2.5 3.8 -2.2
v 1 3.8 -2.4
v 1.1 3.8 -2.4
v 1.2 3.8 -2.4
v 2.3 3.8 -2.4
v 2.4 3.8 -2.4
v 2.5 3.8 -2.4
v 1.1 3.8 -2.5
v 1.2 3.8 -2.5
v 1.3 3.8 -2.5
v 2.2 3.8 -2.5
v 2.3 3.8 -2.5
v 2.4 3.8 -2.5
v 1.2 3.8 -2.6
v 1.3 3.8 -2.6
v 1.5 3.8 -2.6
v 2 3.8 -2.6
v 2.2 3.8 -2.6
v 2.3 3.8 -2.6
v 1.3 3.8 -2.7
v 1.5 3.8 -2.7
v 2 3.8 -2.7
v 2.2 3.8 -2.7
v 1.6 3.9 -1.6
v 1.7 3.9 -1.6
v 1.8 3.9 -1.6
v 1.9 3.9 -1.6
v 1.4 3.9 -1.8
v 1.6 3.9 -1.8
v 1.7 3.9 -1.8
v 1.8 3.9 -1.8
v 1.9 3.9 -1.8
v 2.1 3.9 -1.8
v 1.4 3.9 -1.9
v 1.6 3.9 -1.9
v 1.9 3.9 -1.9
v 2.1 3.9 -1.9
v 1.4 3.9 -2
v 1.6 3.9 -2
v 1.9 3.9 -2
v 2.1 3.9 -2
v 1.4 3.9 -2.1
v 1.6 3.9 -2.1
v 1.7 3.9 -2.1
v 1.8 3.9 -2.1
v 1.9 3.9 -2.1
v 2.1 3.9 -2.1
v 1.6 3.9 -2.3
v 1.7 3.9 -2.3
v 1.8 3.9 -2.3
v 1.9 3.9 -2.3
v 1.6 4.2 -2.1
v 1.7 4.2 -2.1
v 1.6 4.2 -2.2
v 1.7 4.2 -2.2
v 1.7 4.3 -1.7
v 1.8 4.3 -1.7
v 1.7 4.3 -1.8
v 1.8 4.3 -1.8
v 1.7 4.3 -1.9
v 1.8 4.3 -1.9
v 1.9 4.3 -1.9
v 1.6 4.3 -2
v 1.7 4.3 -2
v 1.9 4.3 -2
v 2 4.3 -2
v 1.6 4.3 -2.1
v 1.7 4.3 -2.1
v 1.9 4.3 -2.1
v 2 4.3 -2.1
v 1.7 4.4 -1.8
v 1.8 4.4 -1.8
v 1.7 4.4 -1.9
v 1.8 4.4 -1.9

# faces
f 3/1/1 2/1/1 1/1/1
f 4/1/1 2/1/1 3/1/1
f 9/1/1 6/1/1 5/1/1
f 10/1/1 6/1/1 9/1/1
f 11/1/1 8/1/1 7/1/1
f 12/1/1 8/1/1 11/1/1
f 16/1/1 14/1/1 13/1/1
f 17/1/1 16/1/1 15/1/1
f 18/1/1 14/1/1 16/1/1
f 18/1/1 16/1/1 17/1/1
f 23/1/1 20/1/1 19/1/1
f 24/1/1 20/1/1 23/1/1
f 25/1/1 22/1/1 21/1/1
f 26/1/1 22/1/1 25/1/1
f 31/1/1 28/1/1 27/1/1
f 32/1/1 28/1/1 31/1/1
f 33/1/1 31/1/1 27/1/1
f 34/1/1 31/1/1 33/1/1
f 35/1/1 30/1/1 29/1/1
f 36/1/1 30/1/1 35/1/1
f 37/1/1 35/1/1 34/1/1
f 38/1/1 35/1/1 37/1/1
f 43/1/1 40/1/1 39/1/1
f 44/1/1 40/1/1 43/1/1
f 45/1/1 42/1/1 41/1/1
f 46/1/1 42/1/1 45/1/1
f 51/1/1 48/1/1 47/1/1
f 52/1/1 48/1/1 51/1/1
f 55/1/1 50/1/1 49/1/1
f 56/1/1 50/1/1 55/1/1
f 59/1/1 54/1/1 53/1/1
f 60/1/1 54/1/1 59/1/1
f 61/1/1 57/1/1 56/1/1
f 62/1/1 57/1/1 61/1/1
f 63/1/1 59/1/1 58/1/1
f 64/1/1 59/1/1 63/1/1
f 65/1/1 63/1/1 62/1/1
f 66/1/1 63/1/1 65/1/1
f 67/1/1 65/1/1 62/1/1
f 68/1/1 65/1/1 67/1/1
f 69/1/1 63/1/1 66/1/1
f 70/1/1 63/1/1 69/1/1
f 71/1/1 67/1/1 62/1/1
f 72/1/1 67/1/1 71/1/1
f 73/1/1 63/1/1 70/1/1
f 74/1/1 63/1/1 73/1/1
f 79/1/1 76/1/1 75/1/1
f 80/1/1 76/1/1 79/1/1
f 81/1/1 78/1/1 77/1/1
f 82/1/1 78/1/1 81/1/1
f 86/1/1 84/1/1 83/1/1
f 87/1/1 84/1/1 86/1/1
f 91/1/1 86/1/1 85/1/1
f 92/1/1 86/1/1 91/1/1
f 93/1/1 88/1/1 87/1/1
f 94/1/1 88/1/1 93/1/1
f 97/1/1 90/1/1 89/1/1
f 98/1/1 90/1/1 97/1/1
f 101/1/1 96/1/1 95/1/1
f 102/1/1 96/1/1 101/1/1
f 103/1/1 99/1/1 98/1/1
f 104/1/1 99/1/1 103/1/1
f 107/1/1 101/1/1 100/1/1
f 108/1/1 101/1/1 107/1/1
f 109/1/1 105/1/1 104/1/1
f 110/1/1 105/1/1 109/1/1
f 111/1/1 107/1/1 106/1/1
f 112/1/1 107/1/1 111/1/1
f 117/1/1 114/1/1 113/1/1
f 118/1/1 114/1/1 117/1/1
f 121/1/1 116/1/1 115/1/1
f 122/1/1 116/1/1 121/1/1
f 124/1/1 120/1/1 119/1/1
f 125/1/1 120/1/1 124/1/1
f 128/1/1 124/1/1 123/1/1
f 129/1/1 124/1/1 128/1/1
f 130/1/1 126/1/1 125/1/1
f 131/1/1 126/1/1 130/1/1
f 135/1/1 128/1/1 127/1/1
f 136/1/1 128/1/1 135/1/1
f 137/1/1 132/1/1 131/1/1
f 138/1/1 132/1/1 137/1/1
f 141/1/1 134/1/1 133/1/1
f 142/1/1 134/1/1 141/1/1
f 145/1/1 140/1/1 139/1/1
f 146/1/1 140/1/1 145/1/1
f 147/1/1 143/1/1 142/1/1
f 148/1/1 143/1/1 147/1/1
f 151/1/1 145/1/1 144/1/1
f 152/1/1 145/1/1 151/1/1
f 153/1/1 149/1/1 148/1/1
f 154/1/1 149/1/1 153/1/1
f 155/1/1 151/1/1 150/1/1
f 156/1/1 151/1/1 155/1/1
f 163/1/1 158/1/1 157/1/1
f 164/1/1 158/1/1 163/1/1
f 165/1/1 160/1/1 159/1/1
f 166/1/1 160/1/1 165/1/1
f 170/1/1 162/1/1 161/1/1
f 171/1/1 162/1/1 170/1/1
f 172/1/1 168/1/1 167/1/1
f 173/1/1 168/1/1 172/1/1
f 175/1/1 170/1/1 169/1/1
f 176/1/1 170/1/1 175/1/1
f 177/1/1 174/1/1 173/1/1
f 178/1/1 174/1/1 177/1/1
f 183/1/1 182/1/1 181/1/1
f 184/1/1 182/1/1 183/1/1
f 187/1/1 180/1/1 179/1/1
f 188/1/1 180/1/1 187/1/1
f 189/1/1 185/1/1 184/1/1
f 190/1/1 185/1/1 189/1/1
f 193/1/1 187/1/1 186/1/1
f 194/1/1 187/1/1 193/1/1
f 195/1/1 191/1/1 190/1/1
f 196/1/1 191/1/1 195/1/1
f 197/1/1 193/1/1 192/1/1
f 198/1/1 193/1/1 197/1/1
f 203/1/1 200/1/1 199/1/1
f 204/1/1 200/1/1 203/1/1
f 209/1/1 202/1/1 201/1/1
f 210/1/1 202/1/1 209/1/1
f 211/1/1 206/1/1 205/1/1
f 212/1/1 206/1/1 211/1/1
f 213/1/1 208/1/1 207/1/1
f 214/1/1 208/1/1 213/1/1
f 217/1/1 216/1/1 215/1/1
f 218/1/1 216/1/1 217/1/1
f 223/5/1 220/5/1 219/5/1
f 224/5/1 220/5/1 223/5/1
f 227/5/1 226/5/1 225/5/1
f 228/5/1 226/5/1 227/5/1
f 229/5/1 222/5/1 221/5/1
f 230/5/1 222/5/1 229/5/1
f 236/1/1 232/1/1 231/1/1
f 237/1/1 232/1/1 236/1/1
f 238/1/1 234/1/1 233/1/1
f 239/1/1 234/1/1 238/1/1
f 242/1/1 236/1/1 235/1/1
f 243/1/1 236/1/1 242/1/1
f 244/1/1 240/1/1 239/1/1
f 245/1/1 240/1/1 244/1/1
f 247/1/1 242/1/1 241/1/1
f 248/1/1 242/1/1 247/1/1
f 249/1/1 246/1/1 245/1/1
f 250/1/1 246/1/1 249/1/1
f 253/4/1 252/4/1 251/4/1
f 254/4/1 252/4/1 253/4/1
f 261/5/1 256/5/1 255/5/1
f 261/4/1 257/4/1 256/4/1
f 262/4/1 257/4/1 261/4/1
f 263/5/1 260/5/1 259/5/1
f 263/4/1 259/4/1 258/4/1
f 264/5/1 260/5/1 263/5/1
f 265/2/1 262/2/1 261/2/1
f 265/5/1 261/5/1 255/5/1
f 266/2/1 262/2/1 265/2/1
f 267/4/1 263/4/1 258/4/1
f 268/4/1 263/4/1 267/4/1
f 270/5/1 266/5/1 265/5/1
f 270/5/1 265/5/1 255/5/1
f 271/5/1 266/5/1 270/5/1
f 272/5/1 269/5/1 268/5/1
f 272/5/1 268/5/1 267/5/1
f 273/5/1 269/5/1 272/5/1
f 277/5/1 275/5/1 274/5/1
f 278/5/1 275/5/1 277/5/1
f 279/5/1 277/5/1 276/5/1
f 280/5/1 277/5/1 279/5/1
f 283/5/1 282/5/1 281/5/1
f 284/5/1 282/5/1 283/5/1
f 287/5/1 284/5/1 283/5/1
f 288/5/1 286/5/1 285/5/1
f 289/5/1 286/5/1 288/5/1
f 290/5/1 287/5/1 283/5/1
f 291/5/1 287/5/1 290/5/1
f 292/5/1 290/5/1 289/5/1
f 293/5/1 290/5/1 292/5/1
f 299/4/1 296/4/1 295/4/1
f 300/4/1 296/4/1 299/4/1
f 301/4/1 298/4/1 297/4/1
f 302/4/1 298/4/1 301/4/1
f 303/4/1 298/4/1 302/4/1
f 305/5/1 295/5/1 294/5/1
f 305/4/1 299/4/1 295/4/1
f 306/4/1 299/4/1 305/4/1
f 307/4/1 303/4/1 302/4/1
f 308/5/1 304/5/1 303/5/1
f 308/4/1 303/4/1 307/4/1
f 309/5/1 306/5/1 305/5/1
f 309/5/1 305/5/1 294/5/1
f 310/5/1 306/5/1 309/5/1
f 311/5/1 308/5/1 307/5/1
f 312/5/1 304/5/1 308/5/1
f 312/5/1 308/5/1 311/5/1
f 321/1/1 314/1/1 313/1/1
f 322/1/1 314/1/1 321/1/1
f 323/1/1 320/1/1 319/1/1
f 324/1/1 320/1/1 323/1/1
f 325/4/1 316/4/1 315/4/1
f 326/4/1 316/4/1 325/4/1
f 327/4/1 318/4/1 317/4/1
f 328/4/1 318/4/1 327/4/1
f 329/5/1 326/5/1 325/5/1
f 330/5/1 326/5/1 329/5/1
f 331/5/1 328/5/1 327/5/1
f 332/5/1 328/5/1 331/5/1
f 335/5/1 334/5/1 333/5/1
f 336/5/1 334/5/1 335/5/1
f 337/5/1 334/5/1 336/5/1
f 342/1/1 339/1/1 338/1/1
f 343/1/1 339/1/1 342/1/1
f 344/1/1 341/1/1 340/1/1
f 345/1/1 341/1/1 344/1/1
f 350/1/1 347/1/1 346/1/1
f 351/1/1 347/1/1 350/1/1
f 352/1/1 349/1/1 348/1/1
f 353/1/1 349/1/1 352/1/1
f 358/1/1 355/1/1 354/1/1
f 359/1/1 355/1/1 358/1/1
f 360/1/1 357/1/1 356/1/1
f 361/1/1 357/1/1 360/1/1
f 364/1/1 363/1/1 362/1/1
f 365/1/1 363/1/1 364/1/1
f 366/1/1 364/1/1 362/1/1
f 367/1/1 364/1/1 366/1/1
f 368/1/1 363/1/1 365/1/1
f 369/1/1 363/1/1 368/1/1
f 370/1/1 366/1/1 362/1/1
f 371/1/1 366/1/1 370/1/1
f 372/1/1 363/1/1 369/1/1
f 373/1/1 363/1/1 372/1/1
f 374/1/2 375/1/2 376/1/2
f 376/1/2 375/1/2 377/1/2
f 374/1/2 376/1/2 378/1/2
f 378/1/2 376/1/2 379/1/2
f 377/1/2 375/1/2 380/1/2
f 380/1/2 375/1/2 381/1/2
f 374/1/2 378/1/2 382/1/2
f 382/1/2 378/1/2 383/1/2
f 381/1/2 375/1/2 384/1/2
f 384/1/2 375/1/2 385/1/2
f 386/1/2 387/1/2 390/1/2
f 390/1/2 387/1/2 391/1/2
f 388/1/2 389/1/2 392/1/2
f 392/1/2 389/1/2 393/1/2
f 394/1/2 395/1/2 398/1/2
f 398/1/2 395/1/2 399/1/2
f 396/1/2 397/1/2 400/1/2
f 400/1/2 397/1/2 401/1/2
f 402/1/2 403/1/2 406/1/2
f 406/1/2 403/1/2 407/1/2
f 404/1/2 405/1/2 408/1/2
f 408/1/2 405/1/2 409/1/2
f 410/1/2 411/1/2 418/1/2
f 418/1/2 411/1/2 419/1/2
f 412/4/2 413/4/2 420/4/2
f 420/4/2 413/4/2 421/4/2
f 416/1/2 417/1/2 422/1/2
f 422/1/2 417/1/2 423/1/2
f 420/2/2 421/2/2 424/2/2
f 424/2/2 421/2/2 425/2/2
f 414/4/2 415/4/2 426/4/2
f 426/4/2 415/4/2 427/4/2
f 424/5/2 425/5/2 428/5/2
f 428/5/2 425/5/2 429/5/2
f 426/5/2 427/5/2 430/5/2
f 430/5/2 427/5/2 431/5/2
f 433/4/2 434/4/2 438/4/2
f 438/4/2 434/4/2 439/4/2
f 435/4/2 436/4/2 440/4/2
f 440/4/2 436/4/2 441/4/2
f 432/5/2 433/5/2 442/5/2
f 433/4/2 438/4/2 442/4/2
f 442/4/2 438/4/2 443/4/2
f 441/4/2 436/4/2 444/4/2
f 436/5/2 437/5/2 444/5/2
f 444/5/2 437/5/2 445/5/2
f 442/2/2 443/2/2 446/2/2
f 432/5/2 442/5/2 446/5/2
f 446/2/2 443/2/2 447/2/2
f 441/4/2 444/4/2 448/4/2
f 448/4/2 444/4/2 449/4/2
f 446/5/2 447/5/2 451/5/2
f 432/5/2 446/5/2 451/5/2
f 451/5/2 447/5/2 452/5/2
f 449/5/2 450/5/2 453/5/2
f 448/5/2 449/5/2 453/5/2
f 453/5/2 450/5/2 454/5/2
f 455/5/2 456/5/2 458/5/2
f 458/5/2 456/5/2 459/5/2
f 457/5/2 458/5/2 460/5/2
f 460/5/2 458/5/2 461/5/2
f 462/5/2 463/5/2 464/5/2
f 464/5/2 463/5/2 465/5/2
f 464/5/2 465/5/2 468/5/2
f 468/5/2 465/5/2 469/5/2
f 466/5/2 467/5/2 470/5/2
f 470/5/2 467/5/2 471/5/2
f 471/5/2 472/5/2 473/5/2
f 473/5/2 472/5/2 474/5/2
f 478/4/2 479/4/2 480/4/2
f 475/5/2 476/5/2 482/5/2
f 476/4/2 477/4/2 482/4/2
f 482/4/2 477/4/2 483/4/2
f 478/4/2 480/4/2 484/4/2
f 480/5/2 481/5/2 485/5/2
f 484/4/2 480/4/2 485/4/2
f 482/5/2 483/5/2 486/5/2
f 475/5/2 482/5/2 486/5/2
f 486/5/2 483/5/2 487/5/2
f 484/5/2 485/5/2 488/5/2
f 485/5/2 481/5/2 489/5/2
f 488/5/2 485/5/2 489/5/2
f 490/5/2 491/5/2 492/5/2
f 492/5/2 491/5/2 493/5/2
f 494/1/2 495/1/2 499/1/2
f 499/1/2 495/1/2 500/1/2
f 496/1/2 497/1/2 501/1/2
f 501/1/2 497/1/2 502/1/2
f 498/1/2 499/1/2 505/1/2
f 505/1/2 499/1/2 506/1/2
f 502/1/2 503/1/2 507/1/2
f 507/1/2 503/1/2 508/1/2
f 504/1/2 505/1/2 510/1/2
f 510/1/2 505/1/2 511/1/2
f 508/1/2 509/1/2 512/1/2
f 512/1/2 509/1/2 513/1/2
f 514/5/2 515/5/2 516/5/2
f 516/5/2 515/5/2 517/5/2
f 518/1/2 519/1/2 522/1/2
f 522/1/2 519/1/2 523/1/2
f 520/1/2 521/1/2 528/1/2
f 528/1/2 521/1/2 529/1/2
f 524/1/2 525/1/2 530/1/2
f 530/1/2 525/1/2 531/1/2
f 526/1/2 527/1/2 532/1/2
f 532/1/2 527/1/2 533/1/2
f 534/1/2 535/1/2 538/1/2
f 538/1/2 535/1/2 539/1/2
f 536/1/2 537/1/2 540/1/2
f 540/1/2 537/1/2 541/1/2
f 542/5/2 543/5/2 546/5/2
f 546/5/2 543/5/2 547/5/2
f 544/5/2 545/5/2 548/5/2
f 548/5/2 545/5/2 549/5/2
f 550/1/2 551/1/2 556/1/2
f 556/1/2 551/1/2 557/1/2
f 552/1/2 553/1/2 558/1/2
f 558/1/2 553/1/2 559/1/2
f 554/1/2 555/1/2 563/1/2
f 563/1/2 555/1/2 564/1/2
f 560/1/2 561/1/2 565/1/2
f 565/1/2 561/1/2 566/1/2
f 562/1/2 563/1/2 568/1/2
f 568/1/2 563/1/2 569/1/2
f 566/1/2 567/1/2 570/1/2
f 570/1/2 567/1/2 571/1/2
f 572/1/2 573/1/2 576/1/2
f 576/1/2 573/1/2 577/1/2
f 574/1/2 575/1/2 580/1/2
f 580/1/2 575/1/2 581/1/2
f 577/1/2 578/1/2 582/1/2
f 582/1/2 578/1/2 583/1/2
f 579/1/2 580/1/2 586/1/2
f 586/1/2 580/1/2 587/1/2
f 583/1/2 584/1/2 588/1/2
f 588/1/2 584/1/2 589/1/2
f 585/1/2 586/1/2 590/1/2
f 590/1/2 586/1/2 591/1/2
f 592/1/2 593/1/2 596/1/2
f 596/1/2 593/1/2 597/1/2
f 594/1/2 595/1/2 600/1/2
f 600/1/2 595/1/2 601/1/2
f 598/1/2 599/1/2 603/1/2
f 603/1/2 599/1/2 604/1/2
f 602/1/2 603/1/2 607/1/2
f 607/1/2 603/1/2 608/1/2
f 604/1/2 605/1/2 609/1/2
f 609/1/2 605/1/2 610/1/2
f 606/1/2 607/1/2 614/1/2
f 614/1/2 607/1/2 615/1/2
f 610/1/2 611/1/2 616/1/2
f 616/1/2 611/1/2 617/1/2
f 612/1/2 613/1/2 620/1/2
f 620/1/2 613/1/2 621/1/2
f 618/1/2 619/1/2 624/1/2
f 624/1/2 619/1/2 625/1/2
f 621/1/2 622/1/2 626/1/2
f 626/1/2 622/1/2 627/1/2
f 623/1/2 624/1/2 630/1/2
f 630/1/2 624/1/2 631/1/2
f 627/1/2 628/1/2 632/1/2
f 632/1/2 628/1/2 633/1/2
f 629/1/2 630/1/2 634/1/2
f 634/1/2 630/1/2 635/1/2
f 636/1/2 637/1/2 640/1/2
f 640/1/2 637/1/2 641/1/2
f 638/1/2 639/1/2 642/1/2
f 642/1/2 639/1/2 643/1/2
f 644/1/2 645/1/2 647/1/2
f 647/1/2 645/1/2 648/1/2
f 646/1/2 647/1/2 652/1/2
f 652/1/2 647/1/2 653/1/2
f 648/1/2 649/1/2 654/1/2
f 654/1/2 649/1/2 655/1/2
f 650/1/2 651/1/2 658/1/2
f 658/1/2 651/1/2 659/1/2
f 656/1/2 657/1/2 662/1/2
f 662/1/2 657/1/2 663/1/2
f 659/1/2 660/1/2 664/1/2
f 664/1/2 660/1/2 665/1/2
f 661/1/2 662/1/2 668/1/2
f 668/1/2 662/1/2 669/1/2
f 665/1/2 666/1/2 670/1/2
f 670/1/2 666/1/2 671/1/2
f 667/1/2 668/1/2 672/1/2
f 672/1/2 668/1/2 673/1/2
f 674/1/2 675/1/2 678/1/2
f 678/1/2 675/1/2 679/1/2
f 676/1/2 677/1/2 680/1/2
f 680/1/2 677/1/2 681/1/2
f 682/1/2 683/1/2 686/1/2
f 686/1/2 683/1/2 687/1/2
f 684/1/2 685/1/2 690/1/2
f 690/1/2 685/1/2 691/1/2
f 688/1/2 689/1/2 694/1/2
f 694/1/2 689/1/2 695/1/2
f 691/1/2 692/1/2 696/1/2
f 696/1/2 692/1/2 697/1/2
f 693/1/2 694/1/2 698/1/2
f 698/1/2 694/1/2 699/1/2
f 697/1/2 698/1/2 700/1/2
f 700/1/2 698/1/2 701/1/2
f 697/1/2 700/1/2 702/1/2
f 702/1/2 700/1/2 703/1/2
f 701/1/2 698/1/2 704/1/2
f 704/1/2 698/1/2 705/1/2
f 697/1/2 702/1/2 706/1/2
f 706/1/2 702/1/2 707/1/2
f 705/1/2 698/1/2 708/1/2
f 708/1/2 698/1/2 709/1/2
f 710/1/2 711/1/2 714/1/2
f 714/1/2 711/1/2 715/1/2
f 712/1/2 713/1/2 716/1/2
f 716/1/2 713/1/2 717/1/2
f 718/1/2 719/1/2 722/1/2
f 722/1/2 719/1/2 723/1/2
f 720/1/2 721/1/2 724/1/2
f 724/1/2 721/1/2 725/1/2
f 718/1/2 722/1/2 726/1/2
f 726/1/2 722/1/2 727/1/2
f 725/1/2 721/1/2 728/1/2
f 728/1/2 721/1/2 729/1/2
f 727/1/2 728/1/2 730/1/2
f 730/1/2 728/1/2 731/1/2
f 732/1/2 733/1/2 736/1/2
f 736/1/2 733/1/2 737/1/2
f 734/1/2 735/1/2 738/1/2
f 738/1/2 735/1/2 739/1/2
f 740/1/2 741/1/2 743/1/2
f 743/1/2 741/1/2 744/1/2
f 742/1/2 743/1/2 746/1/2
f 744/1/2 745/1/2 746/1/2
f 743/1/2 744/1/2 746/1/2
f 746/1/2 745/1/2 747/1/2
f 748/1/2 749/1/2 750/1/2
f 750/1/2 749/1/2 751/1/2
f 754/1/3 753/1/3 752/1/3
f 755/1/3 753/1/3 754/1/3
f 760/1/3 757/1/3 756/1/3
f 761/1/3 757/1/3 760/1/3
f 763/1/3 759/1/3 758/1/3
f 766/1/3 763/1/3 762/1/3
f 767/1/3 759/1/3 763/1/3
f 767/1/3 763/1/3 766/1/3
f 768/1/3 759/1/3 767/1/3
f 769/1/3 759/1/3 768/1/3
f 770/1/3 765/1/3 764/1/3
f 771/1/3 765/1/3 770/1/3
f 774/1/3 773/1/3 772/1/3
f 775/1/3 773/1/3 774/1/3
f 778/1/3 777/1/3 776/1/3
f 779/1/3 777/1/3 778/1/3
f 781/1/3 778/1/3 776/1/3
f 782/1/3 778/1/3 781/1/3
f 785/1/3 784/1/3 783/1/3
f 786/1/3 780/1/3 779/1/3
f 787/1/3 780/1/3 786/1/3
f 790/1/3 785/1/3 783/1/3
f 790/1/3 786/1/3 785/1/3
f 791/1/3 786/1/3 790/1/3
f 792/1/3 789/1/3 788/1/3
f 793/1/3 789/1/3 792/1/3
f 796/1/3 795/1/3 794/1/3
f 797/1/3 795/1/3 796/1/3
f 800/1/3 799/1/3 798/1/3
f 801/1/3 799/1/3 800/1/3
f 803/1/3 802/1/3 801/1/3
f 804/1/3 802/1/3 803/1/3
f 808/1/3 805/1/3 804/1/3
f 809/1/3 805/1/3 808/1/3
f 810/1/3 808/1/3 804/1/3
f 811/1/3 808/1/3 810/1/3
f 812/1/3 810/1/3 804/1/3
f 814/1/3 807/1/3 806/1/3
f 815/1/3 807/1/3 814/1/3
f 816/1/3 813/1/3 812/1/3
f 819/1/3 817/1/3 816/1/3
f 819/1/3 816/1/3 812/1/3
f 819/1/3 812/1/3 804/1/3
f 820/1/3 817/1/3 819/1/3
f 822/1/3 819/1/3 818/1/3
f 823/1/3 819/1/3 822/1/3
f 826/1/3 822/1/3 821/1/3
f 827/1/3 822/1/3 826/1/3
f 828/1/3 825/1/3 824/1/3
f 829/1/3 825/1/3 828/1/3
f 832/1/3 831/1/3 830/1/3
f 833/1/3 831/1/3 832/1/3
f 836/1/3 835/1/3 834/1/3
f 837/1/3 835/1/3 836/1/3
f 839/1/3 838/1/3 837/1/3
f 840/1/3 838/1/3 839/1/3
f 844/1/3 841/1/3 840/1/3
f 845/1/3 841/1/3 844/1/3
f 847/1/3 843/1/3 842/1/3
f 848/1/3 843/1/3 847/1/3
f 849/1/3 847/1/3 846/1/3
f 850/1/3 847/1/3 849/1/3
f 852/1/3 851/1/3 850/1/3
f 853/1/3 851/1/3 852/1/3
f 857/1/3 855/1/3 854/1/3
f 858/1/3 855/1/3 857/1/3
f 860/1/3 857/1/3 856/1/3
f 861/1/3 857/1/3 860/1/3
f 864/1/3 860/1/3 859/1/3
f 865/1/3 860/1/3 864/1/3
f 866/1/3 863/1/3 862/1/3
f 867/1/3 863/1/3 866/1/3
f 870/1/3 869/1/3 868/1/3
f 871/1/3 869/1/3 870/1/3
f 874/1/3 873/1/3 872/1/3
f 875/1/3 873/1/3 874/1/3
f 877/1/3 876/1/3 875/1/3
f 878/1/3 876/1/3 877/1/3
f 882/1/3 879/1/3 878/1/3
f 883/1/3 879/1/3 882/1/3
f 885/1/3 881/1/3 880/1/3
f 886/1/3 881/1/3 885/1/3
f 888/1/3 885/1/3 884/1/3
f 889/1/3 885/1/3 888/1/3
f 890/1/3 888/1/3 887/1/3
f 891/1/3 888/1/3 890/1/3
f 893/1/3 892/1/3 891/1/3
f 894/1/3 892/1/3 893/1/3
f 896/1/3 895/1/3 894/1/3
f 897/1/3 895/1/3 896/1/3
f 901/1/3 899/1/3 898/1/3
f 902/1/3 899/1/3 901/1/3
f 904/1/3 901/1/3 900/1/3
f 905/1/3 901/1/3 904/1/3
f 908/1/3 904/1/3 903/1/3
f 909/1/3 904/1/3 908/1/3
f 910/1/3 907/1/3 906/1/3
f 911/1/3 907/1/3 910/1/3
f 914/1/3 913/1/3 912/1/3
f 915/1/3 913/1/3 914/1/3
f 917/1/3 916/1/3 915/1/3
f 918/1/3 916/1/3 917/1/3
f 922/1/3 919/1/3 918/1/3
f 923/1/3 919/1/3 922/1/3
f 925/1/3 921/1/3 920/1/3
f 926/1/3 921/1/3 925/1/3
f 927/1/3 925/1/3 924/1/3
f 928/1/3 925/1/3 927/1/3
f 931/1/3 930/1/3 929/1/3
f 932/1/3 930/1/3 931/1/3
f 935/1/3 934/1/3 933/1/3
f 936/1/3 934/1/3 935/1/3
f 939/1/3 938/1/3 937/1/3
f 940/1/3 938/1/3 939/1/3
f 942/1/3 941/1/3 940/1/3
f 943/1/3 941/1/3 942/1/3
f 947/1/3 945/1/3 944/1/3
f 948/1/3 945/1/3 947/1/3
f 950/1/3 947/1/3 946/1/3
f 951/1/3 947/1/3 950/1/3
f 952/1/3 950/1/3 949/1/3
f 953/1/3 950/1/3 952/1/3
f 956/1/3 955/1/3 954/1/3
f 957/1/3 955/1/3 956/1/3
f 960/1/3 959/1/3 958/1/3
f 961/1/3 959/1/3 960/1/3
f 964/1/3 963/1/3 962/1/3
f 965/1/3 963/1/3 964/1/3
f 968/5/3 967/5/3 966/5/3
f 969/5/3 967/5/3 968/5/3
f 972/5/3 971/5/3 970/5/3
f 973/5/3 971/5/3 972/5/3
f 976/1/3 975/1/3 974/1/3
f 977/1/3 975/1/3 976/1/3
f 982/1/3 979/1/3 978/1/3
f 983/1/3 979/1/3 982/1/3
f 984/1/3 981/1/3 980/1/3
f 985/1/3 981/1/3 984/1/3
f 989/1/3 987/1/3 986/1/3
f 990/1/3 987/1/3 989/1/3
f 992/1/3 989/1/3 988/1/3
f 993/1/3 989/1/3 992/1/3
f 994/1/3 992/1/3 991/1/3
f 995/1/3 992/1/3 994/1/3
f 998/5/3 997/5/3 996/5/3
f 999/5/3 997/5/3 998/5/3
f 1002/1/3 1001/1/3 1000/1/3
f 1003/1/3 1001/1/3 1002/1/3
f 1005/1/3 1004/1/3 1003/1/3
f 1006/1/3 1004/1/3 1005/1/3
f 1008/1/3 1007/1/3 1006/1/3
f 1009/1/3 1007/1/3 1008/1/3
f 1014/5/3 1011/5/3 1010/5/3
f 1015/5/3 1011/5/3 1014/5/3
f 1016/5/3 1013/5/3 1012/5/3
f 1017/5/3 1013/5/3 1016/5/3
f 1018/4/3 1015/4/3 1014/4/3
f 1018/4/3 1016/4/3 1015/4/3
f 1019/2/3 1017/2/3 1016/2/3
f 1019/4/3 1016/4/3 1018/4/3
f 1020/5/3 1013/5/3 1017/5/3
f 1020/2/3 1017/2/3 1019/2/3
f 1021/5/3 1013/5/3 1020/5/3
f 1024/5/3 1023/5/3 1022/5/3
f 1025/5/3 1023/5/3 1024/5/3
f 1029/4/3 1027/4/3 1026/4/3
f 1030/5/3 1028/5/3 1027/5/3
f 1030/4/3 1027/4/3 1029/4/3
f 1031/5/3 1030/5/3 1029/5/3
f 1032/5/3 1028/5/3 1030/5/3
f 1032/5/3 1030/5/3 1031/5/3
f 1036/5/3 1034/5/3 1033/5/3
f 1036/5/3 1035/5/3 1034/5/3
f 1037/5/3 1035/5/3 1036/5/3
f 1038/5/3 1035/5/3 1037/5/3
f 1039/5/3 1035/5/3 1038/5/3
f 1040/5/3 1039/5/3 1038/5/3
f 1041/5/3 1039/5/3 1040/5/3
f 1044/5/3 1043/5/3 1042/5/3
f 1045/5/3 1043/5/3 1044/5/3
f 1046/4/3 1045/4/3 1044/4/3
f 1047/5/3 1043/5/3 1045/5/3
f 1047/4/3 1045/4/3 1046/4/3
f 1048/5/3 1043/5/3 1047/5/3
f 1051/4/3 1046/4/3 1044/4/3
f 1052/4/3 1046/4/3 1051/4/3
f 1053/5/3 1050/5/3 1049/5/3
f 1054/5/3 1050/5/3 1053/5/3
f 1057/4/3 1056/4/3 1055/4/3
f 1063/4/3 1057/4/3 1055/4/3
f 1063/4/3 1058/4/3 1057/4/3
f 1064/5/3 1059/5/3 1058/5/3
f 1064/4/3 1058/4/3 1063/4/3
f 1065/5/3 1062/5/3 1061/5/3
f 1065/5/3 1061/5/3 1060/5/3
f 1066/5/3 1062/5/3 1065/5/3
f 1067/5/3 1064/5/3 1063/5/3
f 1068/5/3 1059/5/3 1064/5/3
f 1068/5/3 1064/5/3 1067/5/3
f 1071/1/3 1070/1/3 1069/1/3
f 1072/1/3 1070/1/3 1071/1/3
f 1078/4/3 1074/4/3 1073/4/3
f 1079/5/3 1075/5/3 1074/5/3
f 1079/4/3 1074/4/3 1078/4/3
f 1080/5/3 1075/5/3 1079/5/3
f 1081/5/3 1077/5/3 1076/5/3
f 1082/5/3 1077/5/3 1081/5/3
f 1086/4/3 1084/4/3 1083/4/3
f 1087/5/3 1085/5/3 1084/5/3
f 1087/4/3 1084/4/3 1086/4/3
f 1088/5/3 1085/5/3 1087/5/3
f 1091/1/3 1090/1/3 1089/1/3
f 1092/1/3 1090/1/3 1091/1/3
f 1095/1/3 1094/1/3 1093/1/3
f 1096/1/3 1094/1/3 1095/1/3
f 1099/1/3 1098/1/3 1097/1/3
f 1100/1/3 1098/1/3 1099/1/3
f 1103/1/3 1102/1/3 1101/1/3
f 1104/1/3 1102/1/3 1103/1/3
f 1107/1/3 1106/1/3 1105/1/3
f 1108/1/3 1106/1/3 1107/1/3
f 1111/1/3 1110/1/3 1109/1/3
f 1112/1/3 1110/1/3 1111/1/3
f 1115/1/3 1114/1/3 1113/1/3
f 1116/1/3 1114/1/3 1115/1/3
f 1119/1/3 1118/1/3 1117/1/3
f 1120/1/3 1118/1/3 1119/1/3
f 1121/1/3 1119/1/3 1117/1/3
f 1122/1/3 1119/1/3 1121/1/3
f 1123/1/3 1121/1/3 1117/1/3
f 1125/1/3 1124/1/3 1123/1/3
f 1127/1/3 1125/1/3 1123/1/3
f 1127/1/3 1126/1/3 1125/1/3
f 1127/1/3 1123/1/3 1117/1/3
f 1128/1/3 1126/1/3 1127/1/3
f 1129/1/4 1130/1/4 1131/1/4
f 1131/1/4 1130/1/4 1132/1/4
f 1129/1/4 1131/1/4 1133/1/4
f 1133/1/4 1131/1/4 1134/1/4
f 1129/1/4 1133/1/4 1135/1/4
f 1135/1/4 1136/1/4 1137/1/4
f 1135/1/4 1137/1/4 1139/1/4
f 1137/1/4 1138/1/4 1139/1/4
f 1129/1/4 1135/1/4 1139/1/4
f 1139/1/4 1138/1/4 1140/1/4
f 1141/1/4 1142/1/4 1143/1/4
f 1143/1/4 1142/1/4 1144/1/4
f 1145/1/4 1146/1/4 1147/1/4
f 1147/1/4 1146/1/4 1148/1/4
f 1149/1/4 1150/1/4 1151/1/4
f 1151/1/4 1150/1/4 1152/1/4
f 1153/1/4 1154/1/4 1155/1/4
f 1155/1/4 1154/1/4 1156/1/4
f 1157/1/4 1158/1/4 1159/1/4
f 1159/1/4 1158/1/4 1160/1/4
f 1161/1/4 1162/1/4 1163/1/4
f 1163/1/4 1162/1/4 1164/1/4
f 1165/1/4 1166/1/4 1167/1/4
f 1167/1/4 1166/1/4 1168/1/4
f 1169/4/4 1170/4/4 1173/4/4
f 1170/2/4 1171/2/4 1174/2/4
f 1173/4/4 1170/4/4 1174/4/4
f 1171/5/4 1172/5/4 1175/5/4
f 1174/2/4 1171/2/4 1175/2/4
f 1175/5/4 1172/5/4 1176/5/4
f 1177/5/4 1178/5/4 1182/5/4
f 1182/5/4 1178/5/4 1183/5/4
f 1179/4/4 1180/4/4 1184/4/4
f 1180/5/4 1181/5/4 1185/5/4
f 1184/4/4 1180/4/4 1185/4/4
f 1185/5/4 1181/5/4 1186/5/4
f 1187/1/4 1188/1/4 1189/1/4
f 1189/1/4 1188/1/4 1190/1/4
f 1191/5/4 1192/5/4 1195/5/4
f 1195/5/4 1192/5/4 1196/5/4
f 1193/5/4 1194/5/4 1197/5/4
f 1197/5/4 1194/5/4 1198/5/4
f 1195/4/4 1196/4/4 1199/4/4
f 1196/4/4 1197/4/4 1199/4/4
f 1197/2/4 1198/2/4 1200/2/4
f 1199/4/4 1197/4/4 1200/4/4
f 1198/5/4 1194/5/4 1201/5/4
f 1200/2/4 1198/2/4 1201/2/4
f 1201/5/4 1194/5/4 1202/5/4
f 1195/4/4 1199/4/4 1203/4/4
f 1203/4/4 1199/4/4 1204/4/4
f 1205/5/4 1206/5/4 1209/5/4
f 1209/5/4 1206/5/4 1210/5/4
f 1207/4/4 1208/4/4 1211/4/4
f 1207/4/4 1211/4/4 1214/4/4
f 1211/4/4 1212/4/4 1214/4/4
f 1212/5/4 1213/5/4 1215/5/4
f 1214/4/4 1212/4/4 1215/4/4
f 1214/5/4 1215/5/4 1216/5/4
f 1215/5/4 1213/5/4 1217/5/4
f 1216/5/4 1215/5/4 1217/5/4
f 1218/5/4 1219/5/4 1222/5/4
f 1220/5/4 1221/5/4 1222/5/4
f 1219/5/4 1220/5/4 1222/5/4
f 1222/5/4 1221/5/4 1223/5/4
f 1223/5/4 1221/5/4 1224/5/4
f 1224/5/4 1221/5/4 1225/5/4
f 1225/5/4 1221/5/4 1226/5/4
f 1227/5/4 1228/5/4 1229/5/4
f 1229/5/4 1228/5/4 1230/5/4
f 1229/4/4 1230/4/4 1231/4/4
f 1230/5/4 1228/5/4 1232/5/4
f 1231/4/4 1230/4/4 1232/4/4
f 1232/5/4 1228/5/4 1233/5/4
f 1234/5/4 1235/5/4 1236/5/4
f 1236/5/4 1235/5/4 1237/5/4
f 1238/4/4 1239/4/4 1243/4/4
f 1239/5/4 1240/5/4 1244/5/4
f 1243/4/4 1239/4/4 1244/4/4
f 1241/5/4 1242/5/4 1245/5/4
f 1245/5/4 1242/5/4 1246/5/4
f 1243/5/4 1244/5/4 1247/5/4
f 1244/5/4 1240/5/4 1248/5/4
f 1247/5/4 1244/5/4 1248/5/4
f 1249/1/4 1250/1/4 1252/1/4
f 1252/1/4 1250/1/4 1253/1/4
f 1251/1/4 1252/1/4 1255/1/4
f 1255/1/4 1252/1/4 1256/1/4
f 1254/1/4 1255/1/4 1257/1/4
f 1257/1/4 1255/1/4 1258/1/4
f 1259/4/4 1260/4/4 1263/4/4
f 1263/4/4 1260/4/4 1264/4/4
f 1261/5/4 1262/5/4 1265/5/4
f 1265/5/4 1262/5/4 1266/5/4
f 1267/4/4 1268/4/4 1269/4/4
f 1269/4/4 1268/4/4 1270/4/4
f 1271/1/4 1272/1/4 1273/1/4
f 1273/1/4 1272/1/4 1274/1/4
f 1274/1/4 1275/1/4 1276/1/4
f 1276/1/4 1275/1/4 1277/1/4
f 1277/1/4 1278/1/4 1279/1/4
f 1279/1/4 1278/1/4 1280/1/4
f 1281/1/4 1282/1/4 1283/1/4
f 1283/1/4 1282/1/4 1284/1/4
f 1285/1/4 1286/1/4 1287/1/4
f 1287/1/4 1286/1/4 1288/1/4
f 1289/5/4 1290/5/4 1293/5/4
f 1293/5/4 1290/5/4 1294/5/4
f 1291/5/4 1292/5/4 1295/5/4
f 1295/5/4 1292/5/4 1296/5/4
f 1297/5/4 1298/5/4 1299/5/4
f 1299/5/4 1298/5/4 1300/5/4
f 1301/1/4 1302/1/4 1303/1/4
f 1303/1/4 1302/1/4 1304/1/4
f 1305/1/4 1306/1/4 1309/1/4
f 1309/1/4 1306/1/4 1310/1/4
f 1307/1/4 1308/1/4 1311/1/4
f 1311/1/4 1308/1/4 1312/1/4
f 1313/1/4 1314/1/4 1315/1/4
f 1315/1/4 1314/1/4 1316/1/4
f 1316/1/4 1317/1/4 1318/1/4
f 1318/1/4 1317/1/4 1319/1/4
f 1319/1/4 1320/1/4 1323/1/4
f 1323/1/4 1320/1/4 1324/1/4
f 1321/1/4 1322/1/4 1326/1/4
f 1326/1/4 1322/1/4 1327/1/4
f 1325/1/4 1326/1/4 1328/1/4
f 1328/1/4 1326/1/4 1329/1/4
f 1330/1/4 1331/1/4 1332/1/4
f 1332/1/4 1331/1/4 1333/1/4
f 1334/1/4 1335/1/4 1336/1/4
f 1336/1/4 1335/1/4 1337/1/4
f 1338/1/4 1339/1/4 1340/1/4
f 1340/1/4 1339/1/4 1341/1/4
f 1341/1/4 1342/1/4 1343/1/4
f 1343/1/4 1342/1/4 1344/1/4
f 1345/1/4 1346/1/4 1348/1/4
f 1348/1/4 1346/1/4 1349/1/4
f 1347/1/4 1348/1/4 1351/1/4
f 1351/1/4 1348/1/4 1352/1/4
f 1350/1/4 1351/1/4 1353/1/4
f 1353/1/4 1351/1/4 1354/1/4
f 1355/1/4 1356/1/4 1357/1/4
f 1357/1/4 1356/1/4 1358/1/4
f 1359/1/4 1360/1/4 1361/1/4
f 1361/1/4 1360/1/4 1362/1/4
f 1362/1/4 1363/1/4 1364/1/4
f 1364/1/4 1363/1/4 1365/1/4
f 1365/1/4 1366/1/4 1369/1/4
f 1369/1/4 1366/1/4 1370/1/4
f 1367/1/4 1368/1/4 1372/1/4
f 1372/1/4 1368/1/4 1373/1/4
f 1371/1/4 1372/1/4 1375/1/4
f 1375/1/4 1372/1/4 1376/1/4
f 1374/1/4 1375/1/4 1377/1/4
f 1377/1/4 1375/1/4 1378/1/4
f 1378/1/4 1379/1/4 1380/1/4
f 1380/1/4 1379/1/4 1381/1/4
f 1381/1/4 1382/1/4 1383/1/4
f 1383/1/4 1382/1/4 1384/1/4
f 1385/1/4 1386/1/4 1388/1/4
f 1388/1/4 1386/1/4 1389/1/4
f 1387/1/4 1388/1/4 1391/1/4
f 1391/1/4 1388/1/4 1392/1/4
f 1390/1/4 1391/1/4 1395/1/4
f 1395/1/4 1391/1/4 1396/1/4
f 1393/1/4 1394/1/4 1397/1/4
f 1397/1/4 1394/1/4 1398/1/4
f 1399/1/4 1400/1/4 1401/1/4
f 1401/1/4 1400/1/4 1402/1/4
f 1403/1/4 1404/1/4 1405/1/4
f 1405/1/4 1404/1/4 1406/1/4
f 1406/1/4 1407/1/4 1408/1/4
f 1408/1/4 1407/1/4 1409/1/4
f 1409/1/4 1410/1/4 1413/1/4
f 1413/1/4 1410/1/4 1414/1/4
f 1411/1/4 1412/1/4 1416/1/4
f 1416/1/4 1412/1/4 1417/1/4
f 1415/1/4 1416/1/4 1418/1/4
f 1418/1/4 1416/1/4 1419/1/4
f 1419/1/4 1420/1/4 1421/1/4
f 1421/1/4 1420/1/4 1422/1/4
f 1423/1/4 1424/1/4 1426/1/4
f 1426/1/4 1424/1/4 1427/1/4
f 1425/1/4 1426/1/4 1429/1/4
f 1429/1/4 1426/1/4 1430/1/4
f 1428/1/4 1429/1/4 1433/1/4
f 1433/1/4 1429/1/4 1434/1/4
f 1431/1/4 1432/1/4 1435/1/4
f 1435/1/4 1432/1/4 1436/1/4
f 1437/1/4 1438/1/4 1439/1/4
f 1439/1/4 1438/1/4 1440/1/4
f 1441/1/4 1442/1/4 1443/1/4
f 1443/1/4 1442/1/4 1444/1/4
f 1444/1/4 1445/1/4 1446/1/4
f 1446/1/4 1445/1/4 1447/1/4
f 1447/1/4 1448/1/4 1451/1/4
f 1451/1/4 1448/1/4 1452/1/4
f 1447/1/4 1451/1/4 1453/1/4
f 1453/1/4 1451/1/4 1454/1/4
f 1447/1/4 1453/1/4 1455/1/4
f 1449/1/4 1450/1/4 1457/1/4
f 1457/1/4 1450/1/4 1458/1/4
f 1455/1/4 1456/1/4 1459/1/4
f 1459/1/4 1460/1/4 1462/1/4
f 1455/1/4 1459/1/4 1462/1/4
f 1447/1/4 1455/1/4 1462/1/4
f 1462/1/4 1460/1/4 1463/1/4
f 1461/1/4 1462/1/4 1465/1/4
f 1465/1/4 1462/1/4 1466/1/4
f 1464/1/4 1465/1/4 1469/1/4
f 1469/1/4 1465/1/4 1470/1/4
f 1467/1/4 1468/1/4 1471/1/4
f 1471/1/4 1468/1/4 1472/1/4
f 1473/1/4 1474/1/4 1475/1/4
f 1475/1/4 1474/1/4 1476/1/4
f 1477/1/4 1478/1/4 1479/1/4
f 1479/1/4 1478/1/4 1480/1/4
f 1482/1/4 1483/1/4 1484/1/4
f 1480/1/4 1481/1/4 1485/1/4
f 1485/1/4 1481/1/4 1486/1/4
f 1482/1/4 1484/1/4 1489/1/4
f 1484/1/4 1485/1/4 1489/1/4
f 1489/1/4 1485/1/4 1490/1/4
f 1487/1/4 1488/1/4 1491/1/4
f 1491/1/4 1488/1/4 1492/1/4
f 1493/1/4 1494/1/4 1497/1/4
f 1497/1/4 1494/1/4 1498/1/4
f 1495/1/4 1496/1/4 1501/1/4
f 1501/1/4 1496/1/4 1502/1/4
f 1502/1/4 1496/1/4 1503/1/4
f 1503/1/4 1496/1/4 1504/1/4
f 1499/1/4 1500/1/4 1505/1/4
f 1505/1/4 1500/1/4 1506/1/4
f 1507/1/4 1508/1/4 1509/1/4
f 1509/1/4 1508/1/4 1510/1/4
f 1514/1/5 1512/1/5 1511/1/5
f 1515/1/5 1512/1/5 1514/1/5
f 1518/1/5 1514/1/5 1513/1/5
f 1518/1/5 1516/1/5 1515/1/5
f 1518/1/5 1515/1/5 1514/1/5
f 1519/1/5 1516/1/5 1518/1/5
f 1522/1/5 1518/1/5 1517/1/5
f 1522/1/5 1520/1/5 1519/1/5
f 1522/1/5 1519/1/5 1518/1/5
f 1523/1/5 1520/1/5 1522/1/5
f 1526/1/5 1522/1/5 1521/1/5
f 1526/1/5 1524/1/5 1523/1/5
f 1526/1/5 1523/1/5 1522/1/5
f 1527/1/5 1524/1/5 1526/1/5
f 1530/1/5 1526/1/5 1525/1/5
f 1530/1/5 1528/1/5 1527/1/5
f 1530/1/5 1527/1/5 1526/1/5
f 1531/1/5 1528/1/5 1530/1/5
f 1534/1/5 1530/1/5 1529/1/5
f 1534/1/5 1532/1/5 1531/1/5
f 1534/1/5 1531/1/5 1530/1/5
f 1535/1/5 1532/1/5 1534/1/5
f 1537/1/5 1534/1/5 1533/1/5
f 1537/1/5 1536/1/5 1535/1/5
f 1537/1/5 1535/1/5 1534/1/5
f 1538/1/5 1536/1/5 1537/1/5
f 1539/1/5 1536/1/5 1538/1/5
f 1540/1/5 1536/1/5 1539/1/5
f 1541/1/5 1539/1/5 1538/1/5
f 1542/1/5 1539/1/5 1541/1/5
f 1543/1/5 1539/1/5 1542/1/5
f 1544/1/5 1539/1/5 1543/1/5
f 1545/1/5 1543/1/5 1542/1/5
f 1546/1/5 1543/1/5 1545/1/5
f 1547/1/5 1543/1/5 1546/1/5
f 1548/1/5 1543/1/5 1547/1/5
f 1549/1/5 1547/1/5 1546/1/5
f 1550/1/5 1547/1/5 1549/1/5
f 1551/1/5 1547/1/5 1550/1/5
f 1552/1/5 1547/1/5 1551/1/5
f 1553/1/5 1551/1/5 1550/1/5
f 1554/1/5 1551/1/5 1553/1/5
f 1555/1/5 1551/1/5 1554/1/5
f 1556/1/5 1551/1/5 1555/1/5
f 1557/1/5 1555/1/5 1554/1/5
f 1558/1/5 1555/1/5 1557/1/5
f 1559/1/5 1555/1/5 1558/1/5
f 1560/1/5 1555/1/5 1559/1/5
f 1561/1/5 1559/1/5 1558/1/5
f 1562/1/5 1559/1/5 1561/1/5
f 1566/1/5 1564/1/5 1563/1/5
f 1567/1/5 1564/1/5 1566/1/5
f 1570/1/5 1566/1/5 1565/1/5
f 1571/1/5 1566/1/5 1570/1/5
f 1572/1/5 1566/1/5 1571/1/5
f 1573/1/5 1568/1/5 1567/1/5
f 1574/1/5 1568/1/5 1573/1/5
f 1575/1/5 1568/1/5 1574/1/5
f 1577/1/5 1570/1/5 1569/1/5
f 1577/1/5 1571/1/5 1570/1/5
f 1578/1/5 1571/1/5 1577/1/5
f 1579/1/5 1576/1/5 1575/1/5
f 1579/1/5 1575/1/5 1574/1/5
f 1580/1/5 1576/1/5 1579/1/5
f 1582/1/5 1577/1/5 1569/1/5
f 1583/1/5 1577/1/5 1582/1/5
f 1584/1/5 1576/1/5 1580/1/5
f 1585/1/5 1576/1/5 1584/1/5
f 1587/1/5 1582/1/5 1581/1/5
f 1588/1/5 1582/1/5 1587/1/5
f 1591/1/5 1586/1/5 1585/1/5
f 1592/1/5 1586/1/5 1591/1/5
f 1593/1/5 1589/1/5 1588/1/5
f 1596/1/5 1591/1/5 1590/1/5
f 1597/1/5 1594/1/5 1593/1/5
f 1597/1/5 1593/1/5 1588/1/5
f 1598/1/5 1594/1/5 1597/1/5
f 1599/1/5 1594/1/5 1598/1/5
f 1602/1/5 1596/1/5 1595/1/5
f 1603/1/5 1591/1/5 1596/1/5
f 1603/1/5 1596/1/5 1602/1/5
f 1604/1/5 1591/1/5 1603/1/5
f 1605/1/5 1600/1/5 1599/1/5
f 1605/1/5 1599/1/5 1598/1/5
f 1606/1/5 1600/1/5 1605/1/5
f 1607/1/5 1602/1/5 1601/1/5
f 1607/1/5 1603/1/5 1602/1/5
f 1608/1/5 1603/1/5 1607/1/5
f 1609/1/5 1607/1/5 1606/1/5
f 1610/1/5 1607/1/5 1609/1/5
f 1614/1/5 1612/1/5 1611/1/5
f 1615/1/5 1612/1/5 1614/1/5
f 1618/1/5 1614/1/5 1613/1/5
f 1619/1/5 1614/1/5 1618/1/5
f 1620/1/5 1616/1/5 1615/1/5
f 1621/1/5 1616/1/5 1620/1/5
f 1624/1/5 1618/1/5 1617/1/5
f 1625/1/5 1618/1/5 1624/1/5
f 1626/1/5 1622/1/5 1621/1/5
f 1627/1/5 1622/1/5 1626/1/5
f 1630/1/5 1624/1/5 1623/1/5
f 1631/1/5 1624/1/5 1630/1/5
f 1632/1/5 1628/1/5 1627/1/5
f 1633/1/5 1628/1/5 1632/1/5
f 1635/1/5 1630/1/5 1629/1/5
f 1636/1/5 1630/1/5 1635/1/5
f 1639/1/5 1634/1/5 1633/1/5
f 1640/1/5 1634/1/5 1639/1/5
f 1641/1/5 1637/1/5 1636/1/5
f 1642/1/5 1637/1/5 1641/1/5
f 1645/1/5 1639/1/5 1638/1/5
f 1646/1/5 1639/1/5 1645/1/5
f 1647/1/5 1643/1/5 1642/1/5
f 1648/1/5 1643/1/5 1647/1/5
f 1651/1/5 1645/1/5 1644/1/5
f 1652/1/5 1645/1/5 1651/1/5
f 1653/1/5 1649/1/5 1648/1/5
f 1654/1/5 1649/1/5 1653/1/5
f 1655/1/5 1651/1/5 1650/1/5
f 1656/1/5 1651/1/5 1655/1/5
f 1657/1/5 1655/1/5 1654/1/5
f 1658/1/5 1655/1/5 1657/1/5
f 1662/1/5 1660/1/5 1659/1/5
f 1663/1/5 1660/1/5 1662/1/5
f 1666/1/5 1662/1/5 1661/1/5
f 1666/1/5 1664/1/5 1663/1/5
f 1666/1/5 1663/1/5 1662/1/5
f 1667/1/5 1664/1/5 1666/1/5
f 1668/1/5 1664/1/5 1667/1/5
f 1669/1/5 1664/1/5 1668/1/5
f 1672/1/5 1666/1/5 1665/1/5
f 1672/1/5 1667/1/5 1666/1/5
f 1673/1/5 1667/1/5 1672/1/5
f 1674/1/5 1667/1/5 1673/1/5
f 1675/1/5 1669/1/5 1668/1/5
f 1675/1/5 1670/1/5 1669/1/5
f 1676/1/5 1670/1/5 1675/1/5
f 1677/1/5 1670/1/5 1676/1/5
f 1680/1/5 1673/1/5 1672/1/5
f 1680/1/5 1672/1/5 1671/1/5
f 1681/1/5 1673/1/5 1680/1/5
f 1682/1/5 1673/1/5 1681/1/5
f 1683/1/5 1678/1/5 1677/1/5
f 1683/1/5 1677/1/5 1676/1/5
f 1684/1/5 1678/1/5 1683/1/5
f 1685/1/5 1678/1/5 1684/1/5
f 1687/1/5 1681/1/5 1680/1/5
f 1687/1/5 1680/1/5 1679/1/5
f 1688/1/5 1681/1/5 1687/1/5
f 1689/1/5 1686/1/5 1685/1/5
f 1689/1/5 1685/1/5 1684/1/5
f 1690/1/5 1686/1/5 1689/1/5
f 1692/1/5 1687/1/5 1679/1/5
f 1693/1/5 1686/1/5 1690/1/5
f 1695/1/5 1692/1/5 1691/1/5
f 1695/1/5 1687/1/5 1692/1/5
f 1696/1/5 1687/1/5 1695/1/5
f 1697/1/5 1694/1/5 1693/1/5
f 1697/1/5 1693/1/5 1690/1/5
f 1698/1/5 1694/1/5 1697/1/5
f 1699/1/5 1695/1/5 1691/1/5
f 1702/1/5 1694/1/5 1698/1/5
f 1703/1/5 1694/1/5 1702/1/5
f 1703/1/5 1702/1/5 1701/1/5
f 1704/1/5 1694/1/5 1703/1/5
f 1705/1/5 1700/1/5 1699/1/5
f 1705/1/5 1699/1/5 1691/1/5
f 1706/1/5 1700/1/5 1705/1/5
f 1707/1/5 1700/1/5 1706/1/5
f 1710/1/5 1703/1/5 1701/1/5
f 1711/1/5 1708/1/5 1707/1/5
f 1711/1/5 1707/1/5 1706/1/5
f 1712/1/5 1708/1/5 1711/1/5
f 1713/1/5 1708/1/5 1712/1/5
f 1716/1/5 1710/1/5 1709/1/5
f 1717/1/5 1703/1/5 1710/1/5
f 1717/1/5 1710/1/5 1716/1/5
f 1718/1/5 1703/1/5 1717/1/5
f 1719/1/5 1714/1/5 1713/1/5
f 1719/1/5 1713/1/5 1712/1/5
f 1720/1/5 1714/1/5 1719/1/5
f 1721/1/5 1714/1/5 1720/1/5
f 1724/1/5 1716/1/5 1715/1/5
f 1724/1/5 1717/1/5 1716/1/5
f 1725/1/5 1717/1/5 1724/1/5
f 1726/1/5 1717/1/5 1725/1/5
f 1727/1/5 1722/1/5 1721/1/5
f 1727/1/5 1721/1/5 1720/1/5
f 1728/1/5 1722/1/5 1727/1/5
f 1729/1/5 1722/1/5 1728/1/5
f 1730/1/5 1725/1/5 1724/1/5
f 1730/1/5 1724/1/5 1723/1/5
f 1731/1/5 1725/1/5 1730/1/5
f 1732/1/5 1725/1/5 1731/1/5
f 1733/1/5 1729/1/5 1728/1/5
f 1733/1/5 1731/1/5 1730/1/5
f 1733/1/5 1730/1/5 1729/1/5
f 1734/1/5 1731/1/5 1733/1/5
f 1735/1/5 1731/1/5 1734/1/5
f 1736/1/5 1731/1/5 1735/1/5
f 1737/1/5 1735/1/5 1734/1/5
f 1738/1/5 1735/1/5 1737/1/5
f 1743/1/5 1740/1/5 1739/1/5
f 1744/1/5 1740/1/5 1743/1/5
f 1745/1/5 1742/1/5 1741/1/5
f 1746/1/5 1742/1/5 1745/1/5
f 1751/1/5 1748/1/5 1747/1/5
f 1752/1/5 1748/1/5 1751/1/5
f 1753/1/5 1750/1/5 1749/1/5
f 1754/1/5 1750/1/5 1753/1/5
f 1757/1/5 1756/1/5 1755/1/5
f 1758/1/5 1756/1/5 1757/1/5
f 1761/1/5 1760/1/5 1759/1/5
f 1762/1/5 1760/1/5 1761/1/5
f 1765/5/5 1764/5/5 1763/5/5
f 1766/5/5 1764/5/5 1765/5/5
f 1769/5/5 1768/5/5 1767/5/5
f 1770/5/5 1768/5/5 1769/5/5
f 1773/5/5 1772/5/5 1771/5/5
f 1774/5/5 1772/5/5 1773/5/5
f 1779/5/5 1776/5/5 1775/5/5
f 1780/5/5 1776/5/5 1779/5/5
f 1781/5/5 1778/5/5 1777/5/5
f 1782/5/5 1778/5/5 1781/5/5
f 1785/5/5 1784/5/5 1783/5/5
f 1786/5/5 1784/5/5 1785/5/5
f 1791/5/5 1788/5/5 1787/5/5
f 1792/5/5 1788/5/5 1791/5/5
f 1793/5/5 1790/5/5 1789/5/5
f 1794/5/5 1790/5/5 1793/5/5
f 1797/5/5 1796/5/5 1795/5/5
f 1798/5/5 1796/5/5 1797/5/5
f 1799/1/6 1800/1/6 1802/1/6
f 1802/1/6 1800/1/6 1803/1/6
f 1801/1/6 1802/1/6 1806/1/6
f 1803/1/6 1804/1/6 1806/1/6
f 1802/1/6 1803/1/6 1806/1/6
f 1806/1/6 1804/1/6 1807/1/6
f 1805/1/6 1806/1/6 1810/1/6
f 1807/1/6 1808/1/6 1810/1/6
f 1806/1/6 1807/1/6 1810/1/6
f 1810/1/6 1808/1/6 1811/1/6
f 1809/1/6 1810/1/6 1814/1/6
f 1811/1/6 1812/1/6 1814/1/6
f 1810/1/6 1811/1/6 1814/1/6
f 1814/1/6 1812/1/6 1815/1/6
f 1813/1/6 1814/1/6 1818/1/6
f 1815/1/6 1816/1/6 1818/1/6
f 1814/1/6 1815/1/6 1818/1/6
f 1818/1/6 1816/1/6 1819/1/6
f 1819/1/6 1816/1/6 1820/1/6
f 1820/1/6 1816/1/6 1821/1/6
f 1817/1/6 1818/1/6 1823/1/6
f 1818/1/6 1819/1/6 1823/1/6
f 1823/1/6 1819/1/6 1824/1/6
f 1821/1/6 1822/1/6 1825/1/6
f 1820/1/6 1821/1/6 1825/1/6
f 1825/1/6 1822/1/6 1826/1/6
f 1817/1/6 1823/1/6 1828/1/6
f 1828/1/6 1823/1/6 1829/1/6
f 1829/1/6 1823/1/6 1830/1/6
f 1826/1/6 1822/1/6 1831/1/6
f 1831/1/6 1822/1/6 1832/1/6
f 1832/1/6 1822/1/6 1833/1/6
f 1827/1/6 1828/1/6 1835/1/6
f 1828/1/6 1829/1/6 1835/1/6
f 1835/1/6 1829/1/6 1836/1/6
f 1833/1/6 1834/1/6 1837/1/6
f 1832/1/6 1833/1/6 1837/1/6
f 1837/1/6 1834/1/6 1838/1/6
f 1827/1/6 1835/1/6 1839/1/6
f 1838/1/6 1834/1/6 1842/1/6
f 1839/1/6 1840/1/6 1843/1/6
f 1827/1/6 1839/1/6 1843/1/6
f 1843/1/6 1840/1/6 1844/1/6
f 1844/1/6 1840/1/6 1845/1/6
f 1841/1/6 1842/1/6 1848/1/6
f 1842/1/6 1834/1/6 1849/1/6
f 1848/1/6 1842/1/6 1849/1/6
f 1849/1/6 1834/1/6 1850/1/6
f 1845/1/6 1846/1/6 1851/1/6
f 1844/1/6 1845/1/6 1851/1/6
f 1847/1/6 1848/1/6 1854/1/6
f 1848/1/6 1849/1/6 1854/1/6
f 1851/1/6 1852/1/6 1855/1/6
f 1844/1/6 1851/1/6 1855/1/6
f 1855/1/6 1852/1/6 1856/1/6
f 1856/1/6 1852/1/6 1857/1/6
f 1853/1/6 1854/1/6 1858/1/6
f 1854/1/6 1849/1/6 1859/1/6
f 1858/1/6 1854/1/6 1859/1/6
f 1859/1/6 1849/1/6 1860/1/6
f 1856/1/6 1857/1/6 1861/1/6
f 1857/1/6 1858/1/6 1861/1/6
f 1858/1/6 1859/1/6 1861/1/6
f 1861/1/6 1859/1/6 1862/1/6
f 1862/1/6 1859/1/6 1863/1/6
f 1863/1/6 1859/1/6 1864/1/6
f 1862/1/6 1863/1/6 1865/1/6
f 1865/1/6 1863/1/6 1866/1/6
f 1866/1/6 1863/1/6 1867/1/6
f 1867/1/6 1863/1/6 1868/1/6
f 1866/1/6 1867/1/6 1869/1/6
f 1869/1/6 1867/1/6 1870/1/6
f 1870/1/6 1867/1/6 1871/1/6
f 1871/1/6 1867/1/6 1872/1/6
f 1870/1/6 1871/1/6 1873/1/6
f 1873/1/6 1871/1/6 1874/1/6
f 1874/1/6 1871/1/6 1875/1/6
f 1875/1/6 1871/1/6 1876/1/6
f 1874/1/6 1875/1/6 1877/1/6
f 1877/1/6 1875/1/6 1878/1/6
f 1879/1/6 1880/1/6 1882/1/6
f 1882/1/6 1880/1/6 1883/1/6
f 1881/1/6 1882/1/6 1886/1/6
f 1886/1/6 1882/1/6 1887/1/6
f 1883/1/6 1884/1/6 1888/1/6
f 1888/1/6 1884/1/6 1889/1/6
f 1885/1/6 1886/1/6 1892/1/6
f 1892/1/6 1886/1/6 1893/1/6
f 1889/1/6 1890/1/6 1894/1/6
f 1894/1/6 1890/1/6 1895/1/6
f 1891/1/6 1892/1/6 1898/1/6
f 1898/1/6 1892/1/6 1899/1/6
f 1895/1/6 1896/1/6 1900/1/6
f 1900/1/6 1896/1/6 1901/1/6
f 1897/1/6 1898/1/6 1904/1/6
f 1904/1/6 1898/1/6 1905/1/6
f 1901/1/6 1902/1/6 1906/1/6
f 1906/1/6 1902/1/6 1907/1/6
f 1903/1/6 1904/1/6 1909/1/6
f 1909/1/6 1904/1/6 1910/1/6
f 1907/1/6 1908/1/6 1913/1/6
f 1913/1/6 1908/1/6 1914/1/6
f 1910/1/6 1911/1/6 1915/1/6
f 1915/1/6 1911/1/6 1916/1/6
f 1912/1/6 1913/1/6 1919/1/6
f 1919/1/6 1913/1/6 1920/1/6
f 1916/1/6 1917/1/6 1921/1/6
f 1921/1/6 1917/1/6 1922/1/6
f 1918/1/6 1919/1/6 1925/1/6
f 1925/1/6 1919/1/6 1926/1/6
f 1922/1/6 1923/1/6 1927/1/6
f 1927/1/6 1923/1/6 1928/1/6
f 1924/1/6 1925/1/6 1931/1/6
f 1931/1/6 1925/1/6 1932/1/6
f 1928/1/6 1929/1/6 1933/1/6
f 1933/1/6 1929/1/6 1934/1/6
f 1930/1/6 1931/1/6 1935/1/6
f 1935/1/6 1931/1/6 1936/1/6
f 1934/1/6 1935/1/6 1937/1/6
f 1937/1/6 1935/1/6 1938/1/6
f 1939/1/6 1940/1/6 1942/1/6
f 1942/1/6 1940/1/6 1943/1/6
f 1941/1/6 1942/1/6 1946/1/6
f 1946/1/6 1942/1/6 1947/1/6
f 1943/1/6 1944/1/6 1948/1/6
f 1948/1/6 1944/1/6 1949/1/6
f 1945/1/6 1946/1/6 1952/1/6
f 1952/1/6 1946/1/6 1953/1/6
f 1947/5/6 1948/5/6 1954/5/6
f 1954/5/6 1948/5/6 1955/5/6
f 1949/1/6 1950/1/6 1956/1/6
f 1956/1/6 1950/1/6 1957/1/6
f 1951/1/6 1952/1/6 1960/1/6
f 1960/1/6 1952/1/6 1961/1/6
f 1954/5/6 1955/5/6 1962/5/6
f 1955/5/6 1956/5/6 1962/5/6
f 1953/5/6 1954/5/6 1962/5/6
f 1962/5/6 1956/5/6 1963/5/6
f 1957/1/6 1958/1/6 1964/1/6
f 1964/1/6 1958/1/6 1965/1/6
f 1962/5/6 1963/5/6 1967/5/6
f 1963/5/6 1964/5/6 1967/5/6
f 1961/5/6 1962/5/6 1967/5/6
f 1967/5/6 1964/5/6 1968/5/6
f 1968/5/6 1964/5/6 1969/5/6
f 1969/5/6 1964/5/6 1970/5/6
f 1961/5/6 1967/5/6 1971/5/6
f 1968/5/6 1969/5/6 1972/5/6
f 1972/5/6 1969/5/6 1973/5/6
f 1970/5/6 1964/5/6 1974/5/6
f 1961/5/6 1971/5/6 1975/5/6
f 1975/5/6 1971/5/6 1976/5/6
f 1976/5/6 1971/5/6 1977/5/6
f 1974/5/6 1964/5/6 1978/5/6
f 1978/5/6 1964/5/6 1979/5/6
f 1979/5/6 1964/5/6 1980/5/6
f 1961/5/6 1975/5/6 1981/5/6
f 1972/5/6 1973/5/6 1983/5/6
f 1983/5/6 1973/5/6 1984/5/6
f 1980/5/6 1964/5/6 1986/5/6
f 1981/5/6 1982/5/6 1987/5/6
f 1961/5/6 1981/5/6 1987/5/6
f 1982/5/6 1983/5/6 1987/5/6
f 1987/5/6 1983/5/6 1988/5/6
f 1988/5/6 1983/5/6 1989/5/6
f 1985/5/6 1986/5/6 1990/5/6
f 1984/5/6 1985/5/6 1990/5/6
f 1990/5/6 1986/5/6 1991/5/6
f 1986/5/6 1964/5/6 1992/5/6
f 1991/5/6 1986/5/6 1992/5/6
f 1961/5/6 1987/5/6 1993/5/6
f 1992/5/6 1964/5/6 1998/5/6
f 1993/5/6 1994/5/6 1999/5/6
f 1994/5/6 1995/5/6 1999/5/6
f 1989/5/6 1990/5/6 2000/5/6
f 2000/5/6 1990/5/6 2001/5/6
f 1996/5/6 1997/5/6 2002/5/6
f 1997/5/6 1998/5/6 2002/5/6
f 1993/5/6 1999/5/6 2003/5/6
f 2000/5/6 2001/5/6 2004/5/6
f 2001/5/6 2002/5/6 2004/5/6
f 1959/1/6 1960/1/6 2005/1/6
f 2005/1/6 1960/1/6 2006/1/6
f 2003/5/6 2004/5/6 2007/5/6
f 1993/5/6 2003/5/6 2007/5/6
f 1961/5/6 1993/5/6 2007/5/6
f 2007/5/6 2004/5/6 2008/5/6
f 2002/5/6 1998/5/6 2009/5/6
f 2008/5/6 2004/5/6 2009/5/6
f 2004/5/6 2002/5/6 2009/5/6
f 1998/5/6 1964/5/6 2009/5/6
f 2009/5/6 1964/5/6 2010/5/6
f 1965/1/6 1966/1/6 2011/1/6
f 2011/1/6 1966/1/6 2012/1/6
f 2006/1/6 2007/1/6 2013/1/6
f 2013/1/6 2007/1/6 2014/1/6
f 2008/5/6 2009/5/6 2015/5/6
f 2015/5/6 2009/5/6 2016/5/6
f 2016/5/6 2009/5/6 2017/5/6
f 2017/5/6 2009/5/6 2018/5/6
f 2010/1/6 2011/1/6 2019/1/6
f 2019/1/6 2011/1/6 2020/1/6
f 2014/1/6 2015/1/6 2021/1/6
f 2021/1/6 2015/1/6 2022/1/6
f 2016/5/6 2017/5/6 2023/5/6
f 2023/5/6 2017/5/6 2024/5/6
f 2018/1/6 2019/1/6 2025/1/6
f 2025/1/6 2019/1/6 2026/1/6
f 2022/1/6 2023/1/6 2027/1/6
f 2027/1/6 2023/1/6 2028/1/6
f 2024/1/6 2025/1/6 2029/1/6
f 2029/1/6 2025/1/6 2030/1/6
f 2028/1/6 2029/1/6 2031/1/6
f 2031/1/6 2029/1/6 2032/1/6
f 2033/1/6 2034/1/6 2035/1/6
f 2035/1/6 2034/1/6 2036/1/6
f 2039/5/6 2040/5/6 2047/5/6
f 2047/5/6 2040/5/6 2048/5/6
f 2041/4/6 2042/4/6 2049/4/6
f 2049/4/6 2042/4/6 2050/4/6
f 2043/4/6 2044/4/6 2051/4/6
f 2051/4/6 2044/4/6 2052/4/6
f 2037/1/6 2038/1/6 2057/1/6
f 2057/1/6 2038/1/6 2058/1/6
f 2053/4/6 2054/4/6 2059/4/6
f 2059/4/6 2054/4/6 2060/4/6
f 2055/4/6 2056/4/6 2061/4/6
f 2061/4/6 2056/4/6 2062/4/6
f 2045/1/6 2046/1/6 2063/1/6
f 2063/1/6 2046/1/6 2064/1/6
f 2065/1/6 2066/1/6 2067/1/6
f 2067/1/6 2066/1/6 2068/1/6
f 2069/1/6 2070/1/6 2073/1/6
f 2073/1/6 2070/1/6 2074/1/6
f 2071/1/6 2072/1/6 2075/1/6
f 2075/1/6 2072/1/6 2076/1/6
f 2077/1/6 2078/1/6 2081/1/6
f 2081/1/6 2078/1/6 2082/1/6
f 2079/1/6 2080/1/6 2083/1/6
f 2083/1/6 2080/1/6 2084/1/6
f 2085/1/6 2086/1/6 2089/1/6
f 2089/1/6 2086/1/6 2090/1/6
f 2087/1/6 2088/1/6 2093/1/6
f 2093/1/6 2088/1/6 2094/1/6
f 2091/5/6 2092/5/6 2095/5/6
f 2095/5/6 2092/5/6 2096/5/6
f 2097/1/6 2098/1/6 2101/1/6
f 2101/1/6 2098/1/6 2102/1/6
f 2099/1/6 2100/1/6 2103/1/6
f 2103/1/6 2100/1/6 2104/1/6
f 2105/1/6 2106/1/6 2110/1/6
f 2110/1/6 2106/1/6 2111/1/6
f 2107/1/6 2108/1/6 2112/1/6
f 2112/1/6 2108/1/6 2113/1/6
f 2109/1/6 2110/1/6 2116/1/6
f 2116/1/6 2110/1/6 2117/1/6
f 2113/1/6 2114/1/6 2118/1/6
f 2118/1/6 2114/1/6 2119/1/6
f 2115/1/6 2116/1/6 2122/1/6
f 2122/1/6 2116/1/6 2123/1/6
f 2119/1/6 2120/1/6 2124/1/6
f 2124/1/6 2120/1/6 2125/1/6
f 2121/1/6 2122/1/6 2127/1/6
f 2127/1/6 2122/1/6 2128/1/6
f 2125/1/6 2126/1/6 2129/1/6
f 2129/1/6 2126/1/6 2130/1/6
f 2131/1/6 2132/1/6 2135/1/6
f 2135/1/6 2132/1/6 2136/1/6
f 2133/1/6 2134/1/6 2139/1/6
f 2139/1/6 2134/1/6 2140/1/6
f 2136/1/6 2137/1/6 2141/1/6
f 2141/1/6 2137/1/6 2142/1/6
f 2138/1/6 2139/1/6 2145/1/6
f 2145/1/6 2139/1/6 2146/1/6
f 2142/1/6 2143/1/6 2147/1/6
f 2147/1/6 2143/1/6 2148/1/6
f 2144/1/6 2145/1/6 2151/1/6
f 2151/1/6 2145/1/6 2152/1/6
f 2148/1/6 2149/1/6 2153/1/6
f 2153/1/6 2149/1/6 2154/1/6
f 2150/1/6 2151/1/6 2155/1/6
f 2155/1/6 2151/1/6 2156/1/6
f 2157/5/6 2158/5/6 2162/5/6
f 2162/5/6 2158/5/6 2163/5/6
f 2159/5/6 2160/5/6 2164/5/6
f 2164/5/6 2160/5/6 2165/5/6
f 2161/5/6 2162/5/6 2167/5/6
f 2167/5/6 2162/5/6 2168/5/6
f 2165/5/6 2166/5/6 2169/5/6
f 2169/5/6 2166/5/6 2170/5/6
f 2171/5/6 2172/5/6 2175/5/6
f 2175/5/6 2172/5/6 2176/5/6
f 2173/5/6 2174/5/6 2179/5/6
f 2179/5/6 2174/5/6 2180/5/6
f 2176/5/6 2177/5/6 2181/5/6
f 2181/5/6 2177/5/6 2182/5/6
f 2178/5/6 2179/5/6 2183/5/6
f 2183/5/6 2179/5/6 2184/5/6
f 2185/5/6 2186/5/6 2187/5/6
f 2187/5/6 2186/5/6 2188/5/6
f 2189/5/6 2190/5/6 2191/5/6
f 2191/5/6 2190/5/6 2192/5/6
f 2193/5/6 2194/5/6 2197/5/6
f 2194/5/6 2195/5/6 2197/5/6
f 2197/5/6 2195/5/6 2198/5/6
f 2196/5/6 2197/5/6 2200/5/6
f 2200/5/6 2197/5/6 2201/5/6
f 2198/5/6 2199/5/6 2202/5/6
f 2202/5/6 2199/5/6 2203/5/6
f 2204/5/6 2205/5/6 2206/5/6
f 2206/5/6 2205/5/6 2207/5/6
