%YAML 1.1
%TAG !u! tag:unity3d.com,2011:
--- !u!114 &11400000
MonoBehaviour:
  m_ObjectHideFlags: 0
  m_CorrespondingSourceObject: {fileID: 0}
  m_PrefabInstance: {fileID: 0}
  m_PrefabAsset: {fileID: 0}
  m_GameObject: {fileID: 0}
  m_Enabled: 1
  m_EditorHideFlags: 0
  m_Script: {fileID: 11500000, guid: e90911e410742a1498a167540c7865bf, type: 3}
  m_Name: SawPose
  m_EditorClassIdentifier: 
  leftHand:
    inputSource: 1
    thumbFingerMovementType: 0
    indexFingerMovementType: 0
    middleFingerMovementType: 0
    ringFingerMovementType: 0
    pinkyFingerMovementType: 0
    ignoreRootPoseData: 1
    ignoreWristPoseData: 1
    position: {x: -0.032410067, y: -0.69990957, z: 0.37770665}
    rotation: {x: 0.2880909, y: -0.6457582, z: -0.28809094, w: 0.64575815}
    bonePositions:
    - {x: -0, y: 0, z: 0}
    - {x: -0.034037687, y: 0.03650266, z: 0.16472164}
    - {x: -0.012083437, y: 0.02807032, z: 0.025049314}
    - {x: 0.040405877, y: 0.000000026077032, z: 0.000000033527613}
    - {x: 0.032516807, y: 0.000000048428774, z: 0.00000013853423}
    - {x: 0.030463902, y: 0.00000016269207, z: 0.0000000792839}
    - {x: 0.000632294, y: 0.026866183, z: 0.015001716}
    - {x: 0.074204095, y: 0.0050020497, z: -0.00023374707}
    - {x: 0.04392974, y: 0.00000023981556, z: 0.00000018486753}
    - {x: 0.028695537, y: -0.00000017043203, z: -0.00000017276034}
    - {x: 0.022821384, y: -0.00000014365155, z: 0.00000007651614}
    - {x: 0.0021774452, y: 0.007119578, z: 0.01631858}
    - {x: 0.07095278, y: -0.0007788185, z: -0.0009972155}
    - {x: 0.043099977, y: 0.000000009313226, z: -0.0007000915}
    - {x: 0.033266123, y: -0.000000048428774, z: -0.00000010954682}
    - {x: 0.025892371, y: 0.00000009984198, z: -0.0000000020352908}
    - {x: 0.000513386, y: -0.0065451115, z: 0.01634764}
    - {x: 0.06587551, y: -0.0017859917, z: -0.00069347396}
    - {x: 0.040696338, y: 0.00000003632158, z: -0.000000044703484}
    - {x: 0.02874685, y: 0.00000018347055, z: 0.00000003650348}
    - {x: 0.022430236, y: 0.00000010846127, z: -0.000000017428562}
    - {x: -0.0024781812, y: -0.018981375, z: 0.015213597}
    - {x: 0.06287827, y: -0.0028441725, z: -0.00033151358}
    - {x: 0.030219609, y: -0.00000008754432, z: -0.000000117113814}
    - {x: 0.0181867, y: -0.00000021434971, z: -0.00000026999624}
    - {x: 0.01801794, y: -0.0000000200012, z: 0.0000000659746}
    - {x: -0.0060591106, y: 0.05628522, z: 0.060063843}
    - {x: -0.04041555, y: -0.043017667, z: 0.019344581}
    - {x: -0.03935372, y: -0.07567404, z: 0.047048334}
    - {x: -0.038340144, y: -0.09098663, z: 0.08257892}
    - {x: -0.031805996, y: -0.08721431, z: 0.12101539}
    boneRotations:
    - {x: -6.123234e-17, y: 1, z: 6.123234e-17, w: -0.00000004371139}
    - {x: -0.078608155, y: -0.92027926, z: 0.3792963, w: -0.055146642}
    - {x: -0.19686925, y: -0.79178995, z: 0.18169926, w: 0.5489049}
    - {x: 0.11884446, y: -0.16167234, z: -0.24998052, w: 0.94723165}
    - {x: 0.31197554, y: -0.0209279, z: -0.39213347, w: 0.86513853}
    - {x: -1.3877788e-17, y: -1.3877788e-17, z: -5.551115e-17, w: 1}
    - {x: -0.6984066, y: -0.34701526, z: -0.4317952, w: 0.45316833}
    - {x: -0.004986912, y: 0.08794166, z: -0.34829932, w: 0.93323576}
    - {x: 0.03974125, y: 0.022883171, z: -0.4990942, w: 0.8653335}
    - {x: -0.0062503563, y: 0.02198626, z: -0.33774525, w: 0.94096}
    - {x: 6.938894e-18, y: 1.9428903e-16, z: -1.348151e-33, w: 1}
    - {x: -0.606057, y: -0.3793292, z: -0.3620468, w: 0.5981024}
    - {x: -0.16513886, y: 0.05472843, z: -0.41772574, w: 0.89176184}
    - {x: 0.0025660465, y: 0.005264974, z: -0.46175724, w: 0.88698703}
    - {x: -0.018893775, y: 0.021230888, z: -0.5168997, w: 0.85557413}
    - {x: 1.1639192e-17, y: -5.602331e-17, z: -0.040125635, w: 0.9991947}
    - {x: -0.5653401, y: -0.36354512, z: -0.4246265, w: 0.6065624}
    - {x: -0.064930834, y: -0.011457442, z: -0.3886738, w: 0.9190133}
    - {x: -0.002109013, y: -0.0007542602, z: -0.3632402, w: 0.93169284}
    - {x: -0.0066652563, y: 0.010825879, z: -0.5102623, w: 0.8599249}
    - {x: 6.938894e-18, y: -9.62965e-35, z: -1.3877788e-17, w: 1}
    - {x: -0.59192777, y: -0.2881981, z: -0.47968638, w: 0.58005553}
    - {x: -0.11132941, y: 0.07809956, z: -0.36702773, w: 0.9202157}
    - {x: 0.026138453, y: -0.0077567557, z: -0.16924392, w: 0.985197}
    - {x: -0.029563446, y: 0.04292136, z: -0.4707642, w: 0.8807184}
    - {x: 0, y: 0, z: 1.9081958e-17, w: 1}
    - {x: 0.20274544, y: 0.59426665, z: 0.2494411, w: 0.73723847}
    - {x: 0.6235274, y: -0.66380864, z: -0.29373443, w: -0.29033053}
    - {x: 0.6780625, y: -0.6592852, z: -0.26568344, w: -0.18704711}
    - {x: 0.7367927, y: -0.6347571, z: -0.14393571, w: -0.18303718}
    - {x: 0.7584072, y: -0.6393418, z: -0.12667806, w: -0.0036594148}
  rightHand:
    inputSource: 2
    thumbFingerMovementType: 0
    indexFingerMovementType: 0
    middleFingerMovementType: 0
    ringFingerMovementType: 0
    pinkyFingerMovementType: 0
    ignoreRootPoseData: 1
    ignoreWristPoseData: 1
    position: {x: -0.00867995, y: -0.699908, z: 0.37770957}
    rotation: {x: 0.28808954, y: -0.64575875, z: -0.2880896, w: 0.6457588}
    bonePositions:
    - {x: -0, y: 0, z: 0}
    - {x: -0.034037687, y: 0.03650266, z: 0.16472164}
    - {x: -0.012083437, y: 0.02807032, z: 0.025049314}
    - {x: 0.040405877, y: 0.000000026077032, z: 0.000000033527613}
    - {x: 0.032516807, y: 0.000000048428774, z: 0.00000013853423}
    - {x: 0.030463902, y: 0.00000016269207, z: 0.0000000792839}
    - {x: 0.000632294, y: 0.026866183, z: 0.015001716}
    - {x: 0.074204095, y: 0.0050020497, z: -0.00023374707}
    - {x: 0.04392974, y: 0.00000023981556, z: 0.00000018486753}
    - {x: 0.028695537, y: -0.00000017043203, z: -0.00000017276034}
    - {x: 0.022821384, y: -0.00000014365155, z: 0.00000007651614}
    - {x: 0.0021774452, y: 0.007119578, z: 0.01631858}
    - {x: 0.07095278, y: -0.0007788185, z: -0.0009972155}
    - {x: 0.043099977, y: 0.000000009313226, z: -0.0007000915}
    - {x: 0.033266123, y: -0.000000048428774, z: -0.00000010954682}
    - {x: 0.025892371, y: 0.00000009984198, z: -0.0000000020352908}
    - {x: 0.000513386, y: -0.0065451115, z: 0.01634764}
    - {x: 0.06587551, y: -0.0017859917, z: -0.00069347396}
    - {x: 0.040696338, y: 0.00000003632158, z: -0.000000044703484}
    - {x: 0.02874685, y: 0.00000018347055, z: 0.00000003650348}
    - {x: 0.022430236, y: 0.00000010846127, z: -0.000000017428562}
    - {x: -0.0024781812, y: -0.018981375, z: 0.015213597}
    - {x: 0.06287827, y: -0.0028441725, z: -0.00033151358}
    - {x: 0.030219609, y: -0.00000008754432, z: -0.000000117113814}
    - {x: 0.0181867, y: -0.00000021434971, z: -0.00000026999624}
    - {x: 0.01801794, y: -0.0000000200012, z: 0.0000000659746}
    - {x: -0.0060591106, y: 0.05628522, z: 0.060063843}
    - {x: -0.04041555, y: -0.043017667, z: 0.019344581}
    - {x: -0.03935372, y: -0.07567404, z: 0.047048334}
    - {x: -0.038340144, y: -0.09098663, z: 0.08257892}
    - {x: -0.031805996, y: -0.08721431, z: 0.12101539}
    boneRotations:
    - {x: -6.123234e-17, y: 1, z: 6.123234e-17, w: -0.00000004371139}
    - {x: -0.078608155, y: -0.92027926, z: 0.3792963, w: -0.055146642}
    - {x: -0.19686925, y: -0.79178995, z: 0.18169926, w: 0.5489049}
    - {x: 0.11884445, y: -0.16167234, z: -0.24998051, w: 0.94723165}
    - {x: 0.31197554, y: -0.0209279, z: -0.39213347, w: 0.86513853}
    - {x: -1.3877788e-17, y: -1.3877788e-17, z: -5.551115e-17, w: 1}
    - {x: -0.6984066, y: -0.34701526, z: -0.4317952, w: 0.45316833}
    - {x: -0.004986912, y: 0.08794166, z: -0.34829932, w: 0.93323576}
    - {x: 0.03974125, y: 0.022883171, z: -0.4990942, w: 0.8653335}
    - {x: -0.0062503563, y: 0.02198626, z: -0.33774525, w: 0.94096}
    - {x: 6.938894e-18, y: 1.9428903e-16, z: -1.348151e-33, w: 1}
    - {x: -0.606057, y: -0.3793292, z: -0.3620468, w: 0.5981024}
    - {x: -0.16513884, y: 0.054728426, z: -0.4177257, w: 0.8917618}
    - {x: 0.0025660463, y: 0.0052649737, z: -0.4617572, w: 0.886987}
    - {x: -0.018893773, y: 0.021230886, z: -0.51689965, w: 0.8555741}
    - {x: 1.1639192e-17, y: -5.602331e-17, z: -0.040125635, w: 0.9991947}
    - {x: -0.5653401, y: -0.36354512, z: -0.4246265, w: 0.6065624}
    - {x: -0.064930834, y: -0.011457442, z: -0.3886738, w: 0.9190133}
    - {x: -0.0021090128, y: -0.00075426017, z: -0.36324018, w: 0.9316928}
    - {x: -0.0066652563, y: 0.010825879, z: -0.5102623, w: 0.8599249}
    - {x: 6.938894e-18, y: -9.62965e-35, z: -1.3877788e-17, w: 1}
    - {x: -0.59192777, y: -0.2881981, z: -0.47968638, w: 0.58005553}
    - {x: -0.11132941, y: 0.07809956, z: -0.36702773, w: 0.9202157}
    - {x: 0.026138453, y: -0.0077567557, z: -0.16924392, w: 0.985197}
    - {x: -0.029563444, y: 0.042921357, z: -0.47076416, w: 0.88071835}
    - {x: 0, y: 0, z: 1.9081958e-17, w: 1}
    - {x: 0.20274544, y: 0.59426665, z: 0.2494411, w: 0.73723847}
    - {x: 0.6235274, y: -0.66380864, z: -0.29373443, w: -0.29033053}
    - {x: 0.6780625, y: -0.6592852, z: -0.26568344, w: -0.18704711}
    - {x: 0.7367927, y: -0.6347571, z: -0.14393571, w: -0.18303718}
    - {x: 0.7584072, y: -0.6393418, z: -0.12667806, w: -0.0036594148}
  applyToSkeletonRoot: 1
