%YAML 1.1
%TAG !u! tag:unity3d.com,2011:
--- !u!114 &11400000
MonoBehaviour:
  m_ObjectHideFlags: 0
  m_CorrespondingSourceObject: {fileID: 0}
  m_PrefabInstance: {fileID: 0}
  m_PrefabAsset: {fileID: 0}
  m_GameObject: {fileID: 0}
  m_Enabled: 1
  m_EditorHideFlags: 0
  m_Script: {fileID: 11500000, guid: e90911e410742a1498a167540c7865bf, type: 3}
  m_Name: StomeskaPose
  m_EditorClassIdentifier: 
  leftHand:
    inputSource: 1
    thumbFingerMovementType: 0
    indexFingerMovementType: 0
    middleFingerMovementType: 0
    ringFingerMovementType: 0
    pinkyFingerMovementType: 0
    ignoreRootPoseData: 1
    ignoreWristPoseData: 1
    position: {x: -0.03581008, y: 0.083245315, z: 0.023434943}
    rotation: {x: 0.60974216, y: 0.6357505, z: 0.364767, w: -0.30163038}
    bonePositions:
    - {x: -0, y: 0, z: 0}
    - {x: 0.018800097, y: 0.009299979, z: 0.1514}
    - {x: -0.012083226, y: 0.028070109, z: 0.025049794}
    - {x: 0.040405795, y: 0.00000005401671, z: -0.000000007450581}
    - {x: 0.03251664, y: -0.00000011827797, z: -0.00000007345807}
    - {x: 0.030463902, y: 0.00000016269207, z: 0.0000000792839}
    - {x: 0.0004, y: 0.0263, z: 0.0115}
    - {x: 0.07420427, y: 0.005002156, z: -0.00023374707}
    - {x: 0.043930277, y: 0.00000023283064, z: 0.000000008614734}
    - {x: 0.028695904, y: 0.0000007301569, z: -0.0000003137393}
    - {x: 0.022821384, y: -0.00000014365155, z: 0.00000007651614}
    - {x: 0.0021772394, y: 0.007119534, z: 0.0163187}
    - {x: 0.0709529, y: -0.00077888323, z: -0.0009971485}
    - {x: 0.043108534, y: -0.000000081490725, z: -0.000000051688403}
    - {x: 0.03326641, y: 0.000000078231096, z: -0.000000090221874}
    - {x: 0.025892371, y: 0.00000009984198, z: -0.0000000020352908}
    - {x: 0.0005133813, y: -0.006545143, z: 0.016347928}
    - {x: 0.06587595, y: -0.0017859559, z: -0.00069344044}
    - {x: 0.040697098, y: 0.00000016205013, z: -0.00000011641532}
    - {x: 0.028746985, y: 0.00000025134068, z: -0.000000083149644}
    - {x: 0.022430236, y: 0.00000010846127, z: -0.000000017428562}
    - {x: -0.0024780706, y: -0.018981338, z: 0.015213557}
    - {x: 0.06287855, y: -0.0028440878, z: -0.00033143163}
    - {x: 0.030219672, y: 0.00000014901161, z: -0.00000007834751}
    - {x: 0.018186703, y: 0.00000018146238, z: -0.00000014009765}
    - {x: 0.01801794, y: -0.0000000200012, z: 0.0000000659746}
    - {x: -0.0060591106, y: 0.05628522, z: 0.060063843}
    - {x: -0.04041555, y: -0.043017667, z: 0.019344581}
    - {x: -0.03935372, y: -0.07567404, z: 0.047048334}
    - {x: -0.038340144, y: -0.09098663, z: 0.08257892}
    - {x: -0.031805996, y: -0.08721431, z: 0.12101539}
    boneRotations:
    - {x: -6.123234e-17, y: 1, z: 6.123234e-17, w: -0.00000004371139}
    - {x: -0.19089483, y: -0.8631183, z: 0.41418386, w: 0.2168819}
    - {x: -0.37049356, y: -0.7626998, z: 0.45572257, w: 0.27081463}
    - {x: 0.12063999, y: -0.18098937, z: -0.31278637, w: 0.92458296}
    - {x: 0.0075461324, y: -0.020677352, z: -0.27003247, w: 0.96259964}
    - {x: -1.3877788e-17, y: -1.3877788e-17, z: -5.551115e-17, w: 1}
    - {x: -0.6124236, y: -0.4590879, z: -0.5093585, w: 0.39335677}
    - {x: 0.02461819, y: 0.12351483, z: -0.29466638, w: 0.9472644}
    - {x: 0.008051333, y: -0.0808079, z: -0.40749282, w: 0.90959054}
    - {x: -0.006805879, y: 0.022835217, z: -0.16109844, w: 0.9866507}
    - {x: 6.938894e-18, y: 1.9428903e-16, z: -1.348151e-33, w: 1}
    - {x: -0.52217203, y: -0.48839748, z: -0.46991152, w: 0.5176751}
    - {x: -0.19936354, y: -0.01646778, z: -0.37168095, w: 0.9065519}
    - {x: 0.022418022, y: -0.0036672675, z: -0.4945258, w: 0.86886615}
    - {x: -0.0079044355, y: 0.027299527, z: -0.09788261, w: 0.9947921}
    - {x: 1.1639192e-17, y: -5.602331e-17, z: -0.040125635, w: 0.9991947}
    - {x: -0.5010585, y: -0.44801205, z: -0.5148214, w: 0.5321508}
    - {x: -0.0703137, y: -0.08661412, z: -0.48409456, w: 0.8678747}
    - {x: -0.002236046, y: -0.00012560934, z: -0.08427697, w: 0.9964399}
    - {x: 0.13623422, y: 0.003103683, z: -0.41331616, w: 0.9003335}
    - {x: 6.938894e-18, y: -9.62965e-35, z: -1.3877788e-17, w: 1}
    - {x: -0.49411985, y: -0.36804014, z: -0.62988025, w: 0.4729091}
    - {x: -0.011851056, y: -0.06798128, z: -0.33717176, w: 0.9389107}
    - {x: 0.001889179, y: 0.00020913403, z: -0.14706863, w: 0.9891245}
    - {x: -0.02267769, y: 0.04692552, z: -0.33105877, w: 0.9421698}
    - {x: 0, y: 0, z: 1.9081958e-17, w: 1}
    - {x: 0.20274544, y: 0.59426665, z: 0.2494411, w: 0.73723847}
    - {x: 0.6235274, y: -0.66380864, z: -0.29373443, w: -0.29033053}
    - {x: 0.6780625, y: -0.6592852, z: -0.26568344, w: -0.18704711}
    - {x: 0.7367927, y: -0.6347571, z: -0.14393571, w: -0.18303718}
    - {x: 0.7584072, y: -0.6393418, z: -0.12667806, w: -0.0036594148}
  rightHand:
    inputSource: 2
    thumbFingerMovementType: 0
    indexFingerMovementType: 0
    middleFingerMovementType: 0
    ringFingerMovementType: 0
    pinkyFingerMovementType: 0
    ignoreRootPoseData: 1
    ignoreWristPoseData: 1
    position: {x: -0.03975563, y: 0.07233425, z: 0.02819249}
    rotation: {x: 0.6544168, y: 0.58780193, z: 0.27672932, w: -0.3868442}
    bonePositions:
    - {x: -0, y: 0, z: 0}
    - {x: 0.018800097, y: 0.009299979, z: 0.1514}
    - {x: -0.012083226, y: 0.028070109, z: 0.025049794}
    - {x: 0.040405795, y: 0.00000005401671, z: -0.000000007450581}
    - {x: 0.03251664, y: -0.00000011827797, z: -0.00000007345807}
    - {x: 0.030463902, y: 0.00000016269207, z: 0.0000000792839}
    - {x: 0.0004, y: 0.0263, z: 0.0115}
    - {x: 0.07420427, y: 0.005002156, z: -0.00023374707}
    - {x: 0.043930277, y: 0.00000023283064, z: 0.000000008614734}
    - {x: 0.028695904, y: 0.0000007301569, z: -0.0000003137393}
    - {x: 0.022821384, y: -0.00000014365155, z: 0.00000007651614}
    - {x: 0.0021772394, y: 0.007119534, z: 0.0163187}
    - {x: 0.0709529, y: -0.00077888323, z: -0.0009971485}
    - {x: 0.043108534, y: -0.000000081490725, z: -0.000000051688403}
    - {x: 0.03326641, y: 0.000000078231096, z: -0.000000090221874}
    - {x: 0.025892371, y: 0.00000009984198, z: -0.0000000020352908}
    - {x: 0.0005133813, y: -0.006545143, z: 0.016347928}
    - {x: 0.06587595, y: -0.0017859559, z: -0.00069344044}
    - {x: 0.040697098, y: 0.00000016205013, z: -0.00000011641532}
    - {x: 0.028746985, y: 0.00000025134068, z: -0.000000083149644}
    - {x: 0.022430236, y: 0.00000010846127, z: -0.000000017428562}
    - {x: -0.0024780706, y: -0.018981338, z: 0.015213557}
    - {x: 0.06287855, y: -0.0028440878, z: -0.00033143163}
    - {x: 0.030219672, y: 0.00000014901161, z: -0.00000007834751}
    - {x: 0.018186703, y: 0.00000018146238, z: -0.00000014009765}
    - {x: 0.01801794, y: -0.0000000200012, z: 0.0000000659746}
    - {x: -0.0060591106, y: 0.05628522, z: 0.060063843}
    - {x: -0.04041555, y: -0.043017667, z: 0.019344581}
    - {x: -0.03935372, y: -0.07567404, z: 0.047048334}
    - {x: -0.038340144, y: -0.09098663, z: 0.08257892}
    - {x: -0.031805996, y: -0.08721431, z: 0.12101539}
    boneRotations:
    - {x: -6.123234e-17, y: 1, z: 6.123234e-17, w: -0.00000004371139}
    - {x: -0.19089483, y: -0.8631183, z: 0.41418386, w: 0.2168819}
    - {x: -0.37049356, y: -0.7626998, z: 0.45572257, w: 0.27081463}
    - {x: 0.12063999, y: -0.18098937, z: -0.31278637, w: 0.92458296}
    - {x: 0.0075461324, y: -0.020677352, z: -0.27003247, w: 0.96259964}
    - {x: -1.3877788e-17, y: -1.3877788e-17, z: -5.551115e-17, w: 1}
    - {x: -0.6124236, y: -0.4590879, z: -0.5093585, w: 0.39335677}
    - {x: 0.02461819, y: 0.12351483, z: -0.29466638, w: 0.9472644}
    - {x: 0.008051333, y: -0.0808079, z: -0.40749282, w: 0.90959054}
    - {x: -0.006805879, y: 0.022835217, z: -0.16109844, w: 0.9866507}
    - {x: 6.938894e-18, y: 1.9428903e-16, z: -1.348151e-33, w: 1}
    - {x: -0.52217203, y: -0.48839748, z: -0.46991152, w: 0.5176751}
    - {x: -0.19936354, y: -0.016467778, z: -0.37168095, w: 0.90655184}
    - {x: 0.022418022, y: -0.0036672675, z: -0.4945258, w: 0.86886615}
    - {x: -0.0079044355, y: 0.027299527, z: -0.09788261, w: 0.9947921}
    - {x: 1.1639192e-17, y: -5.602331e-17, z: -0.040125635, w: 0.9991947}
    - {x: -0.5010585, y: -0.44801205, z: -0.5148214, w: 0.5321508}
    - {x: -0.0703137, y: -0.08661412, z: -0.48409456, w: 0.8678747}
    - {x: -0.002236046, y: -0.00012560934, z: -0.08427697, w: 0.9964399}
    - {x: 0.13623422, y: 0.003103683, z: -0.41331616, w: 0.9003335}
    - {x: 6.938894e-18, y: -9.62965e-35, z: -1.3877788e-17, w: 1}
    - {x: -0.49411985, y: -0.36804014, z: -0.62988025, w: 0.4729091}
    - {x: -0.011851055, y: -0.06798127, z: -0.33717173, w: 0.93891066}
    - {x: 0.001889179, y: 0.00020913403, z: -0.14706863, w: 0.9891245}
    - {x: -0.02267769, y: 0.04692552, z: -0.33105877, w: 0.9421698}
    - {x: 0, y: 0, z: 1.9081958e-17, w: 1}
    - {x: 0.20274544, y: 0.59426665, z: 0.2494411, w: 0.73723847}
    - {x: 0.6235274, y: -0.66380864, z: -0.29373443, w: -0.29033053}
    - {x: 0.6780625, y: -0.6592852, z: -0.26568344, w: -0.18704711}
    - {x: 0.7367927, y: -0.6347571, z: -0.14393571, w: -0.18303718}
    - {x: 0.7584072, y: -0.6393418, z: -0.12667806, w: -0.0036594148}
  applyToSkeletonRoot: 1
